TP3/simulation/qsim/mbr_mux4x1_1b.msim.vcd
$comment
	File created using the following command:
		vcd file mbr_mux4x1_1b.msim.vcd -direction
$end
$date
	Sat Nov 04 14:08:37 2023
$end
$version
	ModelSim Version 10.1d
$end
$timescale
	1ps
$end
$scope module mbr_mux4x1_1b_vlg_vec_tst $end
$var reg 2 ! c [1:0] $end
$var reg 1 " e0 $end
$var reg 1 # e1 $end
$var reg 1 $ e2 $end
$var reg 1 % e3 $end
$var wire 1 & X $end
$var wire 1 ' sampler $end
$scope module i1 $end
$var wire 1 ( gnd $end
$var wire 1 ) vcc $end
$var wire 1 * unknown $end
$var tri1 1 + devclrn $end
$var tri1 1 , devpor $end
$var tri1 1 - devoe $end
$var wire 1 . X~output_o $end
$var wire 1 / e3~input_o $end
$var wire 1 0 c[0]~input_o $end
$var wire 1 1 c[1]~input_o $end
$var wire 1 2 e1~input_o $end
$var wire 1 3 e0~input_o $end
$var wire 1 4 inst5|inst3~0_combout $end
$var wire 1 5 e2~input_o $end
$var wire 1 6 inst5|inst3~1_combout $end
$upscope $end
$upscope $end
$enddefinitions $end
#0
$dumpvars
b0 !
0"
0#
0$
0%
0&
x'
0(
1)
x*
1+
1,
1-
0.
0/
00
01
02
03
04
05
06
$end
#25000
1%
1/
0'
#50000
1$
0%
15
0/
1'
#75000
1%
1/
0'
#100000
b1 !
1#
0$
0%
10
12
05
0/
1'
14
16
1.
1&
#125000
1%
1/
0'
#150000
1$
0%
15
0/
1'
#175000
1%
1/
0'
#200000
b11 !
1"
b10 !
0#
0$
0%
00
11
13
02
05
0/
1'
04
06
0.
0&
#225000
1%
1/
0'
#250000
1$
0%
15
0/
1'
16
1.
1&
#275000
1%
1/
0'
#300000
b11 !
1#
0$
0%
10
12
05
0/
1'
14
06
0.
0&
#325000
1%
1/
0'
16
1.
1&
#350000
1$
0%
15
0/
1'
06
0.
0&
#375000
1%
1/
0'
16
1.
1&
#400000
b1 !
0"
b0 !
0#
0$
0%
00
01
03
02
05
0/
1'
04
06
0.
0&
#425000
1%
1/
0'
#450000
1$
0%
15
0/
1'
#475000
1%
1/
0'
#500000
b1 !
1#
0$
0%
10
12
05
0/
1'
14
16
1.
1&
#525000
1%
1/
0'
#550000
1$
0%
15
0/
1'
#575000
1%
1/
0'
#600000
b11 !
1"
b10 !
0#
0$
0%
00
11
13
02
05
0/
1'
04
06
0.
0&
#625000
1%
1/
0'
#650000
1$
0%
15
0/
1'
16
1.
1&
#675000
1%
1/
0'
#700000
b11 !
1#
0$
0%
10
12
05
0/
1'
14
06
0.
0&
#725000
1%
1/
0'
16
1.
1&
#750000
1$
0%
15
0/
1'
06
0.
0&
#775000
1%
1/
0'
16
1.
1&
#800000
b1 !
0"
b0 !
0#
0$
0%
00
01
03
02
05
0/
1'
04
06
0.
0&
#825000
1%
1/
0'
#850000
1$
0%
15
0/
1'
#875000
1%
1/
0'
#900000
b1 !
1#
0$
0%
10
12
05
0/
1'
14
16
1.
1&
#925000
1%
1/
0'
#950000
1$
0%
15
0/
1'
#975000
1%
1/
0'
