TP3/simulation/qsim/mbr_mux2x1_1b.msim.vcd
$comment
	File created using the following command:
		vcd file mbr_mux2x1_1b.msim.vcd -direction
$end
$date
	Wed Oct 25 11:16:52 2023
$end
$version
	ModelSim Version 10.1d
$end
$timescale
	1ps
$end
$scope module mbr_mux2x1_1b_vlg_vec_tst $end
$var reg 1 ! c $end
$var reg 1 " e0 $end
$var reg 1 # e1 $end
$var wire 1 $ s $end
$var wire 1 % sampler $end
$scope module i1 $end
$var wire 1 & gnd $end
$var wire 1 ' vcc $end
$var wire 1 ( unknown $end
$var tri1 1 ) devclrn $end
$var tri1 1 * devpor $end
$var tri1 1 + devoe $end
$var wire 1 , s~output_o $end
$var wire 1 - e1~input_o $end
$var wire 1 . c~input_o $end
$var wire 1 / e0~input_o $end
$var wire 1 0 inst3~0_combout $end
$upscope $end
$upscope $end
$enddefinitions $end
#0
$dumpvars
0!
0"
0#
0$
x%
0&
1'
x(
1)
1*
1+
0,
0-
0.
0/
00
$end
#100000
1#
1-
0%
#200000
1"
0#
1/
0-
1%
10
1,
1$
#300000
1#
1-
0%
#400000
1!
0"
0#
1.
0/
0-
1%
00
0,
0$
#500000
1#
1-
0%
10
1,
1$
#600000
1"
0#
1/
0-
1%
00
0,
0$
#700000
1#
1-
0%
10
1,
1$
#800000
0!
0"
0#
0.
0/
0-
1%
00
0,
0$
#900000
1#
1-
0%
