TP3/simulation/qsim/mbr_mux8x1_8b.msim.vcd
$comment
	File created using the following command:
		vcd file mbr_mux8x1_8b.msim.vcd -direction
$end
$date
	Sun Oct 29 22:46:28 2023
$end
$version
	ModelSim Version 10.1d
$end
$timescale
	1ps
$end
$scope module mbr_mux8x1_8b_vlg_vec_tst $end
$var reg 8 ! I [7:0] $end
$var reg 3 " s [2:0] $end
$var wire 1 # Y $end
$var wire 1 $ sampler $end
$scope module i1 $end
$var wire 1 % gnd $end
$var wire 1 & vcc $end
$var wire 1 ' unknown $end
$var tri1 1 ( devclrn $end
$var tri1 1 ) devpor $end
$var tri1 1 * devoe $end
$var wire 1 + Y~output_o $end
$var wire 1 , s[1]~input_o $end
$var wire 1 - I[3]~input_o $end
$var wire 1 . I[2]~input_o $end
$var wire 1 / I[0]~input_o $end
$var wire 1 0 I[1]~input_o $end
$var wire 1 1 s[0]~input_o $end
$var wire 1 2 inst|inst2|inst3~2_combout $end
$var wire 1 3 inst|inst2|inst3~3_combout $end
$var wire 1 4 I[5]~input_o $end
$var wire 1 5 I[7]~input_o $end
$var wire 1 6 I[6]~input_o $end
$var wire 1 7 I[4]~input_o $end
$var wire 1 8 inst|inst2|inst3~0_combout $end
$var wire 1 9 inst|inst2|inst3~1_combout $end
$var wire 1 : s[2]~input_o $end
$var wire 1 ; inst|inst2|inst3~4_combout $end
$upscope $end
$upscope $end
$enddefinitions $end
#0
$dumpvars
b10000 !
b0 "
0#
x$
0%
1&
x'
1(
1)
1*
0+
0,
0-
0.
0/
00
01
02
03
04
05
06
17
18
19
0:
0;
$end
#50000
b1 "
11
0$
09
08
#100000
b10001 !
b11 "
b10 "
01
1,
1/
1$
#150000
b11 "
11
0$
18
12
#200000
b10011 !
b111 "
b10010 !
b101 "
b100 "
01
0,
1:
0/
10
1$
19
02
13
03
1;
1+
1#
#250000
b101 "
11
0$
09
08
12
13
0;
0+
0#
#300000
b10011 !
b111 "
b110 "
01
1,
1/
1$
02
03
#350000
b111 "
11
0$
18
12
#400000
b10111 !
b10101 !
b11 "
b10100 !
b1 "
b0 "
01
0,
0:
0/
00
1.
1$
19
02
13
03
1;
1+
1#
0;
0+
0#
#450000
b1 "
11
0$
09
08
#500000
b10101 !
b11 "
b10 "
01
1,
1/
1$
13
1;
1+
1#
#550000
b11 "
11
0$
18
12
03
0;
0+
0#
#600000
b10111 !
b111 "
b10110 !
b101 "
b100 "
01
0,
1:
0/
10
1$
19
02
13
03
1;
1+
1#
#650000
b101 "
11
0$
09
08
12
13
0;
0+
0#
#700000
b10111 !
b111 "
b110 "
01
1,
1/
1$
02
03
13
#750000
b111 "
11
0$
18
12
03
#800000
b11111 !
b11011 !
b11001 !
b11 "
b11000 !
b1 "
b0 "
01
0,
0:
0/
00
0.
1-
1$
19
02
13
03
1;
1+
1#
0;
0+
0#
#850000
b1 "
11
0$
09
08
#900000
b11001 !
b11 "
b10 "
01
1,
1/
1$
#950000
b11 "
11
0$
18
12
13
1;
1+
1#
