TP3/simulation/qsim/mbr_mux2x1_1b.msim.vcd
$comment
	File created using the following command:
		vcd file mbr_mux2x1_1b.msim.vcd -direction
$end
$date
	Sat Nov 04 13:48:53 2023
$end
$version
	ModelSim Version 10.1d
$end
$timescale
	1ps
$end
$scope module mbr_mux2x1_1b_vlg_vec_tst $end
$var reg 1 ! c $end
$var reg 1 " e0 $end
$var reg 1 # e1 $end
$var wire 1 $ X $end
$var wire 1 % sampler $end
$scope module i1 $end
$var wire 1 & gnd $end
$var wire 1 ' vcc $end
$var wire 1 ( unknown $end
$var tri1 1 ) devclrn $end
$var tri1 1 * devpor $end
$var tri1 1 + devoe $end
$var wire 1 , X~output_o $end
$var wire 1 - e1~input_o $end
$var wire 1 . c~input_o $end
$var wire 1 / e0~input_o $end
$var wire 1 0 inst3~0_combout $end
$upscope $end
$upscope $end
$enddefinitions $end
#0
$dumpvars
0!
0"
0#
0$
x%
0&
1'
x(
1)
1*
1+
0,
0-
0.
0/
00
$end
#25000
1#
1-
0%
#50000
1"
0#
1/
0-
1%
10
1,
1$
#75000
1#
1-
0%
#100000
1!
0"
0#
1.
0/
0-
1%
00
0,
0$
#125000
1#
1-
0%
10
1,
1$
#150000
1"
0#
1/
0-
1%
00
0,
0$
#175000
1#
1-
0%
10
1,
1$
#200000
0!
0"
0#
0.
0/
0-
1%
00
0,
0$
#225000
1#
1-
0%
#250000
1"
0#
1/
0-
1%
10
1,
1$
#275000
1#
1-
0%
#300000
1!
0"
0#
1.
0/
0-
1%
00
0,
0$
#325000
1#
1-
0%
10
1,
1$
#350000
1"
0#
1/
0-
1%
00
0,
0$
#375000
1#
1-
0%
10
1,
1$
#400000
0!
0"
0#
0.
0/
0-
1%
00
0,
0$
#425000
1#
1-
0%
#450000
1"
0#
1/
0-
1%
10
1,
1$
#475000
1#
1-
0%
#500000
1!
0"
0#
1.
0/
0-
1%
00
0,
0$
#525000
1#
1-
0%
10
1,
1$
#550000
1"
0#
1/
0-
1%
00
0,
0$
#575000
1#
1-
0%
10
1,
1$
#600000
0!
0"
0#
0.
0/
0-
1%
00
0,
0$
#625000
1#
1-
0%
#650000
1"
0#
1/
0-
1%
10
1,
1$
#675000
1#
1-
0%
#700000
1!
0"
0#
1.
0/
0-
1%
00
0,
0$
#725000
1#
1-
0%
10
1,
1$
#750000
1"
0#
1/
0-
1%
00
0,
0$
#775000
1#
1-
0%
10
1,
1$
#800000
0!
0"
0#
0.
0/
0-
1%
00
0,
0$
#825000
1#
1-
0%
#850000
1"
0#
1/
0-
1%
10
1,
1$
#875000
1#
1-
0%
#900000
1!
0"
0#
1.
0/
0-
1%
00
0,
0$
#925000
1#
1-
0%
10
1,
1$
#950000
1"
0#
1/
0-
1%
00
0,
0$
#975000
1#
1-
0%
10
1,
1$
