TP7/simulation/qsim/mbr_disp_7_seg.msim.vcd
$comment
	File created using the following command:
		vcd file mbr_disp_7_seg.msim.vcd -direction
$end
$date
	Wed Dec 13 10:51:43 2023
$end
$version
	ModelSim Version 10.1d
$end
$timescale
	1ps
$end
$scope module mbr_disp_7_seg_vlg_vec_tst $end
$var reg 4 ! e [3:0] $end
$var wire 1 " s6 $end
$var wire 1 # sampler $end
$scope module i1 $end
$var wire 1 $ gnd $end
$var wire 1 % vcc $end
$var wire 1 & unknown $end
$var tri1 1 ' devclrn $end
$var tri1 1 ( devpor $end
$var tri1 1 ) devoe $end
$var wire 1 * s6~output_o $end
$var wire 1 + e[2]~input_o $end
$var wire 1 , e[0]~input_o $end
$var wire 1 - e[3]~input_o $end
$var wire 1 . e[1]~input_o $end
$var wire 1 / inst|inst2|inst3~0_combout $end
$upscope $end
$upscope $end
$enddefinitions $end
#0
$dumpvars
b1010 !
1"
x#
0$
1%
x&
1'
1(
1)
1*
0+
0,
1-
1.
1/
$end
#10000
b10 !
b110 !
b100 !
b101 !
1,
0.
1+
0-
0#
#20000
b1 !
b11 !
1.
0+
1#
#30000
b1 !
0.
0#
0/
0*
0"
#40000
b11 !
1.
1#
1/
1*
1"
#50000
b1011 !
b1111 !
b1101 !
0.
1+
1-
0#
#60000
b1100 !
b1000 !
b1010 !
0,
1.
0+
1#
#70000
b10 !
b11 !
1,
0-
0#
#80000
b111 !
b101 !
b1101 !
0.
1+
1-
1#
#90000
b1100 !
b1000 !
b1010 !
b10 !
0,
1.
0+
0-
0#
#100000
b11 !
b111 !
b1111 !
1,
1+
1-
1#
#110000
b1101 !
b101 !
0.
0-
0#
#120000
b1 !
b1001 !
0+
1-
1#
#130000
b1000 !
b1100 !
0,
1+
0#
0/
0*
0"
#140000
b1110 !
1.
1#
1/
1*
1"
#150000
b110 !
b111 !
b11 !
b1 !
1,
0.
0+
0-
0#
0/
0*
0"
#160000
b0 !
0,
1#
#170000
b100 !
1+
0#
1/
1*
1"
#180000
b110 !
b111 !
1,
1.
1#
0/
0*
0"
#190000
b1111 !
b1011 !
b1010 !
0,
0+
1-
0#
1/
1*
1"
#200000
b1000 !
b0 !
b100 !
b101 !
1,
0.
1+
0-
1#
#210000
b111 !
b1111 !
b1011 !
1.
0+
1-
0#
#220000
b1010 !
b1000 !
0,
0.
1#
#230000
b0 !
b1 !
1,
0-
0#
0/
0*
0"
#240000
b11 !
b1011 !
1.
1-
1#
1/
1*
1"
#250000
b1111 !
b1110 !
b110 !
0,
1+
0-
0#
#260000
b111 !
b1111 !
1,
1-
1#
#270000
b1011 !
b1010 !
b10 !
0,
0+
0-
0#
#280000
b0 !
b100 !
b1100 !
0.
1+
1-
1#
0/
0*
0"
#290000
b1000 !
b0 !
0+
0-
0#
#300000
b10 !
1.
1#
1/
1*
1"
#310000
b110 !
1+
0#
#320000
b1110 !
b1100 !
0.
1-
1#
0/
0*
0"
#330000
b1110 !
1.
0#
1/
1*
1"
#340000
b1111 !
b111 !
b101 !
1,
0.
0-
1#
#350000
b1 !
b0 !
b1000 !
0,
0+
1-
0#
#360000
b1010 !
b1110 !
b110 !
1.
1+
0-
1#
#370000
b100 !
b0 !
0.
0+
0#
0/
0*
0"
#380000
b1 !
b1001 !
b1011 !
1,
1.
1-
1#
1/
1*
1"
#390000
b11 !
b1 !
0.
0-
0#
0/
0*
0"
#420000
b0 !
b10 !
0,
1.
1#
1/
1*
1"
#430000
b0 !
0.
0#
0/
0*
0"
#440000
b100 !
b101 !
1,
1+
1#
1/
1*
1"
#450000
b1101 !
1-
0#
#460000
b1111 !
b111 !
1.
0-
1#
0/
0*
0"
#470000
b110 !
b100 !
0,
0.
0#
1/
1*
1"
#480000
b0 !
b1 !
1,
0+
1#
0/
0*
0"
#490000
b11 !
b111 !
b110 !
0,
1.
1+
0#
1/
1*
1"
#500000
b1110 !
b1111 !
1,
1-
1#
#510000
b1011 !
b1010 !
0,
0+
0#
#520000
b1000 !
b1100 !
b1101 !
1,
0.
1+
1#
#530000
b101 !
b1 !
b0 !
0,
0+
0-
0#
0/
0*
0"
#550000
b1000 !
b1100 !
b1101 !
1,
1+
1-
1#
1/
1*
1"
#560000
b1111 !
b1011 !
1.
0+
0#
#570000
b1001 !
0.
1#
#580000
b1 !
b11 !
1.
0-
0#
#600000
b10 !
0,
1#
#610000
b110 !
b1110 !
1+
1-
0#
#620000
b1100 !
b1101 !
b1001 !
b1 !
1,
0.
0+
0-
1#
0/
0*
0"
#630000
b101 !
1+
0#
1/
1*
1"
#640000
b100 !
b1100 !
0,
1-
1#
0/
0*
0"
#650000
b1000 !
b1001 !
b1 !
1,
0+
0-
0#
#660000
b101 !
b1101 !
1+
1-
1#
1/
1*
1"
#670000
b1100 !
0,
0#
0/
0*
0"
#680000
b1000 !
b0 !
b1 !
1,
0+
0-
1#
#690000
b11 !
b10 !
0,
1.
0#
1/
1*
1"
#700000
b110 !
b1110 !
b1100 !
b1101 !
1,
0.
1+
1-
1#
#710000
b1111 !
b1110 !
0,
1.
0#
#720000
b1010 !
b1011 !
1,
0+
1#
#730000
b11 !
0-
0#
#740000
b111 !
b110 !
b1110 !
0,
1+
1-
1#
#750000
b1111 !
1,
0#
#760000
b1101 !
b1100 !
0,
0.
1#
0/
0*
0"
#770000
b1000 !
0+
0#
1/
1*
1"
#780000
b0 !
b10 !
b11 !
1,
1.
0-
1#
#790000
b111 !
b101 !
b100 !
0,
0.
1+
0#
#800000
b0 !
b1 !
1,
0+
1#
0/
0*
0"
#810000
b11 !
1.
0#
1/
1*
1"
#840000
b111 !
b110 !
0,
1+
1#
#850000
b1110 !
b1010 !
0+
1-
0#
#870000
b1000 !
b0 !
0.
0-
1#
0/
0*
0"
#880000
b1000 !
1-
0#
1/
1*
1"
#890000
b1001 !
b1011 !
1,
1.
1#
#900000
b11 !
b10 !
0,
0-
0#
#910000
b0 !
b1 !
1,
0.
1#
0/
0*
0"
#920000
b11 !
b10 !
0,
1.
0#
1/
1*
1"
#940000
b110 !
1+
1#
#950000
b100 !
0.
0#
#960000
b1100 !
b1101 !
b1001 !
b1011 !
1,
1.
0+
1-
1#
#970000
b11 !
b111 !
b101 !
0.
1+
0-
0#
#990000
b100 !
0,
1#
