Neander/simulation/qsim/neander.msim.vcd
$comment
	File created using the following command:
		vcd file neander.msim.vcd -direction
$end
$date
	Sun Jan 21 21:02:02 2024
$end
$version
	ModelSim Version 10.1d
$end
$timescale
	1ps
$end
$scope module neander_vlg_vec_tst $end
$var reg 1 ! CLK $end
$var reg 1 " RST $end
$var reg 1 # zera $end
$var wire 1 $ Q [7] $end
$var wire 1 % Q [6] $end
$var wire 1 & Q [5] $end
$var wire 1 ' Q [4] $end
$var wire 1 ( Q [3] $end
$var wire 1 ) Q [2] $end
$var wire 1 * Q [1] $end
$var wire 1 + Q [0] $end
$var wire 1 , sampler $end
$scope module i1 $end
$var wire 1 - gnd $end
$var wire 1 . vcc $end
$var wire 1 / unknown $end
$var tri1 1 0 devclrn $end
$var tri1 1 1 devpor $end
$var tri1 1 2 devoe $end
$var wire 1 3 Q[7]~output_o $end
$var wire 1 4 Q[6]~output_o $end
$var wire 1 5 Q[5]~output_o $end
$var wire 1 6 Q[4]~output_o $end
$var wire 1 7 Q[3]~output_o $end
$var wire 1 8 Q[2]~output_o $end
$var wire 1 9 Q[1]~output_o $end
$var wire 1 : Q[0]~output_o $end
$var wire 1 ; CLK~input_o $end
$var wire 1 < CLK~inputclkctrl_outclk $end
$var wire 1 = zera~input_o $end
$var wire 1 > inst|inst|inst1|inst5|inst~combout $end
$var wire 1 ? RST~input_o $end
$var wire 1 @ RST~inputclkctrl_outclk $end
$var wire 1 A inst|inst|inst|inst~q $end
$var wire 1 B inst|inst1|inst1|inst5|inst~combout $end
$var wire 1 C inst|inst1|inst|inst~q $end
$var wire 1 D inst|inst2|inst1|inst5|inst~combout $end
$var wire 1 E inst|inst2|inst|inst~q $end
$var wire 1 F inst|inst3|inst2~combout $end
$var wire 1 G inst|inst3|inst1|inst5|inst~combout $end
$var wire 1 H inst|inst3|inst|inst~q $end
$var wire 1 I inst|inst6|inst3~combout $end
$var wire 1 J inst|inst6|inst1|inst5|inst~combout $end
$var wire 1 K inst|inst6|inst|inst~q $end
$var wire 1 L inst|inst7|inst1|inst5|inst~combout $end
$var wire 1 M inst|inst7|inst|inst~q $end
$var wire 1 N inst|inst8|inst3~combout $end
$var wire 1 O inst|inst8|inst1|inst5|inst~combout $end
$var wire 1 P inst|inst8|inst|inst~q $end
$var wire 1 Q inst|inst9|inst1|inst5|inst~0_combout $end
$var wire 1 R inst|inst9|inst1|inst5|inst~combout $end
$var wire 1 S inst|inst9|inst|inst~q $end
$upscope $end
$upscope $end
$enddefinitions $end
#0
$dumpvars
0!
1"
0#
0+
0*
0)
0(
0'
0&
0%
0$
x,
0-
1.
x/
10
11
12
03
04
05
06
07
08
09
0:
0;
0<
0=
1>
1?
1@
0A
0B
0C
0D
0E
0F
0G
0H
0I
0J
0K
0L
0M
0N
0O
0P
1Q
0R
0S
$end
#500
1!
1;
1<
0,
#1000
0!
0;
0<
1,
#1500
1!
1;
1<
0,
#2000
0!
0;
0<
1,
#2500
1!
1;
1<
0,
#3000
0!
0;
0<
1,
#3500
1!
1;
1<
0,
#4000
0!
0;
0<
1,
#4500
1!
1;
1<
0,
#5000
0!
0;
0<
1,
#5500
1!
1;
1<
0,
#6000
0!
0;
0<
1,
#6500
1!
1;
1<
0,
#7000
0!
0;
0<
1,
#7500
1!
1;
1<
0,
#8000
0!
0;
0<
1,
#8500
1!
1;
1<
0,
#9000
0!
0;
0<
1,
#9500
1!
1;
1<
0,
#10000
0"
0!
0?
0;
0@
0<
1,
#10500
1!
1;
1<
0,
1A
1B
0>
1:
1+
#11000
0!
0;
0<
1,
#11500
1!
1;
1<
0,
1C
0A
1>
19
0:
1*
0+
#12000
0!
0;
0<
1,
#12500
1!
1;
1<
0,
1A
1D
0B
0>
1:
1+
#13000
0!
0;
0<
1,
#13500
1!
1;
1<
0,
1E
0C
0A
1>
18
09
0:
1)
0*
0+
#14000
0!
0;
0<
1,
#14500
1!
1;
1<
0,
1A
1B
0>
1:
1+
#15000
0!
0;
0<
1,
#15500
1!
1;
1<
0,
1C
0A
1>
19
0:
1*
0+
#16000
0!
0;
0<
1,
#16500
1!
1;
1<
0,
1A
1F
0D
0B
0>
1:
1+
1G
#17000
0!
0;
0<
1,
#17500
1!
1;
1<
0,
1H
0E
0C
0A
1>
17
08
09
0:
1(
0)
0*
0+
#18000
0!
0;
0<
1,
#18500
1!
1;
1<
0,
1A
1B
0>
1:
1+
#19000
0!
0;
0<
1,
#19500
1!
1;
1<
0,
1C
0A
1>
19
0:
1*
0+
#20000
0!
0;
0<
1,
#20500
1!
1;
1<
0,
1A
1D
0B
0>
1:
1+
#21000
0!
0;
0<
1,
#21500
1!
1;
1<
0,
1E
0C
0A
1>
18
09
0:
1)
0*
0+
#22000
0!
0;
0<
1,
#22500
1!
1;
1<
0,
1A
1B
0>
1:
1+
#23000
0!
0;
0<
1,
#23500
1!
1;
1<
0,
1C
0A
1>
19
0:
1*
0+
#24000
0!
0;
0<
1,
#24500
1!
1;
1<
0,
1A
1I
0F
0D
0B
0>
1:
1+
1J
0G
#25000
0!
0;
0<
1,
#25500
1!
1;
1<
0,
1K
0H
0E
0C
0A
1L
0J
0I
1>
16
07
08
09
0:
1'
0(
0)
0*
0+
0L
1J
#26000
0!
0;
0<
1,
#26500
1!
1;
1<
0,
1A
1B
0>
1:
1+
#27000
0!
0;
0<
1,
#27500
1!
1;
1<
0,
1C
0A
1>
19
0:
1*
0+
#28000
0!
0;
0<
1,
#28500
1!
1;
1<
0,
1A
1D
0B
0>
1:
1+
#29000
0!
0;
0<
1,
#29500
1!
1;
1<
0,
1E
0C
0A
1>
18
09
0:
1)
0*
0+
#30000
0!
0;
0<
1,
#30500
1!
1;
1<
0,
1A
1B
0>
1:
1+
#31000
0!
0;
0<
1,
#31500
1!
1;
1<
0,
1C
0A
1>
19
0:
1*
0+
#32000
0!
0;
0<
1,
#32500
1!
1;
1<
0,
1A
1F
0D
0B
0>
1:
1+
1G
#33000
0!
0;
0<
1,
#33500
1!
1;
1<
0,
1H
0E
0C
0A
1>
17
08
09
0:
1(
0)
0*
0+
#34000
0!
0;
0<
1,
#34500
1!
1;
1<
0,
1A
1B
0>
1:
1+
#35000
0!
0;
0<
1,
#35500
1!
1;
1<
0,
1C
0A
1>
19
0:
1*
0+
#36000
0!
0;
0<
1,
#36500
1!
1;
1<
0,
1A
1D
0B
0>
1:
1+
#37000
0!
0;
0<
1,
#37500
1!
1;
1<
0,
1E
0C
0A
1>
18
09
0:
1)
0*
0+
#38000
0!
0;
0<
1,
#38500
1!
1;
1<
0,
1A
1B
0>
1:
1+
#39000
0!
0;
0<
1,
#39500
1!
1;
1<
0,
1C
0A
1>
19
0:
1*
0+
#40000
0!
0;
0<
1,
#40500
1!
1;
1<
0,
1A
1I
0F
0D
0B
0>
1:
1+
1L
0J
0G
#41000
0!
0;
0<
1,
#41500
1!
1;
1<
0,
1M
0K
0H
0E
0C
0A
1J
0I
1>
15
06
07
08
09
0:
1&
0'
0(
0)
0*
0+
0J
#42000
0!
0;
0<
1,
#42500
1!
1;
1<
0,
1A
1B
0>
1:
1+
#43000
0!
0;
0<
1,
#43500
1!
1;
1<
0,
1C
0A
1>
19
0:
1*
0+
#44000
0!
0;
0<
1,
#44500
1!
1;
1<
0,
1A
1D
0B
0>
1:
1+
#45000
0!
0;
0<
1,
#45500
1!
1;
1<
0,
1E
0C
0A
1>
18
09
0:
1)
0*
0+
#46000
0!
0;
0<
1,
#46500
1!
1;
1<
0,
1A
1B
0>
1:
1+
#47000
0!
0;
0<
1,
#47500
1!
1;
1<
0,
1C
0A
1>
19
0:
1*
0+
#48000
0!
0;
0<
1,
#48500
1!
1;
1<
0,
1A
1F
0D
0B
0>
1:
1+
1G
#49000
0!
0;
0<
1,
#49500
1!
1;
1<
0,
1H
0E
0C
0A
1>
17
08
09
0:
1(
0)
0*
0+
#50000
0!
0;
0<
1,
#50500
1!
1;
1<
0,
1A
1B
0>
1:
1+
#51000
0!
0;
0<
1,
#51500
1!
1;
1<
0,
1C
0A
1>
19
0:
1*
0+
#52000
0!
0;
0<
1,
#52500
1!
1;
1<
0,
1A
1D
0B
0>
1:
1+
#53000
0!
0;
0<
1,
#53500
1!
1;
1<
0,
1E
0C
0A
1>
18
09
0:
1)
0*
0+
#54000
0!
0;
0<
1,
#54500
1!
1;
1<
0,
1A
1B
0>
1:
1+
#55000
0!
0;
0<
1,
#55500
1!
1;
1<
0,
1C
0A
1>
19
0:
1*
0+
#56000
0!
0;
0<
1,
#56500
1!
1;
1<
0,
1A
1I
0F
0D
0B
0>
1:
1+
1J
0G
#57000
0!
0;
0<
1,
#57500
1!
1;
1<
0,
1K
0H
0E
0C
0A
1N
0L
0J
0I
1>
16
07
08
09
0:
1'
0(
0)
0*
0+
1O
0N
1L
1J
0O
#58000
0!
0;
0<
1,
#58500
1!
1;
1<
0,
1A
1B
0>
1:
1+
#59000
0!
0;
0<
1,
#59500
1!
1;
1<
0,
1C
0A
1>
19
0:
1*
0+
#60000
0!
0;
0<
1,
#60500
1!
1;
1<
0,
1A
1D
0B
0>
1:
1+
#61000
0!
0;
0<
1,
#61500
1!
1;
1<
0,
1E
0C
0A
1>
18
09
0:
1)
0*
0+
#62000
0!
0;
0<
1,
#62500
1!
1;
1<
0,
1A
1B
0>
1:
1+
#63000
0!
0;
0<
1,
#63500
1!
1;
1<
0,
1C
0A
1>
19
0:
1*
0+
#64000
0!
0;
0<
1,
#64500
1!
1;
1<
0,
1A
1F
0D
0B
0>
1:
1+
1G
#65000
0!
0;
0<
1,
#65500
1!
1;
1<
0,
1H
0E
0C
0A
1>
17
08
09
0:
1(
0)
0*
0+
#66000
0!
0;
0<
1,
#66500
1!
1;
1<
0,
1A
1B
0>
1:
1+
#67000
0!
0;
0<
1,
#67500
1!
1;
1<
0,
1C
0A
1>
19
0:
1*
0+
#68000
0!
0;
0<
1,
#68500
1!
1;
1<
0,
1A
1D
0B
0>
1:
1+
#69000
0!
0;
0<
1,
#69500
1!
1;
1<
0,
1E
0C
0A
1>
18
09
0:
1)
0*
0+
#70000
0!
0;
0<
1,
#70500
1!
1;
1<
0,
1A
1B
0>
1:
1+
#71000
0!
0;
0<
1,
#71500
1!
1;
1<
0,
1C
0A
1>
19
0:
1*
0+
#72000
0!
0;
0<
1,
#72500
1!
1;
1<
0,
1A
1I
0F
0D
0B
0>
1:
1+
1N
0L
0J
0G
1O
#73000
0!
0;
0<
1,
#73500
1!
1;
1<
0,
1P
0M
0K
0H
0E
0C
0A
0O
0N
1J
0I
1>
14
05
06
07
08
09
0:
1%
0&
0'
0(
0)
0*
0+
1O
0J
#74000
0!
0;
0<
1,
#74500
1!
1;
1<
0,
1A
1B
0>
1:
1+
#75000
0!
0;
0<
1,
#75500
1!
1;
1<
0,
1C
0A
1>
19
0:
1*
0+
#76000
0!
0;
0<
1,
#76500
1!
1;
1<
0,
1A
1D
0B
0>
1:
1+
#77000
0!
0;
0<
1,
#77500
1!
1;
1<
0,
1E
0C
0A
1>
18
09
0:
1)
0*
0+
#78000
0!
0;
0<
1,
#78500
1!
1;
1<
0,
1A
1B
0>
1:
1+
#79000
0!
0;
0<
1,
#79500
1!
1;
1<
0,
1C
0A
1>
19
0:
1*
0+
#80000
0!
0;
0<
1,
#80500
1!
1;
1<
0,
1A
1F
0D
0B
0>
1:
1+
1G
#81000
0!
0;
0<
1,
#81500
1!
1;
1<
0,
1H
0E
0C
0A
1>
17
08
09
0:
1(
0)
0*
0+
#82000
0!
0;
0<
1,
#82500
1!
1;
1<
0,
1A
1B
0>
1:
1+
#83000
0!
0;
0<
1,
#83500
1!
1;
1<
0,
1C
0A
1>
19
0:
1*
0+
#84000
0!
0;
0<
1,
#84500
1!
1;
1<
0,
1A
1D
0B
0>
1:
1+
#85000
0!
0;
0<
1,
#85500
1!
1;
1<
0,
1E
0C
0A
1>
18
09
0:
1)
0*
0+
#86000
0!
0;
0<
1,
#86500
1!
1;
1<
0,
1A
1B
0>
1:
1+
#87000
0!
0;
0<
1,
#87500
1!
1;
1<
0,
1C
0A
1>
19
0:
1*
0+
#88000
0!
0;
0<
1,
#88500
1!
1;
1<
0,
1A
1I
0F
0D
0B
0>
1:
1+
1J
0G
#89000
0!
0;
0<
1,
#89500
1!
1;
1<
0,
1K
0H
0E
0C
0A
1L
0J
0I
1>
16
07
08
09
0:
1'
0(
0)
0*
0+
0L
1J
#90000
0!
0;
0<
1,
#90500
1!
1;
1<
0,
1A
1B
0>
1:
1+
#91000
0!
0;
0<
1,
#91500
1!
1;
1<
0,
1C
0A
1>
19
0:
1*
0+
#92000
0!
0;
0<
1,
#92500
1!
1;
1<
0,
1A
1D
0B
0>
1:
1+
#93000
0!
0;
0<
1,
#93500
1!
1;
1<
0,
1E
0C
0A
1>
18
09
0:
1)
0*
0+
#94000
0!
0;
0<
1,
#94500
1!
1;
1<
0,
1A
1B
0>
1:
1+
#95000
0!
0;
0<
1,
#95500
1!
1;
1<
0,
1C
0A
1>
19
0:
1*
0+
#96000
0!
0;
0<
1,
#96500
1!
1;
1<
0,
1A
1F
0D
0B
0>
1:
1+
1G
#97000
0!
0;
0<
1,
#97500
1!
1;
1<
0,
1H
0E
0C
0A
1>
17
08
09
0:
1(
0)
0*
0+
#98000
0!
0;
0<
1,
#98500
1!
1;
1<
0,
1A
1B
0>
1:
1+
#99000
0!
0;
0<
1,
#99500
1!
1;
1<
0,
1C
0A
1>
19
0:
1*
0+
#100000
0!
0;
0<
1,
#100500
1!
1;
1<
0,
1A
1D
0B
0>
1:
1+
#101000
0!
0;
0<
1,
#101500
1!
1;
1<
0,
1E
0C
0A
1>
18
09
0:
1)
0*
0+
#102000
0!
0;
0<
1,
#102500
1!
1;
1<
0,
1A
1B
0>
1:
1+
#103000
0!
0;
0<
1,
#103500
1!
1;
1<
0,
1C
0A
1>
19
0:
1*
0+
#104000
0!
0;
0<
1,
#104500
1!
1;
1<
0,
1A
1I
0F
0D
0B
0>
1:
1+
1L
0J
0G
#105000
0!
0;
0<
1,
#105500
1!
1;
1<
0,
1M
0K
0H
0E
0C
0A
1J
0I
1>
15
06
07
08
09
0:
1&
0'
0(
0)
0*
0+
0J
#106000
0!
0;
0<
1,
#106500
1!
1;
1<
0,
1A
1B
0>
1:
1+
#107000
0!
0;
0<
1,
#107500
1!
1;
1<
0,
1C
0A
1>
19
0:
1*
0+
#108000
0!
0;
0<
1,
#108500
1!
1;
1<
0,
1A
1D
0B
0>
1:
1+
#109000
0!
0;
0<
1,
#109500
1!
1;
1<
0,
1E
0C
0A
1>
18
09
0:
1)
0*
0+
#110000
0!
0;
0<
1,
#110500
1!
1;
1<
0,
1A
1B
0>
1:
1+
#111000
0!
0;
0<
1,
#111500
1!
1;
1<
0,
1C
0A
1>
19
0:
1*
0+
#112000
0!
0;
0<
1,
#112500
1!
1;
1<
0,
1A
1F
0D
0B
0>
1:
1+
1G
#113000
0!
0;
0<
1,
#113500
1!
1;
1<
0,
1H
0E
0C
0A
1>
17
08
09
0:
1(
0)
0*
0+
#114000
0!
0;
0<
1,
#114500
1!
1;
1<
0,
1A
1B
0>
1:
1+
#115000
0!
0;
0<
1,
#115500
1!
1;
1<
0,
1C
0A
1>
19
0:
1*
0+
#116000
0!
0;
0<
1,
#116500
1!
1;
1<
0,
1A
1D
0B
0>
1:
1+
#117000
0!
0;
0<
1,
#117500
1!
1;
1<
0,
1E
0C
0A
1>
18
09
0:
1)
0*
0+
#118000
0!
0;
0<
1,
#118500
1!
1;
1<
0,
1A
1B
0>
1:
1+
#119000
0!
0;
0<
1,
#119500
1!
1;
1<
0,
1C
0A
1>
19
0:
1*
0+
#120000
0!
0;
0<
1,
#120500
1!
1;
1<
0,
1A
1I
0F
0D
0B
0>
1:
1+
1J
0G
#121000
0!
0;
0<
1,
#121500
1!
1;
1<
0,
1K
0H
0E
0C
0A
0Q
1N
0L
0J
0I
1>
16
07
08
09
0:
1'
0(
0)
0*
0+
0O
0N
1L
1J
1O
#122000
0!
0;
0<
1,
#122500
1!
1;
1<
0,
1A
1B
0>
1:
1+
#123000
0!
0;
0<
1,
#123500
1!
1;
1<
0,
1C
0A
1>
19
0:
1*
0+
#124000
0!
0;
0<
1,
#124500
1!
1;
1<
0,
1A
1D
0B
0>
1:
1+
#125000
0!
0;
0<
1,
#125500
1!
1;
1<
0,
1E
0C
0A
1>
18
09
0:
1)
0*
0+
#126000
0!
0;
0<
1,
#126500
1!
1;
1<
0,
1A
1B
0>
1:
1+
#127000
0!
0;
0<
1,
#127500
1!
1;
1<
0,
1C
0A
1>
19
0:
1*
0+
#128000
0!
0;
0<
1,
#128500
1!
1;
1<
0,
1A
1F
0D
0B
0>
1:
1+
1G
#129000
0!
0;
0<
1,
#129500
1!
1;
1<
0,
1H
0E
0C
0A
1>
17
08
09
0:
1(
0)
0*
0+
#130000
0!
0;
0<
1,
#130500
1!
1;
1<
0,
1A
1B
0>
1:
1+
#131000
0!
0;
0<
1,
#131500
1!
1;
1<
0,
1C
0A
1>
19
0:
1*
0+
#132000
0!
0;
0<
1,
#132500
1!
1;
1<
0,
1A
1D
0B
0>
1:
1+
#133000
0!
0;
0<
1,
#133500
1!
1;
1<
0,
1E
0C
0A
1>
18
09
0:
1)
0*
0+
#134000
0!
0;
0<
1,
#134500
1!
1;
1<
0,
1A
1B
0>
1:
1+
#135000
0!
0;
0<
1,
#135500
1!
1;
1<
0,
1C
0A
1>
19
0:
1*
0+
#136000
0!
0;
0<
1,
#136500
1!
1;
1<
0,
1A
1I
0F
0D
0B
0>
1:
1+
1R
1N
0L
0J
0G
0O
#137000
0!
0;
0<
1,
#137500
1!
1;
1<
0,
1S
0P
0M
0K
0H
0E
0C
0A
0R
1Q
1O
0N
1J
0I
1>
13
04
05
06
07
08
09
0:
1$
0%
0&
0'
0(
0)
0*
0+
1R
0O
0J
#138000
0!
0;
0<
1,
#138500
1!
1;
1<
0,
1A
1B
0>
1:
1+
#139000
0!
0;
0<
1,
#139500
1!
1;
1<
0,
1C
0A
1>
19
0:
1*
0+
#140000
0!
0;
0<
1,
#140500
1!
1;
1<
0,
1A
1D
0B
0>
1:
1+
#141000
0!
0;
0<
1,
#141500
1!
1;
1<
0,
1E
0C
0A
1>
18
09
0:
1)
0*
0+
#142000
0!
0;
0<
1,
#142500
1!
1;
1<
0,
1A
1B
0>
1:
1+
#143000
0!
0;
0<
1,
#143500
1!
1;
1<
0,
1C
0A
1>
19
0:
1*
0+
#144000
0!
0;
0<
1,
#144500
1!
1;
1<
0,
1A
1F
0D
0B
0>
1:
1+
1G
#145000
0!
0;
0<
1,
#145500
1!
1;
1<
0,
1H
0E
0C
0A
1>
17
08
09
0:
1(
0)
0*
0+
#146000
0!
0;
0<
1,
#146500
1!
1;
1<
0,
1A
1B
0>
1:
1+
#147000
0!
0;
0<
1,
#147500
1!
1;
1<
0,
1C
0A
1>
19
0:
1*
0+
#148000
0!
0;
0<
1,
#148500
1!
1;
1<
0,
1A
1D
0B
0>
1:
1+
#149000
0!
0;
0<
1,
#149500
1!
1;
1<
0,
1E
0C
0A
1>
18
09
0:
1)
0*
0+
#150000
0!
0;
0<
1,
#150500
1!
1;
1<
0,
1A
1B
0>
1:
1+
#151000
0!
0;
0<
1,
#151500
1!
1;
1<
0,
1C
0A
1>
19
0:
1*
0+
#152000
0!
0;
0<
1,
#152500
1!
1;
1<
0,
1A
1I
0F
0D
0B
0>
1:
1+
1J
0G
#153000
0!
0;
0<
1,
#153500
1!
1;
1<
0,
1K
0H
0E
0C
0A
1L
0J
0I
1>
16
07
08
09
0:
1'
0(
0)
0*
0+
0L
1J
#154000
0!
0;
0<
1,
#154500
1!
1;
1<
0,
1A
1B
0>
1:
1+
#155000
0!
0;
0<
1,
#155500
1!
1;
1<
0,
1C
0A
1>
19
0:
1*
0+
#156000
0!
0;
0<
1,
#156500
1!
1;
1<
0,
1A
1D
0B
0>
1:
1+
#157000
0!
0;
0<
1,
#157500
1!
1;
1<
0,
1E
0C
0A
1>
18
09
0:
1)
0*
0+
#158000
0!
0;
0<
1,
#158500
1!
1;
1<
0,
1A
1B
0>
1:
1+
#159000
0!
0;
0<
1,
#159500
1!
1;
1<
0,
1C
0A
1>
19
0:
1*
0+
#160000
0!
0;
0<
1,
#160500
1!
1;
1<
0,
1A
1F
0D
0B
0>
1:
1+
1G
#161000
0!
0;
0<
1,
#161500
1!
1;
1<
0,
1H
0E
0C
0A
1>
17
08
09
0:
1(
0)
0*
0+
#162000
0!
0;
0<
1,
#162500
1!
1;
1<
0,
1A
1B
0>
1:
1+
#163000
0!
0;
0<
1,
#163500
1!
1;
1<
0,
1C
0A
1>
19
0:
1*
0+
#164000
0!
0;
0<
1,
#164500
1!
1;
1<
0,
1A
1D
0B
0>
1:
1+
#165000
0!
0;
0<
1,
#165500
1!
1;
1<
0,
1E
0C
0A
1>
18
09
0:
1)
0*
0+
#166000
0!
0;
0<
1,
#166500
1!
1;
1<
0,
1A
1B
0>
1:
1+
#167000
0!
0;
0<
1,
#167500
1!
1;
1<
0,
1C
0A
1>
19
0:
1*
0+
#168000
0!
0;
0<
1,
#168500
1!
1;
1<
0,
1A
1I
0F
0D
0B
0>
1:
1+
1L
0J
0G
#169000
0!
0;
0<
1,
#169500
1!
1;
1<
0,
1M
0K
0H
0E
0C
0A
1J
0I
1>
15
06
07
08
09
0:
1&
0'
0(
0)
0*
0+
0J
#170000
0!
0;
0<
1,
#170500
1!
1;
1<
0,
1A
1B
0>
1:
1+
#171000
0!
0;
0<
1,
#171500
1!
1;
1<
0,
1C
0A
1>
19
0:
1*
0+
#172000
0!
0;
0<
1,
#172500
1!
1;
1<
0,
1A
1D
0B
0>
1:
1+
#173000
0!
0;
0<
1,
#173500
1!
1;
1<
0,
1E
0C
0A
1>
18
09
0:
1)
0*
0+
#174000
0!
0;
0<
1,
#174500
1!
1;
1<
0,
1A
1B
0>
1:
1+
#175000
0!
0;
0<
1,
#175500
1!
1;
1<
0,
1C
0A
1>
19
0:
1*
0+
#176000
0!
0;
0<
1,
#176500
1!
1;
1<
0,
1A
1F
0D
0B
0>
1:
1+
1G
#177000
0!
0;
0<
1,
#177500
1!
1;
1<
0,
1H
0E
0C
0A
1>
17
08
09
0:
1(
0)
0*
0+
#178000
0!
0;
0<
1,
#178500
1!
1;
1<
0,
1A
1B
0>
1:
1+
#179000
0!
0;
0<
1,
#179500
1!
1;
1<
0,
1C
0A
1>
19
0:
1*
0+
#180000
0!
0;
0<
1,
#180500
1!
1;
1<
0,
1A
1D
0B
0>
1:
1+
#181000
0!
0;
0<
1,
#181500
1!
1;
1<
0,
1E
0C
0A
1>
18
09
0:
1)
0*
0+
#182000
0!
0;
0<
1,
#182500
1!
1;
1<
0,
1A
1B
0>
1:
1+
#183000
0!
0;
0<
1,
#183500
1!
1;
1<
0,
1C
0A
1>
19
0:
1*
0+
#184000
0!
0;
0<
1,
#184500
1!
1;
1<
0,
1A
1I
0F
0D
0B
0>
1:
1+
1J
0G
#185000
0!
0;
0<
1,
#185500
1!
1;
1<
0,
1K
0H
0E
0C
0A
1N
0L
0J
0I
1>
16
07
08
09
0:
1'
0(
0)
0*
0+
1O
0N
1L
1J
0O
#186000
0!
0;
0<
1,
#186500
1!
1;
1<
0,
1A
1B
0>
1:
1+
#187000
0!
0;
0<
1,
#187500
1!
1;
1<
0,
1C
0A
1>
19
0:
1*
0+
#188000
0!
0;
0<
1,
#188500
1!
1;
1<
0,
1A
1D
0B
0>
1:
1+
#189000
0!
0;
0<
1,
#189500
1!
1;
1<
0,
1E
0C
0A
1>
18
09
0:
1)
0*
0+
#190000
0!
0;
0<
1,
#190500
1!
1;
1<
0,
1A
1B
0>
1:
1+
#191000
0!
0;
0<
1,
#191500
1!
1;
1<
0,
1C
0A
1>
19
0:
1*
0+
#192000
0!
0;
0<
1,
#192500
1!
1;
1<
0,
1A
1F
0D
0B
0>
1:
1+
1G
#193000
0!
0;
0<
1,
#193500
1!
1;
1<
0,
1H
0E
0C
0A
1>
17
08
09
0:
1(
0)
0*
0+
#194000
0!
0;
0<
1,
#194500
1!
1;
1<
0,
1A
1B
0>
1:
1+
#195000
0!
0;
0<
1,
#195500
1!
1;
1<
0,
1C
0A
1>
19
0:
1*
0+
#196000
0!
0;
0<
1,
#196500
1!
1;
1<
0,
1A
1D
0B
0>
1:
1+
#197000
0!
0;
0<
1,
#197500
1!
1;
1<
0,
1E
0C
0A
1>
18
09
0:
1)
0*
0+
#198000
0!
0;
0<
1,
#198500
1!
1;
1<
0,
1A
1B
0>
1:
1+
#199000
0!
0;
0<
1,
#199500
1!
1;
1<
0,
1C
0A
1>
19
0:
1*
0+
#200000
0!
0;
0<
1,
#200500
1!
1;
1<
0,
1A
1I
0F
0D
0B
0>
1:
1+
1N
0L
0J
0G
1O
#201000
0!
0;
0<
1,
#201500
1!
1;
1<
0,
1P
0M
0K
0H
0E
0C
0A
0O
0N
1J
0I
1>
14
05
06
07
08
09
0:
1%
0&
0'
0(
0)
0*
0+
1O
0J
#202000
0!
0;
0<
1,
#202500
1!
1;
1<
0,
1A
1B
0>
1:
1+
#203000
0!
0;
0<
1,
#203500
1!
1;
1<
0,
1C
0A
1>
19
0:
1*
0+
#204000
0!
0;
0<
1,
#204500
1!
1;
1<
0,
1A
1D
0B
0>
1:
1+
#205000
0!
0;
0<
1,
#205500
1!
1;
1<
0,
1E
0C
0A
1>
18
09
0:
1)
0*
0+
#206000
0!
0;
0<
1,
#206500
1!
1;
1<
0,
1A
1B
0>
1:
1+
#207000
0!
0;
0<
1,
#207500
1!
1;
1<
0,
1C
0A
1>
19
0:
1*
0+
#208000
0!
0;
0<
1,
#208500
1!
1;
1<
0,
1A
1F
0D
0B
0>
1:
1+
1G
#209000
0!
0;
0<
1,
#209500
1!
1;
1<
0,
1H
0E
0C
0A
1>
17
08
09
0:
1(
0)
0*
0+
#210000
0!
0;
0<
1,
#210500
1!
1;
1<
0,
1A
1B
0>
1:
1+
#211000
0!
0;
0<
1,
#211500
1!
1;
1<
0,
1C
0A
1>
19
0:
1*
0+
#212000
0!
0;
0<
1,
#212500
1!
1;
1<
0,
1A
1D
0B
0>
1:
1+
#213000
0!
0;
0<
1,
#213500
1!
1;
1<
0,
1E
0C
0A
1>
18
09
0:
1)
0*
0+
#214000
0!
0;
0<
1,
#214500
1!
1;
1<
0,
1A
1B
0>
1:
1+
#215000
0!
0;
0<
1,
#215500
1!
1;
1<
0,
1C
0A
1>
19
0:
1*
0+
#216000
0!
0;
0<
1,
#216500
1!
1;
1<
0,
1A
1I
0F
0D
0B
0>
1:
1+
1J
0G
#217000
0!
0;
0<
1,
#217500
1!
1;
1<
0,
1K
0H
0E
0C
0A
1L
0J
0I
1>
16
07
08
09
0:
1'
0(
0)
0*
0+
0L
1J
#218000
0!
0;
0<
1,
#218500
1!
1;
1<
0,
1A
1B
0>
1:
1+
#219000
0!
0;
0<
1,
#219500
1!
1;
1<
0,
1C
0A
1>
19
0:
1*
0+
#220000
0!
0;
0<
1,
#220500
1!
1;
1<
0,
1A
1D
0B
0>
1:
1+
#221000
0!
0;
0<
1,
#221500
1!
1;
1<
0,
1E
0C
0A
1>
18
09
0:
1)
0*
0+
#222000
0!
0;
0<
1,
#222500
1!
1;
1<
0,
1A
1B
0>
1:
1+
#223000
0!
0;
0<
1,
#223500
1!
1;
1<
0,
1C
0A
1>
19
0:
1*
0+
#224000
0!
0;
0<
1,
#224500
1!
1;
1<
0,
1A
1F
0D
0B
0>
1:
1+
1G
#225000
0!
0;
0<
1,
#225500
1!
1;
1<
0,
1H
0E
0C
0A
1>
17
08
09
0:
1(
0)
0*
0+
#226000
0!
0;
0<
1,
#226500
1!
1;
1<
0,
1A
1B
0>
1:
1+
#227000
0!
0;
0<
1,
#227500
1!
1;
1<
0,
1C
0A
1>
19
0:
1*
0+
#228000
0!
0;
0<
1,
#228500
1!
1;
1<
0,
1A
1D
0B
0>
1:
1+
#229000
0!
0;
0<
1,
#229500
1!
1;
1<
0,
1E
0C
0A
1>
18
09
0:
1)
0*
0+
#230000
0!
0;
0<
1,
#230500
1!
1;
1<
0,
1A
1B
0>
1:
1+
#231000
0!
0;
0<
1,
#231500
1!
1;
1<
0,
1C
0A
1>
19
0:
1*
0+
#232000
0!
0;
0<
1,
#232500
1!
1;
1<
0,
1A
1I
0F
0D
0B
0>
1:
1+
1L
0J
0G
#233000
0!
0;
0<
1,
#233500
1!
1;
1<
0,
1M
0K
0H
0E
0C
0A
1J
0I
1>
15
06
07
08
09
0:
1&
0'
0(
0)
0*
0+
0J
#234000
0!
0;
0<
1,
#234500
1!
1;
1<
0,
1A
1B
0>
1:
1+
#235000
0!
0;
0<
1,
#235500
1!
1;
1<
0,
1C
0A
1>
19
0:
1*
0+
#236000
0!
0;
0<
1,
#236500
1!
1;
1<
0,
1A
1D
0B
0>
1:
1+
#237000
0!
0;
0<
1,
#237500
1!
1;
1<
0,
1E
0C
0A
1>
18
09
0:
1)
0*
0+
#238000
0!
0;
0<
1,
#238500
1!
1;
1<
0,
1A
1B
0>
1:
1+
#239000
0!
0;
0<
1,
#239500
1!
1;
1<
0,
1C
0A
1>
19
0:
1*
0+
#240000
0!
0;
0<
1,
#240500
1!
1;
1<
0,
1A
1F
0D
0B
0>
1:
1+
1G
#241000
0!
0;
0<
1,
#241500
1!
1;
1<
0,
1H
0E
0C
0A
1>
17
08
09
0:
1(
0)
0*
0+
#242000
0!
0;
0<
1,
#242500
1!
1;
1<
0,
1A
1B
0>
1:
1+
#243000
0!
0;
0<
1,
#243500
1!
1;
1<
0,
1C
0A
1>
19
0:
1*
0+
#244000
0!
0;
0<
1,
#244500
1!
1;
1<
0,
1A
1D
0B
0>
1:
1+
