projeto_final/simulation/qsim/projeto_final.msim.vcd
$comment
	File created using the following command:
		vcd file projeto_final.msim.vcd -direction
$end
$date
	Sat Feb 03 21:45:41 2024
$end
$version
	ModelSim Version 10.1d
$end
$timescale
	1ps
$end
$scope module projeto_final_vlg_vec_tst $end
$var reg 1 ! ck $end
$var reg 1 " ck_man $end
$var reg 1 # ctrl_mux $end
$var reg 4 $ d [3:0] $end
$var reg 3 % op_code [2:0] $end
$var reg 1 & rst $end
$var reg 2 ' w [1:0] $end
$var wire 1 ( B $end
$var wire 1 ) C $end
$var wire 1 * N $end
$var wire 1 + s_cont [3] $end
$var wire 1 , s_cont [2] $end
$var wire 1 - s_cont [1] $end
$var wire 1 . s_cont [0] $end
$var wire 1 / s_ula [3] $end
$var wire 1 0 s_ula [2] $end
$var wire 1 1 s_ula [1] $end
$var wire 1 2 s_ula [0] $end
$var wire 1 3 V $end
$var wire 1 4 Z $end
$var wire 1 5 sampler $end
$scope module i1 $end
$var wire 1 6 gnd $end
$var wire 1 7 vcc $end
$var wire 1 8 unknown $end
$var tri1 1 9 devclrn $end
$var tri1 1 : devpor $end
$var tri1 1 ; devoe $end
$var wire 1 < ctrl_mux~input_o $end
$var wire 1 = ck_man~input_o $end
$var wire 1 > N~output_o $end
$var wire 1 ? Z~output_o $end
$var wire 1 @ C~output_o $end
$var wire 1 A B~output_o $end
$var wire 1 B V~output_o $end
$var wire 1 C s_cont[3]~output_o $end
$var wire 1 D s_cont[2]~output_o $end
$var wire 1 E s_cont[1]~output_o $end
$var wire 1 F s_cont[0]~output_o $end
$var wire 1 G s_ula[3]~output_o $end
$var wire 1 H s_ula[2]~output_o $end
$var wire 1 I s_ula[1]~output_o $end
$var wire 1 J s_ula[0]~output_o $end
$var wire 1 K op_code[1]~input_o $end
$var wire 1 L d[3]~input_o $end
$var wire 1 M d[1]~input_o $end
$var wire 1 N op_code[0]~input_o $end
$var wire 1 O op_code[2]~input_o $end
$var wire 1 P inst5|inst11|inst5~0_combout $end
$var wire 1 Q ck~input_o $end
$var wire 1 R ck~inputclkctrl_outclk $end
$var wire 1 S w[0]~input_o $end
$var wire 1 T d[0]~input_o $end
$var wire 1 U inst7|inst|inst|inst~0_combout $end
$var wire 1 V inst7|inst|inst1|inst3|inst3~0_combout $end
$var wire 1 W rst~input_o $end
$var wire 1 X rst~inputclkctrl_outclk $end
$var wire 1 Y w[1]~input_o $end
$var wire 1 Z inst7|inst|inst|inst~q $end
$var wire 1 [ inst7|inst1|inst5~combout $end
$var wire 1 \ inst7|inst1|inst|inst~0_combout $end
$var wire 1 ] inst7|inst1|inst2~combout $end
$var wire 1 ^ inst7|inst3|inst|inst~2_combout $end
$var wire 1 _ inst7|inst1|inst|inst~q $end
$var wire 1 ` inst5|inst|inst3|inst1|inst5~0_combout $end
$var wire 1 a inst5|inst11|inst3|inst1|inst5~0_combout $end
$var wire 1 b d[2]~input_o $end
$var wire 1 c inst5|inst12|inst5~0_combout $end
$var wire 1 d inst7|inst2|inst5~combout $end
$var wire 1 e inst7|inst2|inst|inst~0_combout $end
$var wire 1 f inst7|inst2|inst2~combout $end
$var wire 1 g inst7|inst2|inst|inst~q $end
$var wire 1 h inst5|inst12|inst3|inst1|inst5~0_combout $end
$var wire 1 i inst5|inst13|inst|inst2|inst3~0_combout $end
$var wire 1 j inst7|inst3|inst|inst~1_combout $end
$var wire 1 k inst7|inst3|inst|inst~0_combout $end
$var wire 1 l inst7|inst3|inst3~combout $end
$var wire 1 m inst7|inst3|inst2~combout $end
$var wire 1 n inst7|inst3|inst|inst~q $end
$var wire 1 o inst5|inst13|inst|inst2|inst3~1_combout $end
$var wire 1 p inst5|inst13|inst|inst2|inst3~2_combout $end
$var wire 1 q inst5|inst13|inst|inst2|inst3~3_combout $end
$var wire 1 r inst5|inst12|inst3|inst|1~0_combout $end
$var wire 1 s inst5|inst|inst|inst2|inst3~0_combout $end
$var wire 1 t inst5|inst12|inst|inst|inst3|inst3~0_combout $end
$var wire 1 u inst5|inst12|inst|inst2|inst3~0_combout $end
$var wire 1 v inst5|inst12|inst|inst2|inst3~1_combout $end
$var wire 1 w inst5|inst|inst|inst2|inst3~3_combout $end
$var wire 1 x inst5|inst12|inst|inst2|inst3~2_combout $end
$var wire 1 y inst5|inst11|inst3|inst|1~0_combout $end
$var wire 1 z inst5|inst11|inst|inst|inst3|inst3~0_combout $end
$var wire 1 { inst5|inst11|inst|inst2|inst3~0_combout $end
$var wire 1 | inst5|inst11|inst|inst2|inst3~1_combout $end
$var wire 1 } inst5|inst11|inst|inst2|inst3~2_combout $end
$var wire 1 ~ inst5|inst|inst|inst|inst3|inst3~0_combout $end
$var wire 1 !! inst5|inst|inst|inst2|inst3~1_combout $end
$var wire 1 "! inst5|inst|inst|inst2|inst3~2_combout $end
$var wire 1 #! inst5|inst|inst3|inst|1~combout $end
$var wire 1 $! inst5|inst|inst|inst2|inst3~4_combout $end
$var wire 1 %! inst5|inst2~combout $end
$var wire 1 &! inst5|inst28|inst3~0_combout $end
$var wire 1 '! inst5|inst13|inst7~combout $end
$var wire 1 (! inst5|inst13|inst3|inst1|inst5~0_combout $end
$var wire 1 )! inst5|inst28|inst3~1_combout $end
$var wire 1 *! inst5|inst|inst|inst2|inst3~5_combout $end
$var wire 1 +! inst5|inst25~0_combout $end
$upscope $end
$upscope $end
$enddefinitions $end
#0
$dumpvars
0!
x"
x#
b1110 $
b100 %
1&
b11 '
1(
0)
1*
0.
0-
0,
0+
02
11
10
1/
03
04
x5
06
17
x8
19
1:
1;
x<
x=
1>
0?
0@
1A
0B
0C
0D
0E
0F
1G
1H
1I
0J
0K
1L
1M
0N
1O
1P
0Q
0R
1S
0T
0U
1V
1W
1X
1Y
0Z
1[
1\
0]
1^
0_
0`
0a
1b
1c
1d
1e
0f
0g
0h
1i
1j
1k
0l
0m
0n
1o
1p
1q
0r
0s
0t
1u
1v
1w
1x
0y
0z
1{
1|
1}
0~
0!!
0"!
1#!
0$!
1%!
0&!
1'!
0(!
0)!
1*!
0+!
$end
#5000
b110 $
b100 $
b101 $
1T
0M
0L
05
0#!
1!!
1U
0{
1y
0\
0P
0'!
0i
1"!
0|
0p
1$!
0}
1+!
1J
0I
1B
12
01
13
0q
0G
0>
0/
0*
0+!
0B
03
#10000
0&
b111 $
b110 $
0W
0T
1M
0X
15
1#!
0!!
0U
1{
0y
1\
1P
0"!
1|
0$!
1}
0J
1I
02
11
#15000
b10 $
0b
05
0u
1r
0j
0e
0c
0v
0k
0x
0H
00
#20000
1!
b1010 $
1Q
1L
1R
15
1'!
1i
1p
1q
1G
1>
1/
1*
1_
1z
1y
1a
1]
0[
1E
1-
0}
1x
0I
1H
01
10
#25000
b1000 $
b1001 $
b1 $
1T
0M
0L
05
0#!
1!!
1U
0{
0z
0y
0\
0P
0'!
0i
1"!
0|
0a
0p
1$!
1}
1+!
1J
1I
1B
12
11
13
0x
0q
0H
0G
0>
00
0/
0*
0+!
0B
03
#35000
b11 $
b10 $
0T
1M
15
1#!
0!!
0U
1{
1z
1y
1\
1P
0"!
1|
1a
0$!
0}
0%!
0J
0I
02
01
1x
1%!
1?
1H
14
10
0?
04
#40000
b110 $
0!
b100 $
b101 $
1T
0M
1b
0Q
0R
05
0#!
1!!
1U
0{
0z
0y
0\
0P
1u
0r
1j
1e
1c
1"!
0|
0a
1v
1k
1h
1$!
1}
0x
0h
1i
1J
1I
0H
12
11
00
1x
0i
1p
1H
10
0p
1q
1G
1>
1/
1*
0q
1+!
0G
0>
1B
0/
0*
13
0+!
0B
03
#45000
b1101 $
1L
15
1'!
1i
1p
1q
1G
1>
1/
1*
#55000
b1111 $
1M
05
1{
1z
1y
1\
1P
1|
1a
0}
1h
0I
01
0x
1(!
0i
0H
00
0p
0A
0(
1)!
1@
1)
0q
0G
0>
0/
0*
#60000
b1011 $
1!
b11 $
b1 $
0M
0b
0L
1Q
1R
15
0{
0z
0y
0\
0P
0u
1r
0j
0e
0c
0'!
1i
0|
0a
0v
0k
0h
0(!
1p
1}
1x
0i
1A
1I
1H
1(
11
10
0x
0)!
1q
0p
0H
0@
1G
1>
00
0)
1/
1*
1+!
1B
13
0q
0G
0>
0/
0*
0+!
0B
03
1n
1g
1Z
1p
1m
0r
1l
0d
1#!
1~
1`
0]
0V
1C
1D
1F
1+
1,
1.
0m
1a
1q
1x
0$!
0}
1h
1G
1>
1H
0J
0I
1/
1*
10
02
01
0x
1(!
1i
0H
00
0p
0A
0(
1)!
1@
1)
0q
0%!
0G
0>
0/
0*
1?
14
#65000
b0 $
b1000 $
b1010 $
0T
1M
1L
05
0#!
0!!
0~
0`
0U
1{
1z
1y
1\
1P
1'!
0i
0"!
1|
1p
1$!
1+!
1%!
1J
1B
12
13
1q
0?
1G
1>
04
1/
1*
0+!
0B
03
#70000
b1110 $
b1111 $
b111 $
b101 $
1T
0M
1b
0L
15
1#!
1!!
1~
1`
1U
0{
0z
0y
0\
0P
1u
1t
1r
1j
1e
1c
0'!
1i
1"!
0|
1v
1k
0p
0$!
1x
0J
1H
02
10
0q
0G
0>
0/
0*
#75000
b100 $
0T
05
0#!
0!!
0~
0`
0U
0"!
0a
1$!
1}
1J
1I
12
11
0x
0H
00
#80000
0!
b0 $
b1000 $
b1010 $
0Q
1M
0b
1L
0R
15
1{
1z
1y
1\
1P
0u
0t
0r
0j
0e
0c
1'!
0i
1|
1a
0v
0k
0h
1p
0}
1x
1+!
1h
1i
0I
1H
1B
01
10
13
0x
1q
0i
0p
0H
1G
1>
00
1/
1*
0+!
1p
0B
03
0q
0G
0>
0/
0*
1q
1+!
1G
1>
1B
1/
1*
13
0+!
0B
03
#85000
b10 $
0L
05
0'!
1i
0p
0q
0G
0>
0/
0*
#95000
b11 $
b111 $
b101 $
b1101 $
1T
0M
1b
1L
15
1#!
1!!
1~
1`
1U
0{
0z
0y
0\
0P
1u
1t
1r
1j
1e
1c
1'!
0i
1"!
0|
1v
1k
1p
0$!
1x
1+!
0J
1H
1B
02
10
13
1q
1G
1>
1/
1*
0+!
0B
03
#100000
1!
b1001 $
b1011 $
1Q
1M
0b
1R
05
1{
1z
1y
1\
1P
0u
0t
0r
0j
0e
0c
1|
0v
0k
1}
0x
1I
0H
11
00
0_
0z
0y
0l
1f
1]
1[
0E
0-
1m
0}
0I
01
#105000
b1010 $
b1000 $
0T
0M
15
0#!
0!!
0~
0`
0U
0{
1y
0\
0P
0"!
0a
0|
1$!
0h
1J
12
1x
1i
1H
10
0p
0q
0G
0>
0/
0*
1+!
1B
13
#110000
b1100 $
b1101 $
1T
1b
05
1#!
1!!
1~
1`
1U
1u
1t
1r
1j
1e
1c
1"!
1v
1k
1h
0$!
1}
0x
0i
0J
1I
0H
02
11
00
1p
1q
1G
1>
1/
1*
0+!
0B
03
#115000
b101 $
b111 $
b110 $
0T
1M
0L
15
0#!
0!!
0~
0`
0U
1{
0y
1\
1P
0'!
1i
0"!
1|
0p
1$!
1J
12
0q
0G
0>
0/
0*
#120000
0!
b1110 $
b1100 $
b1101 $
0Q
1T
0M
1L
0R
05
1#!
1!!
1~
1`
1U
0{
1y
0\
0P
1'!
0i
1"!
0|
1p
0$!
1+!
0J
1B
02
13
1q
1G
1>
1/
1*
0+!
0B
03
#125000
b1111 $
b1110 $
0T
1M
15
0#!
0!!
0~
0`
0U
1{
0y
1\
1P
0"!
1|
1$!
1J
12
#135000
b110 $
0L
05
0'!
1i
0p
0q
0G
0>
0/
0*
#140000
1!
b100 $
1Q
0M
1R
15
0{
1y
0\
0P
0|
0}
0I
01
1_
0Z
0y
0[
1#!
1V
1E
0F
1-
0.
1}
0$!
1I
0J
11
02
#145000
b0 $
b10 $
1M
0b
05
1{
1z
1y
1\
1P
0u
0t
0r
0j
0e
0c
1|
1a
0v
0k
0h
0}
1x
1h
0(!
0i
0I
1H
01
10
0x
1(!
1i
1p
0%!
1A
0H
1(
00
0)!
0p
0A
1?
0@
0(
14
0)
1)!
1q
1%!
1@
1G
1>
1)
1/
1*
0q
0%!
0?
0G
0>
04
0/
0*
1?
14
#150000
b1010 $
b1000 $
0M
1L
15
0{
0z
0y
0\
0P
1'!
0i
0|
0a
1p
1}
1+!
0h
1%!
1I
1B
11
13
1x
1q
1i
0?
1H
1G
1>
04
10
1/
1*
0+!
0p
0B
03
0q
0G
0>
0/
0*
1+!
1B
13
#160000
b1001 $
0!
1T
0Q
0R
05
0#!
1!!
1U
1"!
1$!
1J
12
#165000
b1 $
b11 $
b10 $
0T
1M
0L
15
1#!
0!!
0U
1{
1z
1y
1\
1P
0'!
0i
0"!
1|
1a
0(!
1p
0$!
0}
0+!
1h
1A
0J
0I
0B
1(
02
01
03
0x
0)!
1q
1(!
1i
0H
0@
1G
1>
00
0)
1/
1*
0p
0A
0(
1)!
1@
1)
0q
0%!
0G
0>
0/
0*
1?
14
#170000
b1010 $
b1011 $
1T
1L
05
0#!
1!!
1U
1'!
0i
1"!
1p
1$!
1+!
1%!
1J
1B
12
13
1q
0?
1G
1>
04
1/
1*
0+!
0B
03
#175000
b11 $
b10 $
0T
0L
15
1#!
0!!
0U
0'!
1i
0"!
0p
0$!
0J
02
0q
0%!
0G
0>
0/
0*
1?
14
#180000
b110 $
1!
b1110 $
b1111 $
1T
1b
1L
1Q
1R
05
0#!
1!!
1U
1u
1t
1r
1j
1e
1c
1'!
0i
1"!
1v
1k
1p
1$!
1x
1+!
1%!
1J
1H
1B
12
10
13
1q
0?
1G
1>
04
1/
1*
0+!
0B
03
0n
0g
0p
0m
0t
0r
0f
1d
0C
0D
0+
0,
0q
0x
0G
0>
0H
0/
0*
00
#185000
b1101 $
b1001 $
b1 $
0M
0b
0L
15
0{
0z
0y
0\
0P
0u
1r
0j
0e
0c
0'!
1i
0|
0a
0v
0k
0h
0(!
1p
1}
1x
0i
1A
1I
1H
1(
11
10
0x
0)!
1q
0p
0H
0@
1G
1>
00
0)
1/
1*
1+!
1B
13
0q
0G
0>
0/
0*
0+!
0B
03
#190000
b11 $
b1011 $
1M
1L
05
1{
1z
1y
1\
1P
1'!
1i
1|
1a
1p
0}
0I
01
1x
1q
1H
1G
1>
10
1/
1*
#195000
b1111 $
1b
15
1u
0r
1j
1e
1c
1v
1k
1h
0x
1(!
0i
0H
00
0p
0A
0(
1)!
1@
1)
0q
0G
0>
0/
0*
#200000
0!
b1110 $
b110 $
0Q
0T
0L
0R
05
1#!
0!!
0U
0'!
1i
0"!
0(!
1p
0$!
0%!
1A
0J
1(
02
0)!
1q
1%!
1?
0@
1G
1>
14
0)
1/
1*
1+!
0?
1B
04
13
#205000
b100 $
b101 $
1T
0M
15
0#!
1!!
1U
0{
0z
0y
0\
0P
1"!
0|
0a
1$!
1}
0h
1J
1I
12
11
1x
0i
1H
10
0p
0q
0G
0>
0/
0*
0+!
0B
03
#210000
b111 $
b110 $
0T
1M
05
1#!
0!!
0U
1{
1z
1y
1\
1P
0"!
1|
1a
0$!
0}
1h
0J
0I
02
01
0x
1i
0%!
0H
00
1p
1?
14
1q
1%!
1G
1>
1/
1*
1+!
0?
1B
04
13
#215000
b10 $
b0 $
b1 $
1T
0M
0b
15
0#!
1!!
1U
0{
0z
0y
0\
0P
0u
1r
0j
0e
0c
1"!
0|
0a
0v
0k
0h
1$!
1}
1x
0i
1J
1I
1H
12
11
10
0x
0p
0H
00
0q
0G
0>
0/
0*
0+!
0B
03
#220000
1!
b101 $
b111 $
1Q
1M
1b
1R
05
1{
1z
1y
1\
1P
1u
0r
1j
1e
1c
1|
1a
1v
1k
0}
1x
1h
0I
1H
01
10
0x
1i
0H
00
1p
1q
1G
1>
1/
1*
1+!
1B
13
0_
1Z
0z
0y
0a
1[
1#!
1~
1`
0V
0E
1F
0-
1.
0h
1a
1x
0$!
0i
1h
1H
0J
10
02
0x
0p
1i
0H
00
1p
0q
0%!
0G
0>
0/
0*
1q
0+!
1%!
1?
1G
1>
0B
14
1/
1*
03
1+!
0?
1B
04
13
#225000
b110 $
b100 $
0T
0M
15
0#!
0!!
0~
0`
0U
0{
1y
0\
0P
0"!
0a
0|
1$!
0h
1J
12
1x
0i
1H
10
0p
0q
0G
0>
0/
0*
0+!
0B
03
#230000
b1100 $
b1101 $
1T
1L
05
1#!
1!!
1~
1`
1U
1'!
1i
1"!
1p
0$!
1}
0J
1I
02
11
1q
1G
1>
1/
1*
#235000
b1111 $
1M
15
1{
0y
1\
1P
1|
1a
0}
1h
0I
01
0x
1(!
0i
0H
00
0p
0A
0(
1)!
1@
1)
0q
0%!
0G
0>
0/
0*
1?
14
#240000
0!
b1110 $
0Q
0T
0R
05
0#!
0!!
0~
0`
0U
0"!
0a
1$!
1}
0h
1%!
1J
1I
12
11
1x
0(!
1i
0?
1H
04
10
1p
1A
1(
0)!
0@
0)
1q
1G
1>
1/
1*
#245000
b1111 $
1T
15
1#!
1!!
1~
1`
1U
1"!
1a
0$!
0}
1h
0J
0I
02
01
0x
1(!
0i
0H
00
0p
0A
0(
1)!
1@
1)
0q
0%!
0G
0>
0/
0*
1?
14
#250000
b111 $
b101 $
b100 $
0T
0M
0L
05
0#!
0!!
0~
0`
0U
0{
1y
0\
0P
0'!
1i
0"!
0a
0|
0(!
1p
1$!
0h
1%!
1A
1J
1(
12
1x
0)!
1q
0i
0?
1H
0@
1G
1>
04
10
0)
1/
1*
1+!
0p
1B
13
0q
0G
0>
0/
0*
0+!
0B
03
#255000
b0 $
0b
15
0u
1r
0j
0e
0c
0v
0k
0x
0H
00
#260000
1!
b1 $
1Q
1T
1R
05
1#!
1!!
1~
1`
1U
1"!
0$!
1}
0J
1I
02
11
0Z
0#!
0~
0`
0]
1V
0F
0.
1$!
0}
1J
0I
12
01
#265000
b1001 $
b1011 $
1M
1L
15
1{
0y
1\
1P
1'!
1i
1|
1p
1}
1I
11
1q
1G
1>
1/
1*
#270000
b1010 $
b1000 $
0T
0M
05
1#!
0!!
0U
0{
1y
0\
0P
0"!
0|
0$!
0}
0J
0I
02
01
#275000
b0 $
b10 $
1M
0L
15
1{
0y
1\
1P
0'!
0i
1|
0p
1}
1+!
1I
1B
11
13
0q
0G
0>
0/
0*
0+!
0B
03
#280000
0!
b1010 $
0Q
1L
0R
05
1'!
1i
1p
1q
1G
1>
1/
1*
#290000
b1000 $
0M
15
0{
1y
0\
0P
0|
0}
0I
01
#295000
b1010 $
1M
05
1{
0y
1\
1P
1|
1}
1I
11
#300000
b1110 $
b1111 $
1!
b111 $
1T
1b
0L
1Q
1R
15
0#!
1!!
1U
1u
0r
1j
1e
1c
0'!
0i
1"!
1v
1k
0p
1$!
1x
1+!
1J
1H
1B
12
10
13
0q
0G
0>
0/
0*
0+!
0B
03
1_
1z
1y
1a
1]
0[
1E
1-
1h
0}
0x
1i
0I
0H
01
00
1p
1q
1G
1>
1/
1*
1+!
1B
13
#305000
b11 $
0b
05
0u
1r
0j
0e
0c
0v
0k
0h
1x
0i
1H
10
0p
0q
0G
0>
0/
0*
0+!
0B
03
#310000
b10 $
b1010 $
b1110 $
0T
1b
1L
15
1#!
0!!
0U
1u
0r
1j
1e
1c
1'!
1i
0"!
1v
1k
1h
1p
0$!
0x
1(!
0i
0%!
0J
0H
02
00
1q
0p
1%!
0A
1?
1G
1>
0(
14
1/
1*
1)!
0?
1@
04
1)
0q
0%!
0G
0>
0/
0*
1?
14
#315000
b1100 $
b1101 $
b101 $
1T
0M
0L
05
0#!
1!!
1U
0{
0z
0y
0\
0P
0'!
1i
1"!
0|
0a
0(!
1p
1$!
1}
0h
1%!
1A
1J
1I
1(
12
11
1x
0)!
1q
0i
0?
1H
0@
1G
1>
04
10
0)
1/
1*
1+!
0p
1B
13
0q
0G
0>
0/
0*
0+!
0B
03
#320000
0!
b111 $
0Q
1M
0R
15
1{
1z
1y
1\
1P
1|
1a
0}
1h
0I
01
0x
1i
0H
00
1p
1q
1G
1>
1/
1*
1+!
1B
13
#325000
b101 $
0M
05
0{
0z
0y
0\
0P
0|
0a
1}
0h
1I
11
1x
0i
1H
10
0p
0q
0G
0>
0/
0*
0+!
0B
03
#330000
b1 $
b0 $
b1000 $
0T
0b
1L
15
1#!
0!!
0U
0u
1r
0j
0e
0c
1'!
1i
0"!
0v
0k
1p
0$!
0x
0J
0H
02
00
1q
1G
1>
1/
1*
#335000
b1001 $
1T
05
0#!
1!!
1U
1"!
1$!
1J
12
#340000
1!
b1011 $
b1010 $
1Q
0T
1M
1R
15
1#!
0!!
0U
1{
1z
1y
1\
1P
0"!
1|
1a
0$!
0}
0J
0I
02
01
1x
1H
10
0_
1Z
0z
0y
0a
1[
0#!
0V
0E
1F
0-
1.
1}
0x
1$!
1I
0H
1J
11
00
12
#345000
b1110 $
b110 $
b100 $
0M
1b
0L
05
0{
1y
0\
0P
1u
0r
1j
1e
1c
0'!
0i
0|
1v
1k
0p
0}
1x
1+!
0I
1H
1B
01
10
13
0q
0G
0>
0/
0*
0+!
0B
03
#350000
b0 $
b1000 $
0b
1L
15
0u
1r
0j
0e
0c
1'!
1i
0v
0k
1p
0x
0H
00
1q
1G
1>
1/
1*
#355000
b1001 $
b1101 $
b101 $
1T
1b
0L
05
1#!
1!!
1~
1`
1U
1u
0r
1j
1e
1c
0'!
0i
1"!
1v
1k
0p
0$!
1}
1x
1+!
0J
1I
1H
1B
02
11
10
13
0q
0G
0>
0/
0*
0+!
0B
03
#360000
0!
b111 $
b11 $
b1011 $
0Q
1M
0b
1L
0R
15
1{
0y
1\
1P
0u
1r
0j
0e
0c
1'!
1i
1|
1a
0v
0k
1p
0}
0x
0%!
0I
0H
01
00
1x
1q
1%!
1?
1H
1G
1>
14
10
1/
1*
0?
04
#365000
b1010 $
b1000 $
b1100 $
b100 $
0T
0M
1b
0L
05
0#!
0!!
0~
0`
0U
0{
1y
0\
0P
1u
0r
1j
1e
1c
0'!
0i
0"!
0a
0|
1v
1k
1h
0p
1$!
0x
1+!
0h
1i
1J
0H
1B
12
00
13
1x
0q
0i
1p
1H
0G
0>
10
0/
0*
0+!
0p
0B
03
1q
1G
1>
1/
1*
0q
1+!
0G
0>
1B
0/
0*
13
0+!
0B
03
#370000
b101 $
1T
15
1#!
1!!
1~
1`
1U
1"!
0$!
1}
0J
1I
02
11
#375000
b100 $
0T
05
0#!
0!!
0~
0`
0U
0"!
1$!
0}
1J
0I
12
01
#380000
1!
b110 $
b10 $
b11 $
1Q
1T
1M
0b
1R
15
1#!
1!!
1~
1`
1U
1{
0y
1\
1P
0u
1r
0j
0e
0c
1"!
1a
1|
0v
0k
0$!
0x
0%!
0J
0H
02
00
1x
1%!
1?
1H
14
10
0?
04
1n
1g
0Z
1p
1m
0r
1h
1f
0d
0#!
0~
0`
0]
1V
1C
1D
0F
1+
1,
0.
1(!
1i
0a
1q
0x
1$!
1}
0p
0h
0A
1G
1>
0H
1J
1I
0(
1/
1*
00
12
11
1)!
1x
0(!
0i
1@
1H
1)
10
0q
1p
1A
0G
0>
1(
0/
0*
0)!
0@
0)
1q
1G
1>
1/
1*
#385000
b1 $
b101 $
0M
1b
05
0{
1y
0\
0P
1u
1t
1r
1j
1e
1c
0|
1v
1k
1h
0}
0x
1(!
1i
0I
0H
01
00
0p
0A
0(
1)!
1@
1)
0q
0G
0>
0/
0*
#390000
b111 $
b11 $
1M
0b
15
1{
0y
1\
1P
0u
0t
0r
0j
0e
0c
1|
0v
0k
0h
1}
1x
0(!
0i
1I
1H
11
10
1p
1A
1(
0)!
0@
0)
1q
1G
1>
1/
1*
#395000
b10 $
0T
05
1#!
0!!
0U
0"!
0$!
0J
02
#400000
0!
0Q
0R
15
#405000
b0 $
b1 $
1T
0M
05
0#!
1!!
1U
0{
1y
0\
0P
1"!
0|
1$!
0}
1J
0I
12
01
#410000
b0 $
0T
15
1#!
0!!
0U
0"!
0$!
0J
02
#415000
b1000 $
b1100 $
b1110 $
1M
1b
1L
05
1{
0y
1\
1P
1u
1t
1r
1j
1e
1c
1'!
1i
1|
1v
1k
1h
1(!
0p
1}
0x
0i
0A
1I
0H
0(
11
00
1)!
0q
1p
1@
0G
0>
1)
0/
0*
1+!
1B
13
1q
1G
1>
1/
1*
0+!
0B
03
#420000
1!
b110 $
b10 $
b0 $
1Q
0M
0b
0L
1R
15
0{
1y
0\
0P
0u
0t
0r
0j
0e
0c
0'!
1i
0|
0v
0k
0h
0p
0}
1x
0(!
0i
0I
1H
01
10
0q
1p
1A
0G
0>
1(
0/
0*
0)!
0@
0)
1q
1G
1>
1/
1*
1_
0y
1]
0[
1E
1-
1}
1I
11
#430000
b1000 $
b1100 $
b1110 $
1M
1b
1L
05
1{
1z
1y
1\
1P
1u
1t
1r
1j
1e
1c
1'!
1i
1|
1a
1v
1k
1h
1(!
0p
0}
0x
0i
0A
0I
0H
0(
01
00
1x
1)!
0q
1p
1H
1@
0G
0>
10
1)
0/
0*
1+!
1B
13
1q
1G
1>
1/
1*
0+!
0B
03
#435000
b1010 $
0b
15
0u
0t
0r
0j
0e
0c
0v
0k
0x
0H
00
#440000
0!
b10 $
0Q
0L
0R
05
0'!
1i
0p
0q
0%!
0G
0>
0/
0*
1?
14
#445000
b11 $
b1011 $
1T
1L
15
0#!
1!!
1U
1'!
0i
1"!
1p
1$!
1+!
1%!
1J
1B
12
13
1q
0?
1G
1>
04
1/
1*
0+!
0B
03
#450000
b1111 $
b1110 $
0T
1b
05
1#!
0!!
0U
1u
1t
1r
1j
1e
1c
0"!
1v
1k
0$!
1x
0J
1H
02
10
#455000
b1100 $
b1101 $
1T
0M
15
0#!
1!!
1U
0{
0z
0y
0\
0P
1"!
0|
0a
1$!
1}
1J
1I
12
11
0x
0H
00
#460000
1!
1Q
1R
05
0_
1Z
1y
1[
1#!
1~
1`
0V
0E
1F
0-
1.
0$!
0J
02
#465000
b101 $
b100 $
0T
0L
15
0#!
0!!
0~
0`
0U
0'!
1i
0"!
0p
1$!
0}
1J
0I
12
01
0q
0G
0>
0/
0*
#470000
b0 $
b1 $
1T
0b
05
1#!
1!!
1~
1`
1U
0u
0t
0r
0j
0e
0c
1"!
0v
0k
0h
0$!
1}
1x
0(!
0i
0J
1I
1H
02
11
10
1p
1A
1(
0)!
0@
0)
1q
1G
1>
1/
1*
#475000
b1001 $
b1101 $
b1100 $
0T
1b
1L
15
0#!
0!!
0~
0`
0U
1u
1t
1r
1j
1e
1c
1'!
1i
0"!
1v
1k
1h
1(!
0p
1$!
0}
0x
0i
0A
1J
0I
0H
0(
12
01
00
1)!
0q
1p
1@
0G
0>
1)
0/
0*
1+!
1B
13
1q
1G
1>
1/
1*
0+!
0B
03
#480000
b1110 $
0!
b110 $
b10 $
b11 $
1T
1M
0b
0L
0Q
0R
05
1#!
1!!
1~
1`
1U
1{
0y
1\
1P
0u
0t
0r
0j
0e
0c
0'!
1i
1"!
1a
1|
0v
0k
0h
0p
0$!
1x
1h
0(!
0i
0J
1H
02
10
0x
0q
1(!
1i
1p
0%!
1A
0H
0G
0>
1(
00
0/
0*
0)!
0p
0A
1?
0@
0(
14
0)
1)!
1q
1%!
1@
1G
1>
1)
1/
1*
0q
0%!
0?
0G
0>
04
0/
0*
1?
14
#485000
b1 $
0M
15
0{
1y
0\
0P
0|
0a
1}
0h
1%!
1I
11
1x
0(!
0i
0?
1H
04
10
1p
1A
1(
0)!
0@
0)
1q
1G
1>
1/
1*
#490000
b11 $
1M
05
1{
0y
1\
1P
1|
1a
0}
1h
0I
01
0x
1(!
1i
0H
00
0p
0A
0(
1)!
1@
1)
0q
0%!
0G
0>
0/
0*
1?
14
#495000
b111 $
b110 $
0T
1b
15
0#!
0!!
0~
0`
0U
1u
1t
1r
1j
1e
1c
0"!
0a
1v
1k
1$!
1}
1x
1%!
1J
1I
1H
12
11
10
0x
0?
0H
04
00
#500000
1!
b10 $
1Q
0b
1R
05
0u
0t
0r
0j
0e
0c
0v
0k
0h
1x
0(!
0i
1H
10
1p
1A
1(
0)!
0@
0)
1q
1G
1>
1/
1*
1_
0Z
1z
1y
1a
0[
1#!
1V
1E
0F
1-
0.
1h
0}
0x
0$!
1(!
1i
0I
0H
0J
01
00
02
0p
0A
0(
1)!
1@
1)
0q
0%!
0G
0>
0/
0*
1?
14
#505000
b0 $
b100 $
0M
1b
15
0{
0z
0y
0\
0P
1u
1t
1r
1j
1e
1c
0|
0a
1v
1k
1}
1x
1%!
1I
1H
11
10
0x
0?
0H
04
00
#510000
b101 $
b1 $
1T
0b
05
0#!
1!!
1U
0u
0t
0r
0j
0e
0c
1"!
0v
0k
0h
1$!
1x
0(!
0i
1J
1H
12
10
1p
1A
1(
0)!
0@
0)
1q
1G
1>
1/
1*
#515000
b0 $
b100 $
0T
1b
15
1#!
0!!
0U
1u
1t
1r
1j
1e
1c
0"!
1v
1k
1h
0$!
0x
1(!
1i
0J
0H
02
00
0p
0A
0(
1)!
1@
1)
0q
0G
0>
0/
0*
#520000
0!
b101 $
0Q
1T
0R
05
0#!
1!!
1U
1"!
1$!
1J
12
#525000
b111 $
b110 $
0T
1M
15
1#!
0!!
0U
1{
1z
1y
1\
1P
0"!
1|
1a
0$!
0}
0%!
0J
0I
02
01
1x
1%!
1?
1H
14
10
0?
04
#530000
b10 $
b11 $
1T
0b
05
0#!
1!!
1U
0u
0t
0r
0j
0e
0c
1"!
0v
0k
1$!
0x
1J
0H
12
00
#535000
b1011 $
1L
15
1'!
0i
1p
1+!
1B
13
1q
1G
1>
1/
1*
0+!
0B
03
