projeto_final/simulation/qsim/projeto_final.msim.vcd
$comment
	File created using the following command:
		vcd file projeto_final.msim.vcd -direction
$end
$date
	Sun Jan 28 14:57:43 2024
$end
$version
	ModelSim Version 10.1d
$end
$timescale
	1ps
$end
$scope module projeto_final_vlg_vec_tst $end
$var reg 1 ! c0 $end
$var reg 1 " c1 $end
$var reg 4 # X [3:0] $end
$var reg 4 $ Y [3:0] $end
$var wire 1 % c_out $end
$var wire 1 & S [3] $end
$var wire 1 ' S [2] $end
$var wire 1 ( S [1] $end
$var wire 1 ) S [0] $end
$var wire 1 * sampler $end
$scope module i1 $end
$var wire 1 + gnd $end
$var wire 1 , vcc $end
$var wire 1 - unknown $end
$var tri1 1 . devclrn $end
$var tri1 1 / devpor $end
$var tri1 1 0 devoe $end
$var wire 1 1 c_out~output_o $end
$var wire 1 2 S[3]~output_o $end
$var wire 1 3 S[2]~output_o $end
$var wire 1 4 S[1]~output_o $end
$var wire 1 5 S[0]~output_o $end
$var wire 1 6 c1~input_o $end
$var wire 1 7 X[3]~input_o $end
$var wire 1 8 c0~input_o $end
$var wire 1 9 Y[3]~input_o $end
$var wire 1 : Y[2]~input_o $end
$var wire 1 ; Y[0]~input_o $end
$var wire 1 < X[0]~input_o $end
$var wire 1 = inst0|inst|inst1|inst5~0_combout $end
$var wire 1 > X[1]~input_o $end
$var wire 1 ? Y[1]~input_o $end
$var wire 1 @ inst0|inst2|inst1|inst5~0_combout $end
$var wire 1 A X[2]~input_o $end
$var wire 1 B inst0|inst1|inst1|inst5~0_combout $end
$var wire 1 C inst0|inst3|inst1|inst5~0_combout $end
$var wire 1 D inst0|inst3|inst|1~combout $end
$var wire 1 E inst0|inst1|inst|1~combout $end
$var wire 1 F inst0|inst2|inst|1~combout $end
$var wire 1 G inst0|inst|inst|1~combout $end
$var wire 1 H inst1 [3] $end
$var wire 1 I inst1 [2] $end
$var wire 1 J inst1 [1] $end
$var wire 1 K inst1 [0] $end
$upscope $end
$upscope $end
$enddefinitions $end
#0
$dumpvars
1!
1"
b110 #
b101 $
1%
1)
0(
0'
0&
x*
0+
1,
x-
1.
1/
10
11
02
03
04
15
16
07
18
09
1:
1;
0<
0=
1>
0?
1@
1A
1B
1C
0D
0E
0F
1G
zK
1J
0I
1H
$end
#5000
b1110 #
b1111 #
b1101 $
b1001 $
b1011 $
1?
0:
19
1<
17
0*
0J
1I
0H
1=
0G
1D
05
12
0)
1&
1E
0D
13
02
1'
0&
#10000
b1011 #
b1001 #
b1010 $
b1000 #
b10 $
b110 $
0;
1:
09
0<
0>
0A
1*
0I
1H
0@
1F
0E
0B
14
03
1(
0'
1D
12
1&
0D
02
0&
#15000
b0 #
b100 #
b110 #
b111 #
b1110 $
b1010 $
0:
19
1<
1>
1A
07
0*
1I
0H
1@
1G
0F
1E
1D
0C
1B
15
04
13
12
01
1)
0(
1'
1&
0%
0D
02
0&
1D
12
1&
#20000
b11 #
b10 #
b1110 $
1:
0<
0A
1*
0I
0G
0E
0B
05
03
0)
0'
1E
13
1'
0D
02
0&
#25000
b1100 $
b1101 $
b1010 #
b1011 #
b1001 $
1<
17
1;
0?
0:
0*
1J
1I
1D
1B
12
1&
1F
0E
14
03
1(
0'
0D
1C
02
11
0&
1%
#30000
b1001 #
b1 $
b1 #
b101 $
1:
09
0>
07
1*
0I
1H
0F
1D
0C
0B
04
12
01
0(
1&
0%
1E
0D
1C
13
02
11
1'
0&
1%
1D
0C
12
01
1&
0%
#35000
b100 $
b1100 $
b1001 #
17
0;
19
0*
0H
0D
1C
1G
02
11
15
0&
1%
1)
1D
0C
12
01
1&
0%
#40000
b1000 #
b1000 $
b0 $
b0 #
0:
09
0<
07
1*
1I
1H
0G
0D
1B
05
02
0)
0&
0E
1D
03
12
0'
1&
0D
1C
02
11
0&
1%
#45000
b10 #
b11 #
1<
1>
0*
1G
1F
15
14
1)
1(
#50000
b111 #
b1 $
b101 #
b100 #
1;
0<
0>
1A
1*
0=
0F
1E
0@
04
13
0(
1'
1F
14
1(
0E
03
0'
#55000
b101 $
b1101 $
b1100 $
b110 #
1>
0;
1:
19
0*
1@
1=
0I
0H
0F
0G
04
05
0(
0)
1F
1D
0C
14
12
01
1(
1&
0%
#60000
b1110 $
b1110 #
b1010 #
b1000 #
0>
0A
17
1?
1*
0B
0J
0F
1E
0D
1C
0@
04
13
02
11
0(
1'
0&
1%
1D
0C
1F
12
01
14
1&
0%
1(
0E
03
0'
#65000
b1001 #
b110 $
b111 $
1;
09
1<
0*
1H
0D
1C
02
11
0&
1%
#70000
b11 $
b1101 #
b1111 #
b1011 $
b1010 $
1>
1A
0;
0:
19
1*
1@
1I
0H
0F
1E
1G
1B
04
13
15
0(
1'
1)
1D
0C
12
01
1&
0%
0D
1C
02
11
0&
1%
#75000
b1110 #
b10 $
09
0<
0*
1H
0G
05
0)
1D
12
1&
#80000
b0 $
b100 $
b1010 #
b101 $
0A
1;
0?
1:
1*
0=
1J
0I
0E
1G
0B
03
15
0'
1)
1E
13
1'
0D
02
0&
#85000
b1000 #
b1001 #
b1101 #
b100 $
0;
1<
0>
1A
0*
1=
0@
1B
1F
0E
1@
0B
14
03
1(
0'
0F
1E
1D
1B
04
13
12
0(
1'
1&
0E
0D
03
02
0'
0&
1D
12
1&
#90000
b110 $
b10 $
b1111 #
b1110 #
b11 $
0<
1>
1;
1?
0:
1*
0=
0J
1I
1F
0@
14
1(
1E
13
1'
0E
03
0'
#95000
b1011 $
b1010 #
b1001 $
b1000 #
b1001 #
b1000 $
1<
0>
0A
0;
0?
19
0*
1=
0B
1J
0H
0F
1E
1@
04
13
0(
1'
0C
1B
01
0%
0E
03
0'
0D
1C
02
11
0&
1%
#100000
b0 $
b1101 #
b10 $
b1111 #
1>
1A
1?
09
1*
0J
1H
1F
1E
14
13
1(
1'
0F
1D
04
12
0(
1&
#105000
b111 #
b110 #
0<
07
0*
0G
0D
05
02
0)
0&
#110000
b110 $
b111 $
b1111 $
b1101 $
b111 #
1<
1;
0?
1:
19
1*
1J
0I
0H
1F
0E
1D
0C
14
03
12
01
1(
0'
1&
0%
#115000
b1111 #
b1100 $
b1110 $
b1110 #
0;
1?
0<
17
0*
0J
0D
1C
02
11
0&
1%
0F
04
0(
#120000
b1100 #
b1010 $
b10 $
b100 #
b11 $
b1 $
b101 #
1;
0?
0:
09
1<
0>
07
1*
1J
1I
1H
0@
1F
1D
0C
1@
14
12
01
1(
1&
0%
0F
0D
1C
04
02
11
0(
0&
1%
1E
13
1'
#125000
b1 #
b11 #
b1011 #
b0 $
b1010 #
0;
0<
1>
0A
17
0*
1F
0E
1D
14
03
12
1(
0'
1&
#130000
b100 $
b1000 #
b1001 #
1<
0>
1:
1*
0I
1G
0F
0B
15
04
1)
0(
1E
13
1'
0D
02
0&
#135000
b110 $
b1101 #
b101 #
b111 #
b110 #
0<
1>
1A
07
1?
0*
1B
0J
0G
1F
0E
1D
0C
05
14
03
12
01
0)
1(
0'
1&
0%
0D
1C
0F
02
11
04
0&
1%
0(
#140000
b111 $
b10 #
b0 #
0>
0A
1;
1*
0@
0B
0=
1F
1E
1G
14
13
15
1(
1'
1)
0E
1D
0C
0F
03
12
01
04
0'
1&
0%
0(
#145000
b101 $
b1000 #
b1001 #
b1101 #
1<
1A
17
0?
0*
1=
1J
0G
1E
0D
1C
1@
05
13
02
11
0)
1'
0&
1%
1B
0E
03
0'
1D
12
1&
#150000
b1101 $
b1001 $
b1000 $
b1111 #
b111 #
1>
07
0;
0:
19
1*
1I
0H
1F
0D
1G
14
02
15
1(
0&
1)
1E
1D
0C
13
12
01
1'
1&
0%
#155000
b1010 $
b10 $
b110 $
b1111 #
17
1?
1:
09
0*
0J
0I
1H
0D
1C
02
11
0&
1%
0F
0E
1D
04
03
12
0(
0'
1&
#160000
b1110 #
b1010 #
b111 $
b1000 #
b101 $
b0 #
1;
0?
0<
0>
0A
07
1*
0=
1J
0@
0B
1F
1E
0D
14
13
02
1(
1'
0&
0E
1D
0C
03
12
01
0'
1&
0%
#165000
b1101 $
b1001 $
b100 #
b1000 $
b1100 #
1A
17
0;
0:
19
0*
1=
1I
0H
1E
0D
1C
0G
1@
1B
13
02
11
05
1'
0&
1%
0)
0F
0E
1D
0C
04
03
12
01
0(
0'
1&
0%
1E
0D
1C
13
02
11
1'
0&
1%
#170000
b1010 $
b1110 $
1?
1:
1*
0J
0I
0@
1F
0E
0B
14
03
1(
0'
1E
13
1'
1D
0C
12
01
1&
0%
#175000
b1110 #
b110 $
b1010 #
b10 $
0:
09
1>
0A
0*
1I
1H
1@
0F
0E
1B
04
03
0(
0'
0D
1C
02
11
0&
1%
1D
12
1&
#180000
b1011 #
b0 $
b1001 #
b100 $
0?
1:
1<
0>
1*
1J
0I
0@
1G
1F
1@
0B
15
14
1)
1(
0F
04
0(
1E
0D
13
02
1'
0&
#185000
b101 $
1;
0*
0G
05
0)
#190000
b1 #
b111 $
b11 $
b10 $
0;
1?
0:
07
1*
0J
1I
1G
1D
0C
0@
1B
15
12
01
1)
1&
0%
1F
0E
0B
14
03
1(
0'
1E
0D
1C
13
02
11
1'
0&
1%
1D
0C
12
01
1&
0%
#195000
b1010 $
b101 #
b100 #
b110 #
b1000 $
b1100 $
b1101 $
0<
1>
1A
1;
0?
1:
19
0*
0=
1@
1B
1J
0I
0H
0F
0E
04
03
0(
0'
#200000
b1110 #
b1010 #
b1011 #
1<
0A
17
1*
1=
0B
0G
1E
0D
1C
05
13
02
11
0)
1'
0&
1%
1F
1D
0C
14
12
01
1(
1&
0%
#205000
b101 $
b1001 #
b111 $
b11 $
b10 $
0>
0;
1?
0:
09
0*
0J
1I
1H
0F
1G
0@
1B
04
15
0(
1)
1F
0E
0D
1C
0B
14
03
02
11
1(
0'
0&
1%
1E
1D
13
12
1'
1&
0D
02
0&
#210000
b1 #
b11 #
b110 $
b111 $
1;
1:
1>
07
1*
0I
1@
0G
0F
1D
0C
05
04
12
01
0)
0(
1&
0%
#215000
b111 #
b110 #
b101 $
b1110 #
b1 $
b0 $
0;
0?
0:
0<
1A
17
0*
1J
1I
1B
0E
0D
1C
03
02
11
0'
0&
1%
1F
1E
1D
14
13
12
1(
1'
1&
#220000
b110 #
b1 $
1;
07
1*
0=
1G
0D
15
02
1)
0&
0F
04
0(
#225000
b100 #
b101 #
b11 $
b111 $
1?
1:
1<
0>
0*
0J
0I
1=
0@
0G
1F
0B
05
14
0)
1(
1D
0C
12
01
1&
0%
#230000
b1111 $
b1 #
b1001 #
b1110 $
b1000 #
0<
0A
17
0;
19
1*
0H
0E
0D
1C
03
02
11
0'
0&
1%
1D
0C
12
01
1&
0%
#235000
b1100 #
b1101 #
1<
1A
0*
1G
1E
15
13
1)
1'
#240000
b1010 $
b101 #
b1011 $
b1 #
b0 #
0<
0A
07
1;
0:
1*
0=
1I
0E
0D
03
02
0'
0&
0F
1E
04
13
0(
1'
#245000
b1111 $
b1000 #
b1110 $
b1100 #
b1101 #
1<
1A
17
0;
1:
0*
1=
1B
0I
0E
1D
0B
03
12
0'
1&
1F
0D
1C
1E
14
02
11
13
1(
0&
1%
1'
1D
0C
12
01
1&
0%
#250000
b1111 #
b1100 $
b100 $
b0 $
b111 #
b1 $
b110 #
1;
0?
0:
09
0<
1>
07
1*
0=
1J
1I
1H
1@
0F
0D
1B
04
02
0(
0&
1D
12
1&
0D
1C
02
11
0&
1%
#255000
b10 #
b11 $
b1011 $
b1010 $
b11 #
0;
1?
19
1<
0A
0*
1=
0J
0H
0E
03
0'
1D
0C
12
01
1&
0%
#260000
b10 $
b11 $
b10 #
0<
1;
09
1*
0=
1H
0@
1F
0D
1C
0B
14
02
11
1(
0&
1%
1E
13
1'
1D
0C
12
01
1&
0%
#265000
b0 #
b111 $
b100 #
b101 $
0?
1:
0>
1A
0*
1J
0I
1B
0F
0E
0B
04
03
0(
0'
1F
1E
0D
1C
14
13
02
11
1(
1'
0&
1%
1D
0C
12
01
1&
0%
#270000
b1101 $
b1100 $
b110 #
b1110 $
1>
0;
1?
19
1*
1@
1=
0J
0H
0F
0G
1B
04
05
0(
0)
0E
0D
03
02
0'
0&
1D
12
1&
#275000
b1110 #
b1111 #
b1111 $
b1101 #
1;
1<
0>
17
0*
0@
1F
0D
1C
0B
14
02
11
1(
0&
1%
1E
13
1'
1D
0C
12
01
1&
0%
#280000
b1011 $
b1001 #
b11 $
0A
0:
09
1*
1I
1H
0E
03
0'
1E
0D
1C
13
02
11
1'
0&
1%
#285000
b1 $
b101 $
0?
1:
0*
1J
0I
1@
0F
0E
04
03
0(
0'
1E
13
1'
#290000
b1 #
b0 #
0<
07
1*
0=
1G
1D
0C
0@
15
12
01
1)
1&
0%
1F
14
1(
0E
03
0'
#295000
b10 #
b111 $
b11 $
1?
0:
1>
0*
0J
1I
1@
0F
0@
1B
04
0(
1F
0B
14
1(
1E
0D
1C
13
02
11
1'
0&
1%
1D
0C
12
01
1&
0%
#300000
b1010 #
b1 $
0?
17
1*
1J
0D
1C
1@
02
11
0&
1%
0F
1B
04
0(
0E
03
0'
1D
12
1&
#305000
b0 $
b1000 $
b1100 $
b10 #
b1110 $
07
0;
1?
1:
19
0*
1=
0J
0I
0H
0D
0G
0B
02
05
0&
0)
1E
1D
0C
13
12
01
1'
1&
0%
0D
02
0&
#310000
b110 #
b110 $
b1110 #
09
1A
17
1*
1H
1B
0E
1D
03
12
0'
1&
1C
11
1%
#315000
b1111 #
b10 $
b111 #
0:
1<
07
0*
1I
1G
0D
15
02
1)
0&
1E
13
1'
#320000
b101 #
b11 $
b1 #
b0 #
b111 $
1;
1:
0<
0>
0A
1*
0=
0I
0@
1F
0E
0B
14
03
1(
0'
0F
04
0(
1D
0C
12
01
1&
0%
#325000
b101 $
b1000 #
b1010 #
b1011 #
1<
1>
17
0?
0*
1=
1J
0G
1F
0D
1C
1@
05
14
02
11
0)
1(
0&
1%
1E
13
1'
#330000
b1101 $
b1100 $
b1000 $
b1010 $
b11 #
b1 #
b0 #
0<
0>
07
0;
1?
0:
19
1*
0J
1I
0H
0F
1D
0C
0@
1B
04
12
01
0(
1&
0%
1F
0E
0D
0B
14
03
02
1(
0'
0&
1E
1D
13
12
1'
1&
0D
02
0&
#335000
b10 $
b11 $
b111 $
b101 $
b1000 #
b1010 #
1>
17
1;
0?
1:
09
0*
1@
0=
1J
0I
1H
0F
1D
1G
04
12
15
0(
1&
1)
0D
1C
02
11
0&
1%
#340000
b111 $
1?
1*
0J
0@
1F
14
1(
0E
03
0'
#345000
b1110 #
b1111 #
b11 $
b111 #
b101 #
0:
1<
0>
1A
07
0*
1I
1=
0G
0F
1E
1D
0C
1B
05
04
13
12
01
0)
0(
1'
1&
0%
0E
1F
03
14
0'
1(
0D
1C
02
11
0&
1%
#350000
b1011 $
b1 #
b1111 $
b11 #
1>
0A
1:
19
1*
1@
0B
0I
0H
0F
1E
04
13
0(
1'
0C
01
0%
#355000
b10 #
b110 #
0<
1A
0*
0=
1B
1G
0E
0@
15
03
1)
0'
1F
1D
0B
14
12
1(
1&
1E
13
1'
0D
02
0&
#360000
b1110 $
b1110 #
b1010 $
b1111 #
b1011 #
1<
0A
17
0;
0:
1*
1=
1I
0E
1D
1@
03
12
0'
1&
0F
1E
1B
04
13
0(
1'
0E
03
0'
0D
1C
02
11
0&
1%
#365000
b1000 $
b1001 #
b1001 $
b1 #
b1101 $
b0 #
b100 #
0<
0>
1A
07
1;
0?
1:
0*
0=
0@
1J
0I
1F
1E
1D
0C
0B
14
13
12
01
1(
1'
1&
0%
0D
02
0&
#370000
b1111 $
b110 #
b1011 $
1>
1?
0:
1*
1@
0J
1I
0F
1B
0@
04
0(
1F
14
1(
1D
0E
12
03
1&
0'
#375000
b11 $
b10 #
b1 $
0A
0?
09
0*
0B
1J
1H
1E
1@
13
1'
0F
1B
04
0(
0E
03
0'
0D
1C
02
11
0&
1%
#380000
b0 $
b1010 #
b1000 #
b100 $
b1100 $
0>
17
0;
1:
19
1*
0@
1=
0I
0H
1F
1D
0G
0B
1@
14
12
05
1(
1&
0)
0F
0D
04
02
0(
0&
1D
0C
1E
12
01
13
1&
0%
1'
#385000
b1001 #
b1110 $
b1111 $
b1011 #
b1011 $
b11 $
1;
1?
0:
09
1<
1>
0*
0J
1I
1H
1F
1B
14
1(
0F
0E
0D
1C
04
03
02
11
0(
0'
0&
1%
1D
12
1&
#390000
b1010 #
b10 $
b1000 #
0;
0<
0>
1*
0@
1F
0B
14
1(
1E
13
1'
0D
02
0&
#395000
b1100 #
b0 $
b1000 $
b1001 $
1;
0?
19
1A
0*
0=
1J
0H
1B
1G
0E
15
03
1)
0'
#400000
b100 #
b1101 $
b101 #
b111 #
b11 #
b1111 $
b1110 $
0;
1?
1:
1<
1>
0A
07
1*
1=
0J
0I
1@
0B
0F
1E
1D
0C
04
13
12
01
0(
1'
1&
0%
0D
02
0&
#405000
b1011 #
b1010 $
b1111 #
b1000 $
b1001 $
1;
0?
0:
1A
17
0*
1J
1I
1B
0G
0E
1D
05
03
12
0)
0'
1&
1F
1E
0D
1C
14
13
02
11
1(
1'
0&
1%
#410000
b1 $
b111 #
07
09
1*
1H
1D
0C
12
01
1&
0%
0D
1C
02
11
0&
1%
#415000
b110 #
b100 #
b101 $
b111 $
b110 $
0;
1?
1:
0<
0>
0*
0J
0I
0F
0@
04
0(
1F
0E
0B
14
03
1(
0'
1E
13
1'
1D
0C
12
01
1&
0%
#420000
b0 #
b1000 #
b1001 #
b1011 #
b10 $
b0 $
0?
0:
1<
1>
0A
17
1*
1J
1I
1@
1G
0F
0E
0D
1C
1B
15
04
03
02
11
1)
0(
0'
0&
1%
1F
14
1(
1D
12
1&
#425000
b1000 $
b1111 #
b1101 #
b1100 $
b1110 $
0>
1A
1?
1:
19
0*
0J
0I
0H
0F
1E
0@
04
13
0(
1'
1F
0E
0D
0B
14
03
02
1(
0'
0&
1E
13
1'
1D
0C
12
01
1&
0%
#430000
b1100 #
b110 $
b1000 #
b10 $
0:
09
0<
0A
1*
1I
1H
0G
0E
05
03
0)
0'
1E
0D
1C
13
02
11
1'
0&
1%
#435000
b0 #
b10 #
b11 #
b1010 $
b111 #
19
1<
1>
1A
07
0*
0H
1@
1B
1G
0F
0E
1D
0C
15
04
03
12
01
1)
0(
0'
1&
0%
1E
13
1'
#440000
b1011 $
b1001 $
b101 #
b100 #
b1 $
0<
0>
1;
0?
09
1*
0=
0@
1J
1H
1F
14
1(
0E
0D
1C
03
02
11
0'
0&
1%
#445000
b101 $
b1100 #
b111 $
b1101 #
b1111 $
1<
17
1?
1:
19
0*
1=
0J
0I
0H
0G
1D
0B
05
12
0)
1&
1E
0D
13
02
1'
0&
1D
0C
12
01
1&
0%
#450000
b1111 #
b1101 $
b101 $
0?
09
1>
1*
1J
1H
1@
0F
1B
04
0(
1F
0D
1C
0E
14
02
11
03
1(
0&
1%
0'
1D
12
1&
#455000
b1101 #
b111 $
1?
0>
0*
0J
0F
0@
04
0(
1F
0B
14
1(
1E
13
1'
0D
02
0&
#460000
b1001 #
b110 $
b1 #
b1110 $
0;
19
0A
07
1*
0H
1G
0E
1D
0C
15
03
12
01
1)
0'
1&
0%
0D
02
0&
#465000
b1100 $
0?
0*
1J
1@
0F
04
0(
1E
13
1'
#470000
b1000 $
b11 #
b111 #
b1001 $
b1111 #
b1 $
b11 $
1>
1A
17
1;
1?
0:
09
1*
1B
0J
1I
1H
1F
0E
1D
0G
14
03
12
05
1(
0'
1&
0)
1C
0F
1E
11
04
13
1%
0(
1'
#475000
b1110 #
b111 $
b1100 #
b1111 $
b1101 $
0?
1:
19
0<
0>
0*
1J
0I
0H
0=
0@
1G
1F
0B
15
14
1)
1(
0D
02
0&
1D
0C
12
01
1&
0%
#480000
b1000 #
b1100 $
b1001 #
b1011 #
0;
1<
1>
0A
1*
1=
1@
0F
0E
04
03
0(
0'
1F
1E
14
13
1(
1'
#485000
b1000 $
b1010 $
b1111 #
b1011 $
b1110 #
b1100 #
0<
0>
1A
1;
1?
0:
0*
0=
1B
0J
1I
0F
0E
0@
04
03
0(
0'
0D
1C
1E
02
11
13
0&
1%
1'
0E
03
0'
#490000
b100 #
b1010 $
b101 #
0;
1<
07
1*
1=
1D
0C
12
01
1&
0%
1F
14
1(
#495000
b10 $
b1 #
b1001 #
b11 $
b1000 #
0<
0A
17
1;
09
0*
0=
0B
1H
1E
0D
1C
13
02
11
1'
0&
1%
0F
04
0(
#500000
b111 $
b1111 $
b1100 #
b100 #
b101 #
1<
1A
07
1:
19
1*
1=
1B
0I
0H
0G
0E
1D
0C
0B
05
03
12
01
0)
0'
1&
0%
1F
1E
14
13
1(
1'
0D
02
0&
#505000
b111 #
b1011 $
b11 $
b1111 #
0:
09
1>
17
0*
1I
1H
1@
0F
1D
1B
04
12
0(
1&
0D
1C
02
11
0&
1%
1D
12
1&
#510000
b1 $
b0 $
b1011 #
b1001 #
b100 $
b1 #
0>
0A
07
0;
0?
1:
1*
0@
1J
0I
1F
0E
0D
1G
0B
1@
14
03
02
15
1(
0'
0&
1)
0F
04
0(
1D
0C
1E
12
01
13
1&
0%
1'
#515000
b1100 $
b1110 $
b101 #
b111 #
b1010 $
b1111 #
1>
1A
17
1?
0:
19
0*
1B
0J
1I
0H
1F
0E
0D
1C
14
03
02
11
1(
0'
0&
1%
0F
1E
04
13
0(
1'
#520000
b10 $
b1011 #
b1001 #
0>
0A
09
1*
0@
1H
1F
0E
0B
14
03
1(
0'
1E
1D
13
12
1'
1&
0D
02
0&
#525000
b0 $
b1 #
b101 #
b111 #
1>
1A
07
0?
0*
1@
1B
1J
0F
0E
1D
0C
04
03
12
01
0(
0'
1&
0%
1E
0D
1C
1F
13
02
11
14
1'
0&
1%
1(
#530000
b1 $
b101 $
b11 #
b1 #
0>
0A
1;
1:
1*
0I
0F
0E
0G
0B
04
03
05
0(
0'
0)
1E
13
1'
1D
0C
12
01
1&
0%
#535000
b1101 $
b1111 $
b1001 #
b1110 $
17
0;
1?
19
0*
0J
0H
0D
1C
1G
0@
02
11
15
0&
1%
1)
1F
1D
0C
14
12
01
1(
1&
0%
0E
03
0'
#540000
b1000 #
b1010 $
b1100 #
b1110 #
b1011 $
1;
0:
0<
1>
1A
1*
0=
1I
1@
0F
1E
0@
1B
04
13
0(
1'
1F
14
1(
0E
0D
1C
03
02
11
0'
0&
1%
#545000
b11 $
b110 #
b111 #
b111 $
1<
07
1:
09
0*
1=
0I
1H
0G
1D
0C
1@
0B
05
12
01
0)
1&
0%
0F
1E
0D
1C
1B
04
13
02
11
0(
1'
0&
1%
0E
1D
0C
03
12
01
0'
1&
0%
0D
1C
02
11
0&
1%
#550000
b101 $
b101 #
b100 $
b1100 $
b1101 #
b1000 $
0>
17
0;
0?
0:
19
1*
0@
1J
1I
0H
1F
1D
1G
1@
14
12
15
1(
1&
1)
0F
0D
04
02
0(
0&
1E
13
1'
#555000
b1001 #
b1010 $
b1011 #
b1011 $
b11 $
b11 #
1;
1?
09
1>
0A
07
0*
0J
1H
0G
1F
0E
1D
0C
05
14
03
12
01
0)
1(
0'
1&
0%
0F
0D
1C
04
02
11
0(
0&
1%
#560000
b10 #
b1 $
b0 #
b1001 $
b1000 #
0?
19
0<
0>
17
1*
1J
0H
0=
0@
1G
1F
1D
0B
15
14
12
1)
1(
1&
0D
1E
02
13
0&
1'
1D
0C
12
01
1&
0%
#565000
b1000 $
b1001 #
b1010 $
1<
0;
1?
0*
1=
0J
#570000
b1110 $
b1 #
b1111 $
07
1;
1:
1*
0I
0D
0G
02
05
0&
0)
0E
03
0'
#575000
b101 #
b111 #
b110 #
b1101 $
b1100 $
0;
0?
0<
1>
1A
0*
1J
1@
0F
1E
1B
04
13
0(
1'
1F
0E
14
03
1(
0'
1D
12
1&
#580000
b100 #
b101 #
b1110 $
b1111 $
1;
1?
1<
0>
1*
0J
0F
0@
04
0(
1F
0B
14
1(
1E
13
1'
0D
02
0&
#585000
b111 $
b11 $
b1101 #
b1 $
17
0?
0:
09
0*
1J
1I
1H
1D
1@
1B
12
1&
0F
0E
0D
1C
04
03
02
11
0(
0'
0&
1%
1E
1D
13
12
1'
1&
#590000
b0 $
b1000 $
b1100 $
b1110 $
0;
1?
1:
19
1*
0J
0I
0H
1G
0@
15
1)
1F
0E
0D
0B
14
03
02
1(
0'
0&
1E
13
1'
1D
0C
12
01
1&
0%
#595000
b1100 $
0?
0*
1J
1@
0F
1B
04
0(
0E
03
0'
0D
1C
02
11
0&
1%
#600000
b1111 #
b1110 #
0<
1>
1*
0G
1F
05
14
0)
1(
#605000
b1010 #
b1101 $
b1111 $
b1000 #
1;
1?
0>
0A
0*
0=
0J
0B
1G
0F
1E
0@
15
04
13
1)
0(
1'
1D
0C
12
01
1&
0%
0E
03
0'
#610000
b0 #
b111 $
b11 $
b1 #
b101 #
b1 $
b111 #
0?
0:
09
1<
1>
1A
07
1*
1J
1I
1H
1=
0G
1F
1E
0D
1@
1B
05
14
13
02
0)
1(
1'
0&
0E
1D
03
12
0'
1&
1E
0D
1C
13
02
11
1'
0&
1%
#615000
b1001 $
b1101 $
b110 #
b1111 $
0<
1?
1:
19
0*
0=
0J
0I
0H
1G
0@
15
1)
0E
1D
0C
0B
03
12
01
0'
1&
0%
1E
13
1'
0D
02
0&
#620000
b10 #
b0 #
b111 $
b11 $
b1 #
b1 $
0?
0:
09
1<
0>
0A
1*
1J
1I
1H
1=
0G
0F
0E
1@
05
04
03
0)
0(
0'
1E
1D
1B
13
12
1'
1&
0E
03
0'
0D
1C
02
11
0&
1%
#625000
b0 $
b1001 #
b1101 #
b1111 #
b1000 $
b1010 $
1>
1A
17
0;
1?
19
0*
0J
0H
1F
1E
1D
1G
14
13
12
15
1(
1'
1&
1)
0F
0D
04
02
0(
0&
#630000
b1110 #
b110 #
b10 #
b0 #
b1000 $
0?
0<
0>
0A
07
1*
1J
0@
0G
1F
0E
1D
0C
1@
0B
05
14
03
12
01
0)
1(
0'
1&
0%
0F
1E
1B
04
13
0(
1'
0E
0D
03
02
0'
0&
1D
12
1&
#635000
b1001 $
b1 #
b1001 #
b1011 #
1<
1>
17
1;
0*
1F
0D
1C
14
02
11
1(
0&
1%
#640000
b1101 $
b1111 #
b1110 #
b1100 #
0<
0>
1A
1:
1*
0=
0I
1G
0F
1E
0@
15
04
13
1)
0(
1'
1F
0E
0B
14
03
1(
0'
1E
13
1'
1D
0C
12
01
1&
0%
#645000
b101 $
b111 $
b1000 #
b1001 #
b1011 #
1<
1>
0A
1?
09
0*
1=
1@
0J
1H
0G
0F
0E
05
04
03
0)
0(
0'
1E
0D
1C
13
02
11
1'
0&
1%
#650000
b110 $
b11 #
b10 $
b1010 $
b1000 $
b111 #
b110 #
b100 #
0<
0>
1A
07
0;
0?
0:
19
1*
0@
1B
1J
1I
0H
1F
0E
1D
0C
1@
14
03
12
01
1(
0'
1&
0%
0F
04
0(
1E
13
1'
#655000
b1100 #
b1100 $
b1101 #
1:
1<
17
0*
0I
1G
0D
1C
15
02
11
1)
0&
1%
0E
03
0'
#660000
b1101 $
b101 $
b111 $
b1111 #
b111 #
b11 $
1>
07
1;
1?
0:
09
1*
0J
1I
1H
1F
1D
0C
0G
14
12
01
05
1(
1&
0%
0)
0F
1E
0D
1C
04
13
02
11
0(
1'
0&
1%
#665000
b11 #
b1011 $
b1001 $
b1101 $
0?
1:
19
0A
0*
1J
0I
0H
0E
0B
03
0'
1F
1E
1D
0C
14
13
12
01
1(
1'
1&
0%
0D
02
0&
#670000
b1100 $
b111 #
1A
0;
1*
1B
0E
1G
03
15
0'
1)
1D
12
1&
#675000
b110 #
b100 #
b1110 $
b1010 $
b0 #
1?
0:
0<
0>
0A
0*
0J
1I
0B
0G
0F
1E
0@
1B
05
04
13
0)
0(
1'
1F
0E
0D
0B
14
03
02
1(
0'
0&
1E
1D
13
12
1'
1&
0D
02
0&
#680000
b1011 $
1;
1*
0=
1G
15
1)
0F
04
0(
#685000
b1000 #
b1001 $
0?
17
0*
1J
1D
12
1&
1F
14
1(
#690000
b1001 #
b1101 $
b1101 #
1:
1<
1A
1*
0I
1=
1B
0G
0E
0B
1@
05
03
0)
0'
1E
0F
0D
1C
1B
13
04
02
11
1'
0(
0&
1%
1D
0C
0E
12
01
03
1&
0%
0'
0D
1C
02
11
0&
1%
#695000
b101 $
b101 #
b100 #
b1 $
b0 #
0<
0A
07
0:
09
0*
0=
0B
1I
1H
1G
1E
1D
0C
0@
1B
15
13
12
01
1)
1'
1&
0%
1F
0E
0B
14
03
1(
0'
1E
0D
1C
13
02
11
1'
0&
1%
1D
0C
12
01
1&
0%
#700000
b10 #
b0 $
b10 $
b1010 $
b1010 #
b1011 #
b1111 #
0;
1?
19
1<
1>
1A
17
1*
1=
0J
0H
1@
1B
0F
0E
0D
1C
04
03
02
11
0(
0'
0&
1%
1E
13
1'
#705000
b1101 #
b10 $
b1100 #
09
0<
0>
0*
1H
0@
0G
1F
05
14
0)
1(
1D
0E
12
03
1&
0'
#710000
b110 $
b100 $
b1000 #
b1100 $
b1001 #
1<
0A
0?
1:
19
1*
0B
1J
0I
0H
1G
1E
1@
15
13
1)
1'
0C
0F
0E
01
04
03
0%
0(
0'
1E
13
1'
#715000
b1 #
b11 #
b1110 $
1?
1>
07
0*
0J
1F
0D
14
02
1(
0&
0F
04
0(
#720000
b1111 $
b1011 $
b111 #
b11 $
b110 #
b100 #
0<
0>
1A
1;
0:
09
1*
0=
0@
1B
1I
1H
1F
0E
14
03
1(
0'
0F
1C
04
11
0(
1%
