TP4/simulation/qsim/mbr_bloco_arit_4b.msim.vcd
$comment
	File created using the following command:
		vcd file mbr_bloco_arit_4b.msim.vcd -direction
$end
$date
	Sun Nov 12 21:23:45 2023
$end
$version
	ModelSim Version 10.1d
$end
$timescale
	1ps
$end
$scope module mbr_bloco_arit_4b_vlg_vec_tst $end
$var reg 4 ! A [3:0] $end
$var reg 4 " B [3:0] $end
$var reg 1 # c0 $end
$var reg 1 $ c1 $end
$var wire 1 % c_out $end
$var wire 1 & S [3] $end
$var wire 1 ' S [2] $end
$var wire 1 ( S [1] $end
$var wire 1 ) S [0] $end
$var wire 1 * sampler $end
$scope module i1 $end
$var wire 1 + gnd $end
$var wire 1 , vcc $end
$var wire 1 - unknown $end
$var tri1 1 . devclrn $end
$var tri1 1 / devpor $end
$var tri1 1 0 devoe $end
$var wire 1 1 c_out~output_o $end
$var wire 1 2 S[3]~output_o $end
$var wire 1 3 S[2]~output_o $end
$var wire 1 4 S[1]~output_o $end
$var wire 1 5 S[0]~output_o $end
$var wire 1 6 c1~input_o $end
$var wire 1 7 A[3]~input_o $end
$var wire 1 8 inst|inst5~combout $end
$var wire 1 9 c0~input_o $end
$var wire 1 : B[3]~input_o $end
$var wire 1 ; A[1]~input_o $end
$var wire 1 < inst|inst3~combout $end
$var wire 1 = A[0]~input_o $end
$var wire 1 > B[0]~input_o $end
$var wire 1 ? inst0|inst|inst1|inst5~0_combout $end
$var wire 1 @ B[1]~input_o $end
$var wire 1 A inst0|inst2|inst1|inst5~0_combout $end
$var wire 1 B B[2]~input_o $end
$var wire 1 C A[2]~input_o $end
$var wire 1 D inst|inst4~combout $end
$var wire 1 E inst0|inst1|inst1|inst5~0_combout $end
$var wire 1 F inst0|inst3|inst1|inst5~0_combout $end
$var wire 1 G inst0|inst3|inst|1~combout $end
$var wire 1 H inst0|inst1|inst|1~combout $end
$var wire 1 I inst0|inst2|inst|1~combout $end
$var wire 1 J inst0|inst|inst|1~0_combout $end
$upscope $end
$upscope $end
$enddefinitions $end
#0
$dumpvars
b1110 !
b1110 "
0#
0$
0%
0)
1(
1'
1&
x*
0+
1,
x-
1.
1/
10
01
12
13
14
05
06
17
08
09
1:
1;
0<
0=
0>
0?
1@
0A
1B
1C
0D
0E
0F
1G
1H
1I
0J
$end
#50000
1$
16
0*
1D
1<
18
1E
1A
0H
0I
0G
1F
03
04
02
11
0'
0(
0&
1%
1G
1H
12
13
1&
1'
#100000
b110 !
b100 !
b101 !
b110 "
b10 "
b11 "
1#
0$
1>
0B
0:
1=
0;
07
19
06
1*
0<
08
0A
0D
1J
1I
0E
15
14
1)
1(
0I
0G
04
02
0(
0&
1G
0F
12
01
1&
0%
#150000
1$
16
0*
1D
1?
0J
1E
05
0)
0H
1I
03
14
0'
1(
0G
1F
02
11
0&
1%
#200000
b1 !
b11 !
b10 !
b111 "
b110 "
0#
0$
0>
1B
0=
1;
0C
09
06
1*
0?
0D
1A
0I
1G
0F
0A
04
12
01
0(
1&
0%
1I
0E
14
1(
1H
13
1'
0G
02
0&
#250000
1$
16
0*
1<
1A
0I
1E
04
0(
0H
03
0'
1G
12
1&
#300000
b1110 "
b110 !
b100 !
b101 !
1#
0$
1=
0;
1C
1:
19
06
1*
1?
0<
0E
0A
1I
1H
14
13
1(
1'
0G
0H
02
03
0&
0'
#350000
1$
16
0*
1D
1J
15
1)
1H
13
1'
#400000
b1100 "
b1101 "
b1 !
b11 !
b10 !
0#
0$
0=
1;
0C
1>
0@
09
06
1*
0?
0D
1E
0H
1G
0E
03
12
0'
1&
0I
1H
0G
1F
04
13
02
11
0(
1'
0&
1%
1G
0F
12
01
1&
0%
#450000
1$
16
0*
1<
1I
14
1(
#500000
b1001 "
b1011 "
b110 !
b100 !
b101 !
1#
0$
1=
0;
1C
1@
0B
19
06
1*
0<
0G
02
0&
0I
04
0(
#550000
1$
16
0*
1D
1?
0J
1E
05
0)
0H
1I
03
14
0'
1(
1G
12
1&
#600000
b1101 !
b11 "
b111 "
b1001 !
b1000 !
0#
0$
1B
0:
0=
0C
17
09
06
1*
0?
0D
1A
1J
0I
0A
15
04
1)
0(
1I
0E
14
1(
1H
13
1'
0G
02
0&
#650000
1$
16
0*
18
1G
12
1&
#700000
b110 "
b1010 !
b10 !
b1110 "
b1010 "
b110 !
b111 !
1#
0$
1=
1;
1C
07
0>
0B
1:
19
06
1*
1?
08
0J
0I
05
04
0)
0(
1I
0G
14
02
1(
0&
#750000
1$
16
0*
1D
1<
1J
1E
1A
15
1)
0H
0I
03
04
0'
0(
1G
1H
12
13
1&
1'
#800000
b1000 "
b0 "
0#
0$
0@
0:
09
06
1*
0?
0D
0<
0H
0J
0A
0E
03
05
0'
0)
1H
13
1'
0H
0G
03
02
0'
0&
#850000
1$
16
0*
1D
1<
1J
15
1)
1H
1I
13
14
1'
1(
#900000
b110 !
b10 "
1#
0$
1@
0=
19
06
1*
1?
1E
0D
0<
0J
0H
1G
0E
05
03
12
0)
0'
1&
0G
1F
1H
02
11
13
0&
1%
1'
1G
0F
12
01
1&
0%
#950000
1$
16
0*
1D
1<
1E
1A
0H
0I
03
04
0'
0(
0G
1F
1H
02
11
13
0&
1%
1'
