TP4/simulation/qsim/mbr_bloco_arit_4b.msim.vcd
$comment
	File created using the following command:
		vcd file mbr_bloco_arit_4b.msim.vcd -direction
$end
$date
	Wed Nov 29 21:53:23 2023
$end
$version
	ModelSim Version 10.1d
$end
$timescale
	1ps
$end
$scope module mbr_bloco_arit_4b_vlg_vec_tst $end
$var reg 4 ! A [3:0] $end
$var reg 4 " B [3:0] $end
$var reg 1 # c0 $end
$var reg 1 $ c1 $end
$var wire 1 % c_out $end
$var wire 1 & S [3] $end
$var wire 1 ' S [2] $end
$var wire 1 ( S [1] $end
$var wire 1 ) S [0] $end
$var wire 1 * sampler $end
$scope module i1 $end
$var wire 1 + gnd $end
$var wire 1 , vcc $end
$var wire 1 - unknown $end
$var tri1 1 . devclrn $end
$var tri1 1 / devpor $end
$var tri1 1 0 devoe $end
$var wire 1 1 c_out~output_o $end
$var wire 1 2 S[3]~output_o $end
$var wire 1 3 S[2]~output_o $end
$var wire 1 4 S[1]~output_o $end
$var wire 1 5 S[0]~output_o $end
$var wire 1 6 c1~input_o $end
$var wire 1 7 A[3]~input_o $end
$var wire 1 8 inst|inst5~combout $end
$var wire 1 9 c0~input_o $end
$var wire 1 : B[3]~input_o $end
$var wire 1 ; A[1]~input_o $end
$var wire 1 < inst|inst3~combout $end
$var wire 1 = A[0]~input_o $end
$var wire 1 > B[0]~input_o $end
$var wire 1 ? inst0|inst|inst1|inst5~0_combout $end
$var wire 1 @ B[1]~input_o $end
$var wire 1 A inst0|inst2|inst1|inst5~0_combout $end
$var wire 1 B B[2]~input_o $end
$var wire 1 C A[2]~input_o $end
$var wire 1 D inst|inst4~combout $end
$var wire 1 E inst0|inst1|inst1|inst5~0_combout $end
$var wire 1 F inst0|inst3|inst1|inst5~0_combout $end
$var wire 1 G inst0|inst3|inst|1~combout $end
$var wire 1 H inst0|inst1|inst|1~combout $end
$var wire 1 I inst0|inst2|inst|1~combout $end
$var wire 1 J inst0|inst|inst|1~0_combout $end
$upscope $end
$upscope $end
$enddefinitions $end
#0
$dumpvars
b11 !
b111 "
0#
1$
0%
0)
1(
0'
1&
x*
0+
1,
x-
1.
1/
10
01
12
03
14
05
16
07
08
09
0:
1;
1<
1=
1>
1?
1@
1A
1B
0C
0D
1E
0F
1G
0H
1I
0J
$end
#10000
b1011 !
b1010 !
b11 "
b10 "
0>
0B
0=
17
0*
0?
0E
18
1H
13
1'
0I
04
0(
#20000
b1110 !
b1100 !
b1010 "
b1000 "
b100 !
0@
1:
0;
1C
07
1*
0A
0<
1D
08
1I
0G
1F
14
02
11
1(
0&
1%
0I
1G
0F
04
12
01
0(
1&
0%
#30000
b1100 "
b1101 "
b0 !
b101 "
0C
1>
1B
0:
0*
0D
1E
1J
0H
0G
0E
15
03
02
1)
0'
0&
1H
1G
13
12
1'
1&
0G
02
0&
#40000
b1000 !
17
1*
18
1G
12
1&
#50000
b111 "
1@
0*
1I
14
1(
#60000
b1010 !
b11 "
b10 "
b10 !
0>
0B
1;
07
1*
1<
08
0J
0H
1A
05
03
0)
0'
0I
0G
04
02
0(
0&
1H
13
1'
#70000
b11 !
b0 "
b100 "
b101 "
b1011 !
1>
0@
1B
1=
17
0*
1?
0A
1E
18
1I
0H
1A
0E
14
03
1(
0'
0I
1H
1F
1E
04
13
11
0(
1'
1%
0H
1G
0F
03
12
01
0'
1&
0%
0G
1F
02
11
0&
1%
#80000
b1101 "
b11 !
07
1:
1*
08
1G
12
1&
0G
02
0&
#90000
b1 !
b1100 "
b1001 !
0>
0;
17
0*
0?
0<
18
1J
0A
15
1)
1G
0E
12
1&
1H
13
1'
0G
02
0&
#100000
b1011 !
1;
1*
1<
1I
14
1(
#110000
b1010 !
b1110 "
b1010 "
b1000 !
1@
0B
0=
0;
0*
1A
0<
0I
0H
0J
0A
04
03
05
0(
0'
0)
1H
1I
13
14
1'
1(
0H
03
0'
#120000
b1100 !
b10 "
b0 "
b100 "
b1110 !
0@
1B
0:
1;
1C
1*
1<
1D
0I
1H
1G
0F
1E
04
13
12
01
0(
1'
1&
0%
1I
0H
14
03
1(
0'
0G
1F
02
11
0&
1%
#130000
b101 "
b110 !
b111 !
b1 "
b101 !
1=
0;
07
1>
0B
0*
1?
0<
08
0E
1H
13
1'
0F
01
0%
#140000
b11 "
b111 "
b111 !
1;
1@
1B
1*
1<
1A
1E
0I
0H
04
03
0(
0'
1I
1H
1G
14
13
12
1(
1'
1&
#150000
b110 "
b1111 !
b1110 !
b100 "
b0 "
0=
17
0>
0@
0B
0*
0?
18
0I
0H
0A
04
03
0(
0'
1I
0G
1F
0E
14
02
11
1(
0&
1%
1H
13
1'
1G
0F
12
01
1&
0%
#160000
b1000 "
b1100 !
b100 !
b101 !
b1010 "
b1110 "
1=
0;
07
1@
1B
1:
1*
0<
08
1A
1E
1J
0I
0H
0G
1F
0A
15
04
03
02
11
1)
0(
0'
0&
1%
1I
1H
14
13
1(
1'
0H
03
0'
#170000
b1010 "
0B
0*
0E
1H
13
1'
1G
0F
12
01
1&
0%
#180000
b1011 "
b111 !
b1111 !
1;
17
1>
1*
1<
18
1?
0J
1A
05
0)
0G
1F
1E
02
11
0&
1%
0H
03
0'
1G
12
1&
#190000
b1011 !
b11 "
b111 "
b1001 !
1B
0:
0;
0C
0*
0<
0D
1H
0G
13
02
1'
0&
0I
0H
04
03
0(
0'
#200000
b101 "
b1 !
b1101 "
b1001 "
07
0@
0B
1:
1*
08
0A
0E
1I
1H
1G
14
13
12
1(
1'
1&
0F
0H
01
03
0%
0'
#210000
b1000 "
b101 !
b111 !
1;
1C
0>
0*
1<
1D
0?
1J
15
1)
1H
13
1'
#220000
b110 !
b1110 !
b1010 !
b1000 !
0=
0;
0C
17
1*
0<
0D
18
0J
05
0)
0I
0H
0G
1F
04
03
02
11
0(
0'
0&
1%
#230000
b1100 "
b1001 !
b1101 !
b1111 !
1=
1;
1C
1B
0*
1<
1D
1J
1H
1E
15
13
1)
1'
1I
0H
14
03
1(
0'
1G
12
1&
#240000
b100 "
b101 "
b1101 !
0;
1>
0:
1*
0<
1?
0J
0G
05
02
0)
0&
#250000
b111 "
b101 !
b11 "
b100 !
b0 !
b1011 "
b10 !
0=
1;
0C
07
1@
0B
1:
0*
0?
1<
0D
08
1A
0E
1J
0I
1H
1G
15
04
13
12
1)
0(
1'
1&
0F
01
0%
#260000
b1010 "
b1110 "
b11 !
b111 !
b110 "
b101 !
1=
0;
1C
0>
1B
0:
1*
0<
1D
1E
0H
0G
0A
03
02
0'
0&
1I
1H
1G
14
13
12
1(
1'
1&
0H
03
0'
#270000
b100 "
b101 "
b1 "
b100 !
b1001 "
b110 !
0=
1;
1>
0@
0B
1:
0*
1<
0E
0I
1H
0G
1F
04
13
02
11
0(
1'
0&
1%
1I
1G
0F
14
12
01
1(
1&
0%
#280000
b1110 !
b1010 !
b1011 "
b1111 "
b111 "
b1000 !
1@
1B
0:
0;
0C
17
1*
1A
1E
0<
0D
18
0I
0H
0G
0A
04
03
02
0(
0'
0&
1F
1I
0E
11
14
1%
1(
1H
13
1'
1G
0F
12
01
1&
0%
#290000
b1100 !
b101 "
0@
1C
0*
1D
0I
1E
04
0(
0H
03
0'
0G
1F
02
11
0&
1%
#300000
b100 "
b1101 !
b101 !
b0 "
b111 !
b11 !
b10 "
1=
1;
0C
07
0>
1@
0B
1*
1<
0D
08
0E
1I
1H
1A
14
13
1(
1'
0I
0H
0F
04
03
01
0(
0'
0%
1H
13
1'
#310000
b1010 "
b10 !
b1010 !
0=
17
1:
0*
18
0J
1G
05
12
0)
1&
0G
1F
02
11
0&
1%
#320000
b1000 !
b1100 !
b10 "
b1101 !
b101 !
0:
1=
0;
1C
07
1*
0<
1D
08
1G
0F
1J
0A
1E
12
01
15
1&
0%
1)
1I
0H
0G
0E
14
03
02
1(
0'
0&
1H
1G
13
12
1'
1&
0G
02
0&
#330000
b110 "
b111 !
b1110 "
b1111 !
1;
17
1B
1:
0*
1<
18
1E
0H
1G
1A
03
12
0'
1&
0I
1F
04
11
0(
1%
1H
13
1'
#340000
b1011 !
b1001 !
b110 "
b1 !
0:
0;
0C
07
1*
0<
0D
08
0G
0A
02
0&
1I
0H
1G
0F
0E
14
03
12
01
1(
0'
1&
0%
1H
13
1'
0G
02
0&
#350000
b111 "
b0 !
b10 !
b1010 !
0=
1;
17
1>
0*
1<
18
1A
0I
1G
1E
04
12
0(
1&
0H
03
0'
0G
1F
02
11
0&
1%
#360000
b101 "
b1101 "
b1100 "
b1000 !
0;
0>
0@
1:
1*
0<
0A
0J
1I
1G
0E
05
14
12
0)
1(
1&
0I
1H
04
13
0(
1'
0G
02
0&
#370000
b0 !
b100 "
0:
07
0*
08
1G
0F
12
01
1&
0%
0G
02
0&
#380000
b100 !
b110 "
b111 "
b110 !
1>
1@
1;
1C
1*
1<
1D
1J
1I
1A
1E
15
14
1)
1(
0I
0H
04
03
0(
0'
1H
1G
13
12
1'
1&
#390000
b1110 !
b1010 !
b101 "
b100 "
0>
0@
0C
17
0*
0A
0D
18
0J
1I
0E
05
14
0)
1(
0G
1F
02
11
0&
1%
1G
0F
12
01
1&
0%
#400000
b0 "
b1000 "
b1110 !
b1010 "
1C
1@
0B
1:
1*
1D
1A
0I
0H
0G
1F
1E
04
03
02
11
0(
0'
0&
1%
1G
12
1&
#410000
b1111 !
b1101 !
b101 !
b1011 "
b1111 "
b111 "
b1 !
1>
1B
0:
1=
0;
0C
07
0*
1?
0<
0D
08
1H
0G
13
02
1'
0&
0H
1G
0F
03
12
01
0'
1&
0%
#420000
b101 "
b11 !
b100 "
1;
0>
0@
1*
1<
0?
0A
1J
1I
0E
15
14
1)
1(
1H
13
1'
0G
02
0&
#430000
b0 "
b10 "
1@
0B
0*
1A
0I
0H
04
03
0(
0'
1H
13
1'
#440000
b10 !
b1010 "
b110 !
b100 !
b1000 "
0@
1:
0=
0;
1C
1*
0A
0<
1D
1I
1G
0J
14
12
05
1(
1&
0)
0I
04
0(
#450000
b1100 !
b0 "
b1000 !
b1010 !
b10 "
1@
0:
1;
0C
17
0*
1<
0D
18
1I
0G
1A
14
02
1(
0&
0I
0H
1G
04
03
12
0(
0'
1&
1H
13
1'
#460000
b110 "
b1011 !
b11 !
b1 !
1=
0;
07
1B
1*
0<
08
1E
1J
0H
0A
15
03
1)
0'
1I
0E
14
1(
1H
13
1'
0G
02
0&
#470000
b111 "
b1111 "
b101 !
b1101 "
b1001 "
b100 !
b1100 !
0=
1C
17
1>
0@
0B
1:
0*
1D
18
0I
0H
1G
04
03
12
0(
0'
1&
1H
0G
1F
13
02
11
1'
0&
1%
#480000
b1000 "
b0 "
b1000 !
b10 "
0C
0>
1@
0:
1*
0D
0J
1I
1G
0F
05
14
12
01
0)
1(
1&
0%
0H
03
0'
#490000
b1010 !
b110 "
b1110 "
b1100 "
0@
1B
1:
1;
0*
1<
0I
1H
0G
1F
04
13
02
11
0(
1'
0&
1%
1I
14
1(
#500000
b1011 !
b11 !
b1101 "
b111 !
b101 "
1>
0:
1=
1C
07
1*
1?
1D
08
1G
0F
1A
1E
12
01
1&
0%
0I
0H
0G
04
03
02
0(
0'
0&
1H
1G
13
12
1'
1&
#510000
b101 !
b111 "
b1111 "
1@
1:
0;
0*
0<
1I
0G
1F
14
02
11
1(
0&
1%
0I
04
0(
#520000
b1011 "
b100 !
b1100 !
b1110 !
b1001 "
0=
1;
17
0@
0B
1*
0?
1<
18
0A
1J
1I
0H
0E
15
14
03
1)
1(
0'
1G
1H
12
13
1&
1'
0G
02
0&
#530000
b1000 "
b1100 "
b110 !
b100 !
b1110 "
0;
07
0>
1@
1B
0*
0<
08
1A
1E
0J
0I
0H
0A
05
04
03
0)
0(
0'
1I
1H
14
13
1(
1'
0H
03
0'
#540000
b101 !
b1111 "
b1011 "
b111 !
b1001 "
1>
0@
0B
1=
1;
1*
1?
0E
1<
0I
1H
1A
04
13
0(
1'
1G
0F
1E
12
01
1&
0%
0H
03
0'
0G
1F
02
11
0&
1%
#550000
b11 !
b10 !
0=
0C
0*
0?
0D
1J
0A
0E
15
1)
1I
1H
14
13
1(
1'
0H
1G
0F
03
12
01
0'
1&
0%
#560000
b1 "
b1010 !
b1000 !
b11 "
b1100 !
0;
1C
17
1@
0:
1*
0<
1D
18
1A
0I
0G
0A
1E
04
02
0(
0&
1I
1G
0E
14
12
1(
1&
1H
0G
1F
13
02
11
1'
0&
1%
1G
0F
12
01
1&
0%
#570000
b10 "
b110 "
b1110 "
b1100 "
0>
0@
1B
1:
0*
1E
0J
0I
0H
0G
1F
05
04
03
02
11
0)
0(
0'
0&
1%
1G
12
1&
#580000
b1101 !
b101 !
b111 !
b1000 "
b0 "
0B
0:
1=
1;
07
1*
0E
1<
08
1H
0G
1J
13
02
15
1'
0&
1)
0F
1I
01
14
0%
1(
#590000
b1111 !
b1000 "
1:
17
0*
18
1G
12
1&
0G
1F
02
11
0&
1%
#600000
b1001 "
b1011 "
b1110 !
b1100 !
b1111 "
b100 !
b111 "
0=
0;
07
1>
1@
1B
0:
1*
0<
08
1A
1E
0I
0H
1G
0F
0A
04
03
12
01
0(
0'
1&
0%
1I
1H
14
13
1(
1'
0H
03
0'
#610000
b0 !
b110 "
b100 "
b0 "
b1000 !
0>
0@
0B
0C
17
0*
0E
0D
18
0J
0I
1H
05
04
13
0)
0(
1'
0H
03
0'
#620000
b100 "
1B
1*
1H
13
1'
#630000
b1001 !
b1011 !
b1100 "
b1111 !
b1000 "
0B
1:
1=
1;
1C
0*
1<
1D
0H
0G
1F
1J
03
02
11
15
0'
0&
1%
1)
1I
1H
14
13
1(
1'
#640000
b111 !
b110 !
b100 !
0=
0;
07
1*
0<
08
0J
05
0)
0I
1G
0F
04
12
01
0(
1&
0%
#650000
b1010 "
b1110 "
b1100 !
17
1@
1B
0*
18
1E
1I
0H
14
03
1(
0'
1F
11
1%
#660000
b110 "
b1000 !
b1001 !
b1011 !
b11 !
1=
1;
0C
07
0:
1*
1<
0D
08
1J
0G
1A
0E
15
02
1)
0&
0I
1H
1G
0F
1E
04
13
12
01
0(
1'
1&
0%
0H
0G
03
02
0'
0&
1G
12
1&
#670000
b111 "
b101 "
b10 !
b0 !
b1000 !
0=
0;
17
1>
0@
0*
0<
18
0A
1I
0E
14
1(
0I
0G
1F
1H
04
02
11
13
0(
0&
1%
1'
1G
0F
12
01
1&
0%
#680000
b1100 !
b100 "
b110 "
b1101 !
b101 !
0>
1@
1=
1C
07
1*
1D
08
1I
1E
14
1(
0H
0G
03
02
0'
0&
1G
12
1&
#690000
b111 !
b11 !
b111 "
b101 "
b1011 !
1>
0@
1;
0C
17
0*
1?
1<
0D
18
0J
0I
1A
0E
05
04
0)
0(
1H
0G
1F
1E
13
02
11
1'
0&
1%
0H
1G
0F
03
12
01
0'
1&
0%
0G
1F
02
11
0&
1%
#700000
b1010 !
b100 "
b10 !
0>
0=
07
1*
0?
08
0A
1I
1G
0F
0E
14
12
01
1(
1&
0%
1H
13
1'
0G
02
0&
#710000
b1100 "
b110 !
b111 !
b1101 "
b1111 !
1=
1C
17
1>
1:
0*
1?
1D
18
1G
1A
1E
12
1&
0I
0H
0G
1F
04
03
02
11
0(
0'
0&
1%
1H
1G
13
12
1'
1&
#720000
b1001 "
b1101 !
b1001 !
b1000 !
b1000 "
0=
0;
0C
0>
0B
1*
0?
0<
0D
0H
0A
0E
03
0'
1H
13
1'
0H
0G
03
02
0'
0&
#730000
b0 "
b0 !
b100 "
b1 !
b101 "
1=
07
1>
1B
0:
0*
1?
08
1H
1G
0F
13
12
01
1'
1&
0%
1I
0G
14
02
1(
0&
#740000
b101 !
b1101 "
b1001 "
b1000 "
0>
0B
1:
1C
1*
0?
1D
1J
0H
1G
15
03
12
1)
0'
1&
0I
1H
04
13
0(
1'
#750000
b111 !
b11 !
b0 "
b1 "
1>
0:
1;
0C
0*
1?
1<
0D
0J
0G
1A
05
02
0)
0&
0H
03
0'
1H
13
1'
#760000
b11 "
b1011 !
b1010 !
b111 "
0=
17
1@
1B
1*
0?
18
1E
1J
1I
0H
15
14
03
1)
1(
0'
0I
1F
04
11
0(
1%
#770000
b1111 "
b1011 "
0B
1:
0*
0E
1H
1G
13
12
1'
1&
0G
02
0&
#780000
b1110 !
b1010 "
b1000 "
b0 "
0>
0@
0:
1C
1*
0A
1D
0J
1I
1G
0F
05
14
12
01
0)
1(
1&
0%
#790000
b1100 !
b1101 !
b100 "
b1001 !
b110 "
b1110 "
1@
1B
1:
1=
0;
0C
0*
1A
1E
0<
0D
0I
0H
0G
1F
1J
0A
04
03
02
11
15
0(
0'
0&
1%
1)
1G
1I
0E
12
14
1&
1(
1H
13
1'
0G
02
0&
#800000
b1 !
07
1*
08
1G
0F
12
01
1&
0%
#810000
b1111 "
b0 !
b1011 "
b100 !
b1001 "
b1 "
0=
1C
1>
0@
0B
0:
0*
1D
0I
0H
0G
04
03
02
0(
0'
0&
1H
13
1'
#820000
b110 !
b1110 !
b0 "
b100 "
b1100 "
0>
1B
1:
1;
17
1*
1E
1<
18
0J
0H
1G
05
03
12
0)
0'
1&
1F
1I
11
14
1%
1(
#830000
b1110 "
b110 !
07
1@
0*
08
1A
0I
04
0(
0G
1H
02
13
0&
1'
#840000
b111 !
b101 !
b1111 "
b1011 "
b1001 "
1>
0@
0B
1=
0;
1*
1?
0A
0<
1I
0H
0E
14
03
1(
0'
1H
13
1'
1G
0F
12
01
1&
0%
#850000
b1 !
b1 "
b1001 !
b1000 !
b1010 !
b101 "
b111 "
1@
1B
0:
0=
1;
0C
17
0*
1A
1E
0?
1<
0D
18
0I
0H
0G
1J
04
03
02
15
0(
0'
0&
1)
1F
11
1%
#860000
b1110 !
b1111 "
b110 !
b111 !
b1011 "
0B
1:
1=
1C
07
1*
0E
1?
1D
08
1H
1G
0J
1E
13
12
05
1'
1&
0)
0F
1I
0H
01
14
03
0%
1(
0'
0G
1F
02
11
0&
1%
#870000
b101 !
b1001 "
b1 !
b1101 "
0@
1B
0;
0C
0*
0<
0D
0I
1H
0A
04
13
0(
1'
1I
0H
0E
14
03
1(
0'
1H
13
1'
1G
0F
12
01
1&
0%
#880000
b101 "
b0 !
b10 !
b111 "
0=
1;
1@
0:
1*
0?
1<
1A
1J
0I
0G
1E
15
04
02
1)
0(
0&
0H
03
0'
1G
12
1&
#890000
b110 "
b1010 !
b1110 !
b100 "
1C
17
0>
0@
0*
1D
18
0A
0J
1I
05
14
0)
1(
0G
1F
02
11
0&
1%
#900000
b1100 "
b1101 "
b110 !
07
1>
1:
1*
08
1J
1G
15
12
1)
1&
0G
02
0&
#910000
b10 !
b1111 "
b111 "
b110 "
0>
1@
0:
0C
0*
1A
0D
0J
0I
1G
0F
05
04
12
01
0)
0(
1&
0%
#920000
b0 !
b100 !
b1110 "
1:
0;
1C
1*
0<
1D
0G
1F
0A
02
11
0&
1%
1I
1H
14
13
1(
1'
0H
03
0'
#930000
b101 !
b1101 !
b1111 "
b1111 !
b1011 !
b111 "
1>
0:
1=
1;
0C
17
0*
1?
1<
0D
18
1G
0F
1A
0E
12
01
1&
0%
1H
0G
1F
1E
13
02
11
1'
0&
1%
0H
1G
0F
03
12
01
0'
1&
0%
0G
1F
02
11
0&
1%
#940000
b11 "
b11 !
b10 "
b111 !
b1010 "
1C
07
0>
0B
1:
1*
1D
08
0?
0E
1J
1H
1G
1E
15
13
12
1)
1'
1&
0H
0F
0I
03
01
04
0'
0%
0(
0G
1F
02
11
0&
1%
#950000
b1000 "
b110 !
b100 !
b1100 "
b0 !
0=
0;
0C
0@
1B
0*
0<
0D
0A
0J
1I
1H
0E
05
14
13
0)
1(
1'
0I
04
0(
1G
0F
12
01
1&
0%
#960000
b1101 "
1>
1*
1J
15
1)
#970000
b1000 !
b101 "
b1001 !
b1011 !
b1 "
0B
0:
1=
1;
17
0*
1?
1<
18
0H
0G
0J
1A
03
02
05
0'
0&
0)
1G
12
1&
1H
13
1'
#980000
b11 "
b1011 "
1@
1:
1*
1I
0G
1F
14
02
11
1(
0&
1%
#990000
b1111 !
b1010 "
b1101 !
b1110 "
b1100 "
0>
0@
1B
0;
1C
0*
0?
1E
0<
1D
1J
0I
0H
0A
15
04
03
1)
0(
0'
1G
1H
12
13
1&
1'
0H
03
0'
