TP5/simulation/qsim/mbr_div_freq_1b.msim.vcd
$comment
	File created using the following command:
		vcd file mbr_div_freq_1b.msim.vcd -direction
$end
$date
	Fri Nov 17 13:34:58 2023
$end
$version
	ModelSim Version 10.1d
$end
$timescale
	1ps
$end
$scope module mbr_div_freq_1b_vlg_vec_tst $end
$var reg 1 ! CLK $end
$var reg 1 " RST $end
$var wire 1 # D $end
$var wire 1 $ Q $end
$var wire 1 % sampler $end
$scope module i1 $end
$var wire 1 & gnd $end
$var wire 1 ' vcc $end
$var wire 1 ( unknown $end
$var tri1 1 ) devclrn $end
$var tri1 1 * devpor $end
$var tri1 1 + devoe $end
$var wire 1 , Q~output_o $end
$var wire 1 - D~output_o $end
$var wire 1 . CLK~input_o $end
$var wire 1 / inst~0_combout $end
$var wire 1 0 RST~input_o $end
$var wire 1 1 inst~q $end
$upscope $end
$upscope $end
$enddefinitions $end
#0
$dumpvars
0!
1"
1#
0$
x%
0&
1'
x(
1)
1*
1+
0,
1-
0.
1/
10
01
$end
#10000
0"
00
0%
#20000
1!
1.
1%
11
0/
1,
0-
1$
0#
#40000
0!
0.
0%
#60000
1!
1.
1%
01
1/
0,
1-
0$
1#
#80000
0!
0.
0%
#100000
1!
1.
1%
11
0/
1,
0-
1$
0#
#120000
0!
0.
0%
#140000
1!
1.
1%
01
1/
0,
1-
0$
1#
#160000
0!
0.
0%
#180000
1!
1.
1%
11
0/
1,
0-
1$
0#
#200000
0!
0.
0%
#220000
1!
1.
1%
01
1/
0,
1-
0$
1#
#240000
0!
0.
0%
#260000
1!
1.
1%
11
0/
1,
0-
1$
0#
#280000
0!
0.
0%
#300000
1!
1.
1%
01
1/
0,
1-
0$
1#
#320000
0!
0.
0%
#340000
1!
1.
1%
11
0/
1,
0-
1$
0#
#360000
0!
0.
0%
#380000
1!
1.
1%
01
1/
0,
1-
0$
1#
#400000
0!
0.
0%
#420000
1!
1.
1%
11
0/
1,
0-
1$
0#
#440000
0!
0.
0%
#460000
1!
1.
1%
01
1/
0,
1-
0$
1#
#480000
0!
0.
0%
#500000
1!
1.
1%
11
0/
1,
0-
1$
0#
#520000
0!
0.
0%
#540000
1!
1.
1%
01
1/
0,
1-
0$
1#
#560000
0!
0.
0%
#580000
1!
1.
1%
11
0/
1,
0-
1$
0#
#600000
0!
0.
0%
#620000
1!
1.
1%
01
1/
0,
1-
0$
1#
#640000
0!
0.
0%
#660000
1!
1.
1%
11
0/
1,
0-
1$
0#
#680000
0!
0.
0%
#700000
1!
1.
1%
01
1/
0,
1-
0$
1#
#720000
0!
0.
0%
#740000
1!
1.
1%
11
0/
1,
0-
1$
0#
#760000
0!
0.
0%
#780000
1!
1.
1%
01
1/
0,
1-
0$
1#
#800000
0!
0.
0%
#820000
1!
1.
1%
11
0/
1,
0-
1$
0#
#840000
0!
0.
0%
#860000
1!
1.
1%
01
1/
0,
1-
0$
1#
#880000
0!
0.
0%
#900000
1!
1.
1%
11
0/
1,
0-
1$
0#
#920000
0!
0.
0%
#940000
1!
1.
1%
01
1/
0,
1-
0$
1#
#960000
0!
0.
0%
#980000
1!
1.
1%
11
0/
1,
0-
1$
0#
