TP5/simulation/qsim/mbr_reg_1b.msim.vcd
$comment
	File created using the following command:
		vcd file mbr_reg_1b.msim.vcd -direction
$end
$date
	Sun Nov 19 22:41:39 2023
$end
$version
	ModelSim Version 10.1d
$end
$timescale
	1ps
$end
$scope module mbr_reg_1b_vlg_vec_tst $end
$var reg 1 ! CLK $end
$var reg 1 " D $end
$var reg 1 # EN $end
$var reg 1 $ RST $end
$var wire 1 % Q $end
$var wire 1 & sampler $end
$scope module i1 $end
$var wire 1 ' gnd $end
$var wire 1 ( vcc $end
$var wire 1 ) unknown $end
$var tri1 1 * devclrn $end
$var tri1 1 + devpor $end
$var tri1 1 , devoe $end
$var wire 1 - Q~output_o $end
$var wire 1 . CLK~input_o $end
$var wire 1 / EN~input_o $end
$var wire 1 0 D~input_o $end
$var wire 1 1 inst|inst~0_combout $end
$var wire 1 2 RST~input_o $end
$var wire 1 3 inst|inst~q $end
$upscope $end
$upscope $end
$enddefinitions $end
#0
$dumpvars
0!
1"
0#
1$
0%
x&
0'
1(
x)
1*
1+
1,
0-
0.
0/
10
01
12
03
$end
#10000
0$
02
0&
#17000
1#
1/
1&
11
#20000
1!
1.
0&
13
1-
1%
#34000
0#
0/
1&
#40000
0!
0.
0&
#60000
1!
1.
1&
#68000
0"
00
0&
#80000
0!
0.
1&
#85000
1#
1"
1/
10
0&
#100000
1!
1.
1&
#102000
0"
00
0&
01
#119000
0#
0/
1&
11
#120000
0!
0.
0&
#136000
1"
1#
10
1/
1&
#140000
1!
1.
0&
#153000
0"
0#
00
0/
1&
#160000
0!
0.
0&
#170000
1#
1/
1&
01
#180000
1!
1.
0&
03
0-
0%
#200000
0!
0.
1&
#204000
0#
0/
0&
#220000
1!
1.
1&
#240000
0!
0.
0&
#255000
1"
1#
10
1/
1&
11
#260000
1!
1.
0&
13
1-
1%
#272000
0"
00
1&
01
#280000
0!
0.
0&
#289000
1"
10
1&
11
#300000
1!
1.
0&
#306000
0"
00
1&
01
#320000
0!
0.
0&
#323000
1"
10
1&
11
#340000
1!
0"
1.
00
0&
01
#360000
0!
0.
1&
#374000
0#
1"
0/
10
0&
11
#380000
1!
1.
1&
#391000
1#
1/
0&
#400000
0!
0.
1&
#420000
1!
1.
0&
#425000
0"
0#
00
0/
1&
#440000
0!
0.
0&
#442000
1"
10
1&
#459000
0"
00
0&
#460000
1!
1.
1&
#476000
1#
1/
0&
01
#480000
0!
0.
1&
#493000
1"
0#
10
0/
0&
11
#500000
1!
1.
1&
#520000
0!
0.
0&
#527000
0"
1#
00
1/
1&
01
#540000
1!
1.
0&
03
0-
0%
#544000
1"
10
1&
11
#560000
0!
0.
0&
#561000
0"
00
1&
01
#578000
0#
1"
0/
10
0&
#580000
1!
1.
1&
#595000
1#
0"
1/
00
0&
#600000
0!
0.
1&
#612000
0#
0/
0&
#620000
1!
1.
1&
#629000
1"
10
0&
#640000
0!
0.
1&
#660000
1!
1.
0&
#663000
1#
1/
1&
11
#680000
0"
0!
0#
00
0.
0/
0&
01
#700000
1!
1.
1&
#714000
1#
1/
0&
#720000
0!
0.
1&
#731000
1"
0#
10
0/
0&
#740000
1!
1.
1&
#748000
1#
1/
0&
11
#760000
0!
0.
1&
#765000
0"
0#
00
0/
0&
01
#780000
1!
1.
1&
#782000
1"
10
0&
#799000
1#
1/
1&
11
#800000
0!
0.
0&
#816000
0"
00
1&
01
#820000
1!
1.
0&
#833000
1"
10
1&
11
#840000
0!
0.
0&
#850000
0"
00
1&
01
#860000
1!
1.
0&
#867000
1"
10
1&
11
#880000
0!
0.
0&
#884000
0"
00
1&
01
#900000
1!
1.
0&
#901000
1"
10
1&
11
#918000
0#
0/
0&
01
#920000
0!
0.
1&
#935000
0"
1#
00
1/
0&
#940000
1!
1.
1&
#952000
0#
0/
0&
#960000
0!
0.
1&
#969000
1"
10
0&
#980000
1!
1.
1&
#986000
1#
0"
1/
00
0&
