TP5/simulation/qsim/mbr_div_freq_5b.msim.vcd
$comment
	File created using the following command:
		vcd file mbr_div_freq_5b.msim.vcd -direction
$end
$date
	Sat Nov 18 20:46:59 2023
$end
$version
	ModelSim Version 10.1d
$end
$timescale
	1ps
$end
$scope module mbr_div_freq_5b_vlg_vec_tst $end
$var reg 1 ! CK $end
$var reg 1 " RST $end
$var wire 1 # Q [0] $end
$var wire 1 $ Q [1] $end
$var wire 1 % Q [2] $end
$var wire 1 & Q [3] $end
$var wire 1 ' Q [4] $end
$var wire 1 ( sampler $end
$scope module i1 $end
$var wire 1 ) gnd $end
$var wire 1 * vcc $end
$var wire 1 + unknown $end
$var tri1 1 , devclrn $end
$var tri1 1 - devpor $end
$var tri1 1 . devoe $end
$var wire 1 / Q[0]~output_o $end
$var wire 1 0 Q[1]~output_o $end
$var wire 1 1 Q[2]~output_o $end
$var wire 1 2 Q[3]~output_o $end
$var wire 1 3 Q[4]~output_o $end
$var wire 1 4 CK~input_o $end
$var wire 1 5 inst|inst1|inst~0_combout $end
$var wire 1 6 inst|inst1|inst~feeder_combout $end
$var wire 1 7 RST~input_o $end
$var wire 1 8 RST~inputclkctrl_outclk $end
$var wire 1 9 inst|inst1|inst~q $end
$var wire 1 : inst1|inst1|inst~0_combout $end
$var wire 1 ; inst1|inst1|inst~q $end
$var wire 1 < inst2|inst1|inst~0_combout $end
$var wire 1 = inst2|inst1|inst~feeder_combout $end
$var wire 1 > inst2|inst1|inst~q $end
$var wire 1 ? inst3|inst1|inst~0_combout $end
$var wire 1 @ inst3|inst1|inst~q $end
$var wire 1 A inst4|inst1|inst~0_combout $end
$var wire 1 B inst4|inst1|inst~q $end
$upscope $end
$upscope $end
$enddefinitions $end
#0
$dumpvars
0!
1"
0'
0&
0%
0$
0#
x(
0)
1*
x+
1,
1-
1.
0/
00
01
02
03
04
15
16
17
18
09
1:
0;
1<
1=
0>
1?
0@
1A
0B
$end
#10000
1!
0"
14
07
08
0(
#20000
0!
04
1(
#30000
1!
14
0(
19
05
1/
1#
06
1;
0:
10
1$
1>
0<
11
1%
0=
1@
0?
12
1&
1B
0A
13
1'
#40000
0!
04
1(
#50000
1!
14
0(
09
15
0/
0#
16
#60000
0!
04
1(
#70000
1!
14
0(
19
05
1/
1#
06
0;
1:
00
0$
#80000
0!
04
1(
#90000
1!
14
0(
09
15
0/
0#
16
#100000
0!
04
1(
#110000
1!
14
0(
19
05
1/
1#
06
1;
0:
10
1$
0>
1<
01
0%
1=
#120000
0!
04
1(
#130000
1!
14
0(
09
15
0/
0#
16
#140000
0!
04
1(
#150000
1!
14
0(
19
05
1/
1#
06
0;
1:
00
0$
#160000
0!
04
1(
#170000
1!
14
0(
09
15
0/
0#
16
#180000
0!
04
1(
#190000
1!
14
0(
19
05
1/
1#
06
1;
0:
10
1$
1>
0<
11
1%
0=
0@
1?
02
0&
#200000
0!
04
1(
#210000
1!
14
0(
09
15
0/
0#
16
#220000
0!
04
1(
#230000
1!
14
0(
19
05
1/
1#
06
0;
1:
00
0$
#240000
0!
04
1(
#250000
1!
14
0(
09
15
0/
0#
16
#260000
0!
04
1(
#270000
1!
14
0(
19
05
1/
1#
06
1;
0:
10
1$
0>
1<
01
0%
1=
#280000
0!
04
1(
#290000
1!
14
0(
09
15
0/
0#
16
#300000
0!
04
1(
#310000
1!
14
0(
19
05
1/
1#
06
0;
1:
00
0$
#320000
0!
04
1(
#330000
1!
14
0(
09
15
0/
0#
16
#340000
0!
04
1(
#350000
1!
14
0(
19
05
1/
1#
06
1;
0:
10
1$
1>
0<
11
1%
0=
1@
0?
12
1&
0B
1A
03
0'
#360000
0!
04
1(
#370000
1!
14
0(
09
15
0/
0#
16
#380000
0!
04
1(
#390000
1!
14
0(
19
05
1/
1#
06
0;
1:
00
0$
#400000
0!
04
1(
#410000
1!
14
0(
09
15
0/
0#
16
#420000
0!
04
1(
#430000
1!
14
0(
19
05
1/
1#
06
1;
0:
10
1$
0>
1<
01
0%
1=
#440000
0!
04
1(
#450000
1!
14
0(
09
15
0/
0#
16
#460000
0!
04
1(
#470000
1!
14
0(
19
05
1/
1#
06
0;
1:
00
0$
#480000
0!
04
1(
#490000
1!
14
0(
09
15
0/
0#
16
#500000
0!
04
1(
#510000
1!
14
0(
19
05
1/
1#
06
1;
0:
10
1$
1>
0<
11
1%
0=
0@
1?
02
0&
#520000
0!
04
1(
#530000
1!
14
0(
09
15
0/
0#
16
#540000
0!
04
1(
#550000
1!
14
0(
19
05
1/
1#
06
0;
1:
00
0$
#560000
0!
04
1(
#570000
1!
14
0(
09
15
0/
0#
16
#580000
0!
04
1(
#590000
1!
14
0(
19
05
1/
1#
06
1;
0:
10
1$
0>
1<
01
0%
1=
#600000
0!
04
1(
#610000
1!
14
0(
09
15
0/
0#
16
#620000
0!
04
1(
#630000
1!
14
0(
19
05
1/
1#
06
0;
1:
00
0$
#640000
0!
04
1(
#650000
1!
14
0(
09
15
0/
0#
16
#660000
0!
04
1(
#670000
1!
14
0(
19
05
1/
1#
06
1;
0:
10
1$
1>
0<
11
1%
0=
1@
0?
12
1&
1B
0A
13
1'
#680000
0!
04
1(
#690000
1!
14
0(
09
15
0/
0#
16
#700000
0!
04
1(
#710000
1!
14
0(
19
05
1/
1#
06
0;
1:
00
0$
#720000
0!
04
1(
#730000
1!
14
0(
09
15
0/
0#
16
#740000
0!
04
1(
#750000
1!
14
0(
19
05
1/
1#
06
1;
0:
10
1$
0>
1<
01
0%
1=
#760000
0!
04
1(
#770000
1!
14
0(
09
15
0/
0#
16
#780000
0!
04
1(
#790000
1!
14
0(
19
05
1/
1#
06
0;
1:
00
0$
#800000
0!
04
1(
#810000
1!
14
0(
09
15
0/
0#
16
#820000
0!
04
1(
#830000
1!
14
0(
19
05
1/
1#
06
1;
0:
10
1$
1>
0<
11
1%
0=
0@
1?
02
0&
#840000
0!
04
1(
#850000
1!
14
0(
09
15
0/
0#
16
#860000
0!
04
1(
#870000
1!
14
0(
19
05
1/
1#
06
0;
1:
00
0$
#880000
0!
04
1(
#890000
1!
14
0(
09
15
0/
0#
16
#900000
0!
04
1(
#910000
1!
14
0(
19
05
1/
1#
06
1;
0:
10
1$
0>
1<
01
0%
1=
#920000
0!
04
1(
#930000
1!
14
0(
09
15
0/
0#
16
#940000
0!
04
1(
#950000
1!
14
0(
19
05
1/
1#
06
0;
1:
00
0$
#960000
0!
04
1(
#970000
1!
14
0(
09
15
0/
0#
16
#980000
0!
04
1(
#990000
1!
14
0(
19
05
1/
1#
06
1;
0:
10
1$
1>
0<
11
1%
0=
1@
0?
12
1&
0B
1A
03
0'
