TP5/simulation/qsim/mbr_reg_8b.msim.vcd
$comment
	File created using the following command:
		vcd file mbr_reg_8b.msim.vcd -direction
$end
$date
	Sun Nov 19 22:16:52 2023
$end
$version
	ModelSim Version 10.1d
$end
$timescale
	1ps
$end
$scope module mbr_reg_8b_vlg_vec_tst $end
$var reg 1 ! CLK $end
$var reg 8 " D [7:0] $end
$var reg 1 # EN $end
$var reg 1 $ RST $end
$var wire 1 % Q [7] $end
$var wire 1 & Q [6] $end
$var wire 1 ' Q [5] $end
$var wire 1 ( Q [4] $end
$var wire 1 ) Q [3] $end
$var wire 1 * Q [2] $end
$var wire 1 + Q [1] $end
$var wire 1 , Q [0] $end
$var wire 1 - sampler $end
$scope module i1 $end
$var wire 1 . gnd $end
$var wire 1 / vcc $end
$var wire 1 0 unknown $end
$var tri1 1 1 devclrn $end
$var tri1 1 2 devpor $end
$var tri1 1 3 devoe $end
$var wire 1 4 Q[7]~output_o $end
$var wire 1 5 Q[6]~output_o $end
$var wire 1 6 Q[5]~output_o $end
$var wire 1 7 Q[4]~output_o $end
$var wire 1 8 Q[3]~output_o $end
$var wire 1 9 Q[2]~output_o $end
$var wire 1 : Q[1]~output_o $end
$var wire 1 ; Q[0]~output_o $end
$var wire 1 < CLK~input_o $end
$var wire 1 = CLK~inputclkctrl_outclk $end
$var wire 1 > D[7]~input_o $end
$var wire 1 ? inst11|inst|inst~feeder_combout $end
$var wire 1 @ RST~input_o $end
$var wire 1 A RST~inputclkctrl_outclk $end
$var wire 1 B EN~input_o $end
$var wire 1 C inst11|inst|inst~q $end
$var wire 1 D D[6]~input_o $end
$var wire 1 E inst10|inst|inst~feeder_combout $end
$var wire 1 F inst10|inst|inst~q $end
$var wire 1 G D[5]~input_o $end
$var wire 1 H inst9|inst|inst~q $end
$var wire 1 I D[4]~input_o $end
$var wire 1 J inst8|inst|inst~q $end
$var wire 1 K D[3]~input_o $end
$var wire 1 L inst7|inst|inst~feeder_combout $end
$var wire 1 M inst7|inst|inst~q $end
$var wire 1 N D[2]~input_o $end
$var wire 1 O inst6|inst|inst~feeder_combout $end
$var wire 1 P inst6|inst|inst~q $end
$var wire 1 Q D[1]~input_o $end
$var wire 1 R inst5|inst|inst~feeder_combout $end
$var wire 1 S inst5|inst|inst~q $end
$var wire 1 T D[0]~input_o $end
$var wire 1 U inst|inst|inst~q $end
$upscope $end
$upscope $end
$enddefinitions $end
#0
$dumpvars
0!
b1000111 "
1#
1$
0,
0+
0*
0)
0(
0'
0&
0%
x-
0.
1/
x0
11
12
13
04
05
06
07
08
09
0:
0;
0<
0=
0>
0?
1@
1A
1B
0C
1D
1E
0F
0G
0H
0I
0J
0K
0L
0M
1N
1O
0P
1Q
1R
0S
1T
0U
$end
#3190
0#
0B
0-
#10000
0$
0@
0A
1-
#16990
1#
1B
0-
#17000
b11000111 "
b11100111 "
b11100011 "
b11100001 "
b11100000 "
0T
0Q
0N
1G
1>
1-
0R
0O
1?
#20000
1!
1<
1=
0-
1H
1F
1C
16
15
14
1'
1&
1%
#20850
0#
0B
1-
#23850
1#
1B
0-
#27516
0#
0B
1-
#30516
1#
1B
0-
#34000
b11110000 "
b11110010 "
b11110011 "
1T
1Q
1I
1-
1R
#34182
0#
0B
0-
#37182
1#
1B
1-
#40000
0!
0#
0<
0B
0=
0-
#41383
1#
1B
1-
#45383
0#
0B
0-
#51000
b10110011 "
b10111011 "
b10011011 "
b10011001 "
0Q
1K
0G
0D
1-
0R
1L
0E
#51383
1#
1B
0-
#55383
0#
0B
1-
#60000
1!
1<
1=
0-
#63817
1#
1B
1-
#66416
0#
0B
0-
#68000
b11001 "
b11000 "
b1011000 "
b1010000 "
0T
0K
1D
0>
1-
0L
1E
0?
#70483
1#
1B
0-
#73082
0#
0B
1-
#77149
1#
1B
0-
#79748
0#
0B
1-
#80000
0!
1#
0<
1B
0=
0-
#83367
0#
0B
1-
#85000
b1010100 "
b1000100 "
b11000100 "
1N
0I
1>
0-
1O
1?
#88667
1#
1B
1-
#93367
0#
0B
0-
#98667
1#
1B
1-
#100000
1!
1<
1=
0-
1P
0H
19
06
1*
0'
#102000
b11100100 "
b10100100 "
1G
0D
1-
0E
#102288
0#
0B
0-
#106221
1#
1B
1-
#108954
0#
0B
0-
#112887
1#
1B
1-
#115620
0#
0B
0-
#119000
b10100110 "
b10100111 "
b10100011 "
b10110011 "
b110011 "
b10011 "
b1010011 "
1T
1Q
0N
1I
0G
1D
0>
1-
1R
0O
1E
0?
#119553
1#
1B
0-
#120000
0!
0<
0=
1-
#120416
0#
0B
0-
#122766
1#
1B
1-
#125416
0#
0B
0-
#127766
1#
1B
1-
#130000
0#
0B
0-
#131693
1#
1B
1-
#133892
0#
0B
0-
#136000
b1010001 "
b1010000 "
b1010100 "
b11010100 "
b10010100 "
0T
0Q
1N
0D
1>
1-
0R
1O
0E
1?
#138359
1#
1B
0-
#140000
1!
1<
1=
1-
1J
0F
17
05
1(
0&
#140558
0#
0B
0-
#145025
1#
1B
1-
#147224
0#
0B
0-
#150000
1#
1B
1-
#150346
0#
0B
0-
#153000
b10011100 "
b10111100 "
b10111110 "
b10111111 "
b111111 "
b1111111 "
1T
1Q
1K
1G
1D
0>
1-
1R
1L
1E
0?
#153196
1#
1B
0-
#155346
0#
0B
1-
#158196
1#
1B
0-
#160000
0!
0#
0<
0B
0=
1-
#166951
1#
1B
0-
#170000
b1101111 "
b1101101 "
0Q
0I
1-
0R
#177351
0#
0B
0-
#180000
1!
1#
1<
1B
1=
1-
1U
1M
0J
1H
1F
0C
1;
18
07
16
15
04
1,
1)
0(
1'
1&
0%
#180755
0#
0B
0-
#182222
1#
1B
1-
#184088
0#
0B
0-
#185555
1#
1B
1-
#187000
b1101001 "
b1001001 "
b1001000 "
b1011000 "
b1011010 "
0T
1Q
0N
1I
0G
0-
1R
0O
#187421
0#
0B
1-
#188888
1#
1B
0-
#190000
0#
0B
1-
#190321
1#
1B
0-
#194421
0#
0B
1-
#200000
0!
0<
0=
0-
#200321
1#
1B
1-
#204000
b11011010 "
b10011010 "
b10011110 "
1N
0D
1>
0-
1O
0E
1?
#204421
0#
0B
1-
#214787
1#
1B
0-
#219187
0#
0B
1-
#220000
1!
1<
1=
0-
#221000
b10010110 "
b10010111 "
b10010101 "
b11010101 "
1T
0Q
0K
1D
1-
0R
0L
1E
#224787
1#
1B
0-
#229187
0#
0B
1-
#230000
1#
1B
0-
#231036
0#
0B
1-
#233136
1#
1B
0-
#234369
0#
0B
1-
#236469
1#
1B
0-
#237702
0#
0B
1-
#238000
b11110101 "
b11110001 "
b11110011 "
b10110011 "
1Q
0N
1G
0D
0-
1R
0O
0E
#239802
1#
1B
1-
#240000
0!
0#
0<
0B
0=
0-
#240230
1#
1B
1-
#243430
0#
0B
0-
#252067
1#
1B
1-
#253817
0#
0B
0-
#255000
b10010011 "
0G
1-
#257067
1#
1B
0-
#258817
0#
0B
1-
#260000
1!
1#
1<
1B
1=
0-
1S
0P
0M
1J
0H
0F
1C
1:
09
08
17
06
05
14
1+
0*
0)
1(
0'
0&
1%
#262048
0#
0B
1-
#266648
1#
1B
0-
#268714
0#
0B
1-
#272000
b10011 "
b10010 "
b10000 "
b1010000 "
0T
0Q
1D
0>
0-
0R
1E
0?
#273314
1#
1B
1-
#275380
0#
0B
0-
#279980
1#
1B
1-
#280000
0!
0#
0<
0B
0=
0-
#281333
1#
1B
1-
#285133
0#
0B
0-
#289000
b1110000 "
b11110000 "
b10110000 "
1G
0D
1>
1-
0E
1?
#299318
1#
1B
0-
#300000
1!
1<
1=
1-
0U
0S
1H
0;
0:
16
0,
0+
1'
#306000
b10100000 "
b10101000 "
b10101010 "
b10001010 "
1Q
1K
0I
0G
0-
1R
1L
#306718
0#
0B
1-
#310232
1#
1B
0-
#313332
0#
0B
1-
#320000
0!
1#
0<
1B
0=
0-
#322607
0#
0B
1-
#323000
b10001011 "
b1011 "
b11 "
b1 "
b100001 "
1T
0Q
0K
1G
0>
0-
0R
0L
0?
#328207
1#
1B
1-
#332607
0#
0B
0-
#338207
1#
1B
1-
#340000
b100101 "
b1100101 "
b1110101 "
1!
b1110100 "
b1111100 "
b1011100 "
0#
0T
1N
1K
1I
0G
1D
1<
0B
1=
0-
1O
1L
1E
#341323
1#
1B
1-
#343223
0#
0B
0-
#346323
1#
1B
1-
#348223
0#
0B
0-
#350898
1#
1B
1-
#352297
0#
0B
0-
#354231
1#
1B
1-
#355630
0#
0B
0-
#357000
b1011110 "
b11110 "
b11111 "
b10111 "
1T
1Q
0K
0D
1-
1R
0L
0E
#357564
1#
1B
0-
#358963
0#
0B
1-
#360000
0!
1#
0<
1B
0=
0-
#366196
0#
0B
1-
#374000
b10010111 "
b10000111 "
b10100111 "
b10100101 "
b10100100 "
b10101100 "
0T
0Q
1K
0I
1G
1>
0-
0R
1L
1?
#378396
1#
1B
1-
#380000
1!
0#
1<
0B
1=
0-
#382572
1#
1B
1-
#385971
0#
0B
0-
#389238
1#
1B
1-
#391000
b10101000 "
b11101000 "
b1101000 "
b1111000 "
b1111010 "
b1110010 "
1Q
0N
0K
1I
1D
0>
0-
1R
0O
0L
1E
0?
#392637
0#
0B
1-
#395904
1#
1B
0-
#399303
0#
0B
1-
#400000
0!
0<
0=
0-
#400500
1#
1B
1-
#401666
0#
0B
0-
#403833
1#
1B
1-
#404999
0#
0B
0-
#407166
1#
1B
1-
#408000
b11110010 "
b11110000 "
b11111000 "
0Q
1K
1>
0-
0R
1L
1?
#408332
0#
0B
1-
#410000
1#
1B
0-
#410751
0#
0B
1-
#412218
1#
1B
0-
#414084
0#
0B
1-
#415551
1#
1B
0-
#417417
0#
0B
1-
#418884
1#
1B
0-
#420000
1!
1<
1=
1-
1M
1F
18
15
1)
1&
#420917
0#
0B
0-
#422784
1#
1B
1-
#424250
0#
0B
0-
#425000
b11111001 "
b11111101 "
b10111101 "
b111101 "
b111111 "
1T
1Q
1N
0D
0>
1-
1R
1O
0E
0?
#426117
1#
1B
0-
#427583
0#
0B
1-
#429450
1#
1B
0-
#433569
0#
0B
1-
#440000
0!
0<
0=
0-
#442000
b111011 "
b10111011 "
b10111001 "
0Q
0N
1>
1-
0R
0O
1?
#446569
1#
1B
0-
#450000
0#
0B
1-
#450111
1#
1B
0-
#451210
0#
0B
1-
#453444
1#
1B
0-
#454543
0#
0B
1-
#456777
1#
1B
0-
#457876
0#
0B
1-
#459000
b10110001 "
b10110101 "
b110101 "
b110111 "
1Q
1N
0K
0>
0-
1R
1O
0L
0?
#460000
1!
1<
1=
1-
#465422
1#
1B
0-
#472022
0#
0B
1-
#476000
b1110111 "
b1110011 "
b11110011 "
0N
1D
1>
0-
0O
1E
1?
#480000
0!
1#
0<
1B
0=
1-
#482837
0#
0B
0-
#488637
1#
1B
1-
#492837
0#
0B
0-
#493000
b11010011 "
b11000011 "
b11000010 "
b11000000 "
0T
0Q
0I
0G
1-
0R
#498637
1#
1B
0-
#500000
1!
0#
1<
0B
1=
1-
#503268
1#
1B
0-
#508168
0#
0B
1-
#510000
b1000000 "
b1100000 "
b1110000 "
1I
1G
0>
0-
0?
#513268
1#
1B
1-
#518168
0#
0B
0-
#520000
0!
0<
0=
1-
#523502
1#
1B
0-
#525835
0#
0B
1-
#527000
b110000 "
b110100 "
b110101 "
b110111 "
b10110111 "
b10100111 "
1T
1Q
1N
0I
0D
1>
0-
1R
1O
0E
1?
#530168
1#
1B
1-
#532501
0#
0B
0-
#536834
1#
1B
1-
#539167
0#
0B
0-
#540000
1!
1<
1=
1-
#541449
1#
1B
0-
#544000
b10101111 "
b10001111 "
b10001011 "
b10001010 "
b10001000 "
b1000 "
b11000 "
0T
0Q
0N
1K
1I
0G
0>
1-
0R
0O
1L
0?
#547049
0#
0B
0-
#550000
1#
1B
1-
#550232
0#
0B
0-
#553082
1#
1B
1-
#555232
0#
0B
0-
#558082
1#
1B
1-
#560000
0!
0#
0<
0B
0=
0-
#561000
b1011000 "
b1010000 "
b1010001 "
b11010001 "
b11000001 "
1T
0K
0I
1D
1>
1-
0L
1E
1?
#564355
1#
1B
0-
#573155
0#
0B
1-
#578000
b11100001 "
b11100101 "
b10100101 "
b10101101 "
b10101100 "
b10111100 "
0T
1N
1K
1I
1G
0D
0-
1O
1L
0E
#580000
1!
1<
1=
1-
#582807
1#
1B
0-
#588207
0#
0B
1-
#592268
1#
1B
0-
#593768
0#
0B
1-
#595000
b111100 "
b11100 "
b11000 "
b1011000 "
b1011001 "
1T
0N
0G
1D
0>
0-
0O
1E
0?
#597268
1#
1B
1-
#598768
0#
0B
0-
#600000
0!
1#
0<
1B
0=
1-
#600868
0#
0B
0-
#612000
b1011011 "
b1001011 "
1Q
0I
1-
1R
#613468
1#
1B
0-
#620000
1!
1<
1=
1-
1U
1S
0J
0H
0C
1;
1:
07
06
04
1,
1+
0(
0'
0%
#620316
0#
0B
0-
#622150
1#
1B
1-
#623649
0#
0B
0-
#625483
1#
1B
1-
#626982
0#
0B
0-
#628816
1#
1B
1-
#629000
b11001011 "
b11011011 "
1I
1>
0-
1?
#630210
0#
0B
1-
#635510
1#
1B
0-
#640000
0!
0<
0=
1-
#640210
0#
0B
0-
#645510
1#
1B
1-
#646000
b11111011 "
b11111111 "
b10111111 "
b10111110 "
0T
1N
1G
0D
0-
1O
0E
#650000
0#
0B
1-
#655646
1#
1B
0-
#660000
1!
1<
1=
1-
0U
1P
1J
1H
0F
1C
0;
19
17
16
05
14
0,
1*
1(
1'
0&
1%
#662646
0#
0B
0-
#663000
b111110 "
b111010 "
b1111010 "
0N
1D
0>
1-
0O
1E
0?
#670527
1#
1B
0-
#672477
0#
0B
1-
#675527
1#
1B
0-
#677477
0#
0B
1-
#680000
b1111000 "
b1011000 "
0!
b11011000 "
b11011100 "
b10011100 "
0Q
1N
0G
0D
1>
0<
0=
0-
0R
1O
0E
1?
#680446
1#
1B
1-
#681945
0#
0B
0-
#683779
1#
1B
1-
#685278
0#
0B
0-
#687112
1#
1B
1-
#688611
0#
0B
0-
#690000
1#
1B
1-
#692241
0#
0B
0-
#697000
b10001100 "
b10001101 "
b10001111 "
b1111 "
b1011 "
b1001011 "
1T
1Q
0N
0I
1D
0>
1-
1R
0O
1E
0?
#697741
1#
1B
0-
#700000
1!
1<
1=
1-
1U
0P
0J
0H
1F
0C
1;
09
07
06
15
04
1,
0*
0(
0'
1&
0%
#702241
0#
0B
0-
#707741
1#
1B
1-
#710443
0#
0B
0-
#712410
1#
1B
1-
#713776
0#
0B
0-
#714000
b1101011 "
b1101010 "
b1101110 "
0T
1N
1G
1-
1O
#715743
1#
1B
0-
#717109
0#
0B
1-
#719076
1#
1B
0-
#720000
0!
0<
0=
1-
#721633
0#
0B
0-
#724033
1#
1B
1-
#726633
0#
0B
0-
#729033
1#
1B
1-
#730000
0#
0B
0-
#731000
b1100110 "
b1110110 "
b1110100 "
b110100 "
b110101 "
b110001 "
1T
0Q
0N
0K
1I
0D
1-
0R
0O
0L
0E
#733824
1#
1B
0-
#736357
0#
0B
1-
#740000
1!
1<
1=
0-
#740490
1#
1B
1-
#743023
0#
0B
0-
#747156
1#
1B
1-
#748000
b111001 "
b101001 "
b1101001 "
b1101000 "
0T
1K
0I
1D
0-
1L
1E
#749689
0#
0B
1-
#750344
1#
1B
0-
#752677
0#
0B
1-
#757010
1#
1B
0-
#759343
0#
0B
1-
#760000
0!
0<
0=
0-
#763676
1#
1B
1-
#765000
b11101000 "
b11001000 "
b11001010 "
b11000010 "
b11000011 "
1T
1Q
0K
0G
1>
0-
1R
0L
1?
#766009
0#
0B
1-
#770000
1#
1B
0-
#770741
0#
0B
1-
#772908
1#
1B
0-
#774074
0#
0B
1-
#776241
1#
1B
0-
#777407
0#
0B
1-
#779574
1#
1B
0-
#780000
1!
1<
1=
1-
0M
1C
08
14
0)
1%
#780837
0#
0B
0-
#782000
b1000011 "
b1000001 "
b1000000 "
0T
0Q
0>
1-
0R
0?
#793037
1#
1B
0-
#799000
b1010000 "
b1011000 "
b11011000 "
b11011010 "
b11011011 "
1T
1Q
1K
1I
1>
1-
1R
1L
1?
#800000
0!
0<
0=
0-
#801139
0#
0B
1-
#804439
1#
1B
0-
#806139
0#
0B
1-
#809439
1#
1B
0-
#810000
0#
0B
1-
#814255
1#
1B
0-
#816000
b10011011 "
b10111011 "
b10101011 "
b10100011 "
b10100001 "
0Q
0K
0I
1G
0D
1-
0R
0L
0E
#818855
0#
0B
0-
#820000
1!
1#
1<
1B
1=
1-
0S
1H
0F
0:
16
05
0+
1'
0&
#822196
0#
0B
0-
#826063
1#
1B
1-
#828862
0#
0B
0-
#832729
1#
1B
1-
#833000
b10100101 "
b100101 "
b100100 "
b1100100 "
b1000100 "
b1010100 "
b1011100 "
0T
1N
1K
1I
0G
1D
0>
0-
1O
1L
1E
0?
#835528
0#
0B
1-
#839395
1#
1B
0-
#840000
0!
0#
0<
0B
0=
1-
#840759
1#
1B
0-
#843492
0#
0B
1-
#847425
1#
1B
0-
#850000
b11011100 "
b10011100 "
b10001100 "
0I
0D
1>
1-
0E
1?
#850158
0#
0B
0-
#854091
1#
1B
1-
#856824
0#
0B
0-
#860000
1!
1<
1=
1-
#860897
1#
1B
0-
#867000
b10000100 "
b100 "
b10100 "
0K
1I
0>
1-
0L
0?
#870297
0#
0B
0-
#880000
0!
1#
0<
1B
0=
1-
#881466
0#
0B
0-
#884000
b10000 "
b110000 "
b1110000 "
b1111000 "
b1101000 "
0N
1K
0I
1G
1D
1-
0O
1L
1E
#884666
1#
1B
0-
#888132
0#
0B
1-
#891332
1#
1B
0-
#894798
0#
0B
1-
#897998
1#
1B
0-
#900000
1!
1<
1=
1-
0U
1M
1F
0C
0;
18
15
04
0,
1)
1&
0%
#900128
0#
0B
0-
#901000
b1101100 "
b101100 "
b100100 "
b110100 "
1N
0K
1I
0D
1-
1O
0L
0E
#901995
1#
1B
0-
#903461
0#
0B
1-
#905328
1#
1B
0-
#906794
0#
0B
1-
#908661
1#
1B
0-
#910000
0#
0B
1-
#912710
1#
1B
0-
#917710
0#
0B
1-
#918000
b10110100 "
b10010100 "
b10010000 "
b11010000 "
b11000000 "
0N
0I
0G
1D
1>
0-
0O
1E
1?
#920000
0!
0<
0=
1-
#922710
1#
1B
0-
#927710
0#
0B
1-
#930000
1#
1B
0-
#933090
0#
0B
1-
#935000
b11000001 "
b1000001 "
b1000101 "
b101 "
b10101 "
1T
1N
1I
0D
0>
0-
1O
0E
0?
#939690
1#
1B
1-
#940000
1!
0#
1<
0B
1=
0-
#942273
1#
1B
1-
#947273
0#
0B
0-
#951940
1#
1B
1-
#952000
b10100 "
b1010100 "
0T
1D
0-
1E
#953139
0#
0B
1-
#955273
1#
1B
0-
#956472
0#
0B
1-
#958606
1#
1B
0-
#959805
0#
0B
1-
#960000
0!
1#
0<
1B
0=
0-
#960678
0#
0B
1-
#967478
1#
1B
0-
#969000
b1010110 "
b1011110 "
b1011010 "
b1001010 "
b1001011 "
b1011 "
1T
1Q
0N
1K
0I
0D
1-
1R
0O
1L
0E
#970678
0#
0B
0-
#977478
1#
1B
1-
#980000
1!
1<
1=
0-
1U
1S
0H
0F
1;
1:
06
05
1,
1+
0'
0&
#980619
0#
0B
1-
#982619
1#
1B
0-
#985619
0#
0B
1-
#986000
b101011 "
b101001 "
b100001 "
b110001 "
0Q
0K
1I
1G
0-
0R
0L
#987619
1#
1B
1-
#990000
0#
0B
0-
#991991
1#
1B
1-
#996791
0#
0B
0-
