prova/simulation/qsim/mbr_prova.msim.vcd
$comment
	File created using the following command:
		vcd file mbr_prova.msim.vcd -direction
$end
$date
	Sun Dec 03 18:12:12 2023
$end
$version
	ModelSim Version 10.1d
$end
$timescale
	1ps
$end
$scope module mbr_prova_vlg_vec_tst $end
$var reg 3 ! c [2:0] $end
$var reg 4 " x [3:0] $end
$var reg 4 # y [3:0] $end
$var wire 1 $ cout $end
$var wire 1 % s [3] $end
$var wire 1 & s [2] $end
$var wire 1 ' s [1] $end
$var wire 1 ( s [0] $end
$var wire 1 ) sampler $end
$scope module i1 $end
$var wire 1 * gnd $end
$var wire 1 + vcc $end
$var wire 1 , unknown $end
$var tri1 1 - devclrn $end
$var tri1 1 . devpor $end
$var tri1 1 / devoe $end
$var wire 1 0 cout~output_o $end
$var wire 1 1 s[3]~output_o $end
$var wire 1 2 s[2]~output_o $end
$var wire 1 3 s[1]~output_o $end
$var wire 1 4 s[0]~output_o $end
$var wire 1 5 x[3]~input_o $end
$var wire 1 6 c[0]~input_o $end
$var wire 1 7 c[2]~input_o $end
$var wire 1 8 y[3]~input_o $end
$var wire 1 9 inst13|inst3|inst1|inst5~0_combout $end
$var wire 1 : x[0]~input_o $end
$var wire 1 ; y[0]~input_o $end
$var wire 1 < inst|inst3|inst1|inst5~0_combout $end
$var wire 1 = y[1]~input_o $end
$var wire 1 > inst11|inst5~0_combout $end
$var wire 1 ? x[1]~input_o $end
$var wire 1 @ inst11|inst3|inst1|inst5~0_combout $end
$var wire 1 A x[2]~input_o $end
$var wire 1 B y[2]~input_o $end
$var wire 1 C inst12|inst5~0_combout $end
$var wire 1 D inst12|inst3|inst1|inst5~0_combout $end
$var wire 1 E inst13|inst3|inst1|inst5~1_combout $end
$var wire 1 F c[1]~input_o $end
$var wire 1 G inst13|inst|inst2|inst3~0_combout $end
$var wire 1 H inst13|inst|inst2|inst3~1_combout $end
$var wire 1 I inst13|inst|inst2|inst3~2_combout $end
$var wire 1 J inst13|inst|inst2|inst3~3_combout $end
$var wire 1 K inst12|inst3|inst|1~0_combout $end
$var wire 1 L inst|inst|inst2|inst3~1_combout $end
$var wire 1 M inst|inst|inst2|inst3~0_combout $end
$var wire 1 N inst12|inst|inst|inst3|inst3~0_combout $end
$var wire 1 O inst12|inst|inst2|inst3~0_combout $end
$var wire 1 P inst12|inst|inst2|inst3~1_combout $end
$var wire 1 Q inst12|inst|inst2|inst3~2_combout $end
$var wire 1 R inst11|inst3|inst|1~0_combout $end
$var wire 1 S inst11|inst|inst|inst3|inst3~0_combout $end
$var wire 1 T inst11|inst|inst2|inst3~0_combout $end
$var wire 1 U inst11|inst|inst2|inst3~1_combout $end
$var wire 1 V inst11|inst|inst2|inst3~2_combout $end
$var wire 1 W inst|inst3|inst|1~combout $end
$var wire 1 X inst|inst|inst|inst3|inst3~0_combout $end
$var wire 1 Y inst|inst|inst2|inst3~2_combout $end
$var wire 1 Z inst|inst|inst2|inst3~3_combout $end
$var wire 1 [ inst|inst|inst2|inst3~4_combout $end
$upscope $end
$upscope $end
$enddefinitions $end
#0
$dumpvars
b110 !
b0 "
b1100 #
0$
0(
0'
1&
1%
x)
0*
1+
x,
1-
1.
1/
00
11
12
03
04
05
06
17
18
19
0:
0;
0<
0=
0>
0?
0@
0A
1B
1C
0D
0E
1F
1G
1H
1I
1J
0K
0L
0M
0N
1O
1P
1Q
1R
0S
0T
0U
0V
1W
0X
0Y
0Z
0[
$end
#10000
b1101 #
1;
0)
1Y
0W
1Z
1[
14
1(
#20000
b1000 "
b1010 "
b1111 #
b1110 #
0;
1=
1?
15
1)
0Y
1W
1T
1S
1>
1E
0Z
1U
1@
10
1$
1D
0[
1V
04
13
0(
1'
#30000
b1110 "
b1111 "
b111 "
b1111 #
1;
1:
1A
05
0)
1Y
1X
1<
1N
1K
1Z
1[
14
1(
#40000
b101 "
b1101 #
b1 "
b1100 #
0;
0=
0?
0A
1)
0Y
0X
0W
0<
0T
0S
0>
0N
0K
0Z
0@
0U
0D
0[
0V
04
03
0(
0'
0E
00
0$
#50000
b1001 "
b1110 #
b1101 "
1=
1A
15
0)
1T
0R
1>
1N
1K
1D
1E
1U
10
1$
1V
13
1'
#60000
b1010 #
b1100 "
b1110 "
b1011 #
0:
1?
1;
0B
1)
1S
1R
1@
1Y
0O
0N
0K
0C
1Z
0P
1[
0Q
14
02
1(
0&
#70000
b11 #
b110 "
b10 "
b111 #
b110 #
0A
05
0;
1B
08
0)
0D
0Y
1W
1O
1C
0G
09
0Z
1P
1D
0I
0H
0E
00
0$
0[
1Q
0J
04
12
01
0(
1&
0%
#80000
b0 "
b1110 #
b100 "
b1010 #
b1011 #
1;
0B
18
0?
1A
1)
1Y
0W
0O
0C
1G
19
0S
0R
0@
1Z
0P
0D
1I
1H
1E
10
1$
1[
0Q
0E
1J
14
02
00
11
1(
0&
0$
1%
#90000
b101 "
b1101 "
b1111 "
b1111 #
b1110 #
0;
1B
1:
1?
15
0)
0Y
1O
1N
1K
1C
1S
1R
1@
1E
0Z
1P
1D
10
1$
0[
1Q
04
12
0(
1&
#100000
b110 #
b1101 "
b10 #
0?
0B
08
1)
0S
0R
0@
0O
0N
0K
0C
0G
09
0D
0P
0I
0H
0E
0Q
0J
00
02
01
0$
0&
0%
#110000
b1100 "
b100 "
b1010 #
b110 "
b1110 #
1B
18
0:
1?
05
0)
1O
1N
1K
1C
1G
19
1W
1S
1R
1@
1P
1D
1I
1H
1Q
1E
1J
12
10
11
1&
1$
1%
#120000
b1100 #
b111 "
b1111 "
1:
15
0=
1)
0W
0T
0S
0R
0>
0U
0@
0V
03
0'
#130000
b1011 "
b100 #
b1001 "
b0 #
b10 #
b1 "
1=
0B
08
0?
0A
05
0)
1T
1>
0O
0N
0C
0G
09
0D
1U
0P
0I
0H
0E
00
0$
1V
0Q
0J
13
02
01
1'
0&
0%
#140000
b1010 #
b11 "
b1110 #
b1011 "
1?
15
1B
18
1)
1S
1R
1@
1O
0K
1C
1G
19
1D
1P
1I
1H
1E
10
1$
1Q
1J
12
11
1&
1%
#150000
b1111 #
b1111 "
b111 "
1A
05
1;
0)
1N
1K
1Y
1X
1W
1<
1Z
1[
14
1(
#160000
b1101 #
b101 "
b1001 #
b1000 #
0?
0;
0=
0B
1)
0S
0Y
0X
0W
0<
0T
0>
0O
0N
0K
0C
0Z
0@
0U
0P
0D
0[
0Q
0V
04
02
03
0(
0&
0'
0E
00
0$
#170000
b0 #
b100 #
1B
08
0)
1O
1N
1K
1C
0G
09
1P
1D
0I
0H
1Q
0J
12
01
1&
0%
#180000
b1101 "
b110 #
b10 #
1=
0B
15
1)
1T
0R
1>
0O
0N
0K
0C
1E
1U
0P
0D
10
1$
1V
0Q
0E
13
02
00
1'
0&
0$
#190000
b1001 "
b11 #
b1011 #
b1111 #
1;
1B
18
0A
0)
1Y
1X
1W
1<
1O
1C
1G
19
1Z
1@
1P
1I
1H
1E
1D
10
1$
1[
1Q
1J
14
12
11
1(
1&
1%
#200000
b1 "
b1101 #
b101 "
b1100 #
0;
0=
1A
05
1)
0Y
0X
0W
0<
0T
1R
0>
1N
1K
0Z
0@
0U
0[
0V
04
03
0(
0'
#210000
b1000 #
0B
0)
0O
0N
0K
0C
0P
0D
0Q
0E
02
00
0&
0$
#220000
b100 "
b110 "
b1010 #
b1011 #
1;
1=
0:
1?
1)
1Y
1T
1S
1>
1Z
1U
1@
1D
1[
1V
14
13
1(
1'
1E
10
1$
#230000
b1110 "
b1111 #
b1101 #
0=
1B
15
0)
0T
0S
0R
0>
1O
1N
1K
1C
0U
0@
1P
0V
1Q
03
12
0'
1&
#240000
b1111 "
b1001 #
b1011 #
1=
0B
1:
1)
1T
1S
1R
1>
0O
0N
0K
0C
1X
1W
1<
1U
1@
0P
0D
1D
1V
0Q
13
02
1'
0&
#250000
b11 #
b1011 "
b1001 "
b111 #
b101 #
0?
0A
0=
1B
08
0)
0S
0D
0T
0>
1O
1C
0G
09
0U
0@
1P
1D
0I
0H
0E
0D
00
0$
0V
1Q
1E
0J
03
12
10
01
0'
1&
1$
0%
0E
00
0$
#260000
b1101 "
b1111 "
b1 #
b11 #
1=
0B
1?
1A
1)
1T
1S
1>
0O
0C
1@
1D
1U
0P
1E
10
1$
1V
0Q
13
02
1'
0&
#270000
b111 "
b101 "
b111 #
b101 #
0=
1B
0?
05
0)
0T
0S
0>
1O
1N
1K
1C
0E
0U
0@
1P
00
0$
0V
1Q
03
12
0'
1&
#280000
b100 "
b0 "
b10 "
b1 #
0B
0:
1?
0A
1)
0O
0N
0C
0X
0W
0<
0R
1@
0D
0P
0@
0Q
02
0&
#290000
b0 #
b1000 #
b1010 "
b1011 "
1:
15
0;
18
0)
0Y
1G
19
0Z
1I
1H
1E
10
1$
0[
1J
04
11
0(
1%
#300000
b1010 #
b1001 "
b1110 #
b1111 #
b111 #
b1000 "
0:
0?
1;
1=
1B
08
1)
1Y
1T
1>
1O
0K
1C
0G
09
1Z
1U
1P
0I
0H
0E
00
0$
1[
1V
1Q
0J
14
13
12
01
1(
1'
1&
0%
#310000
b0 "
b101 #
b1101 #
0=
18
05
0)
0T
1R
0>
1G
19
0U
1I
1H
0V
1J
03
11
0'
1%
#320000
b100 "
b1001 #
b1000 #
0;
0B
1A
1)
0Y
1W
0O
0C
1D
0Z
0P
0D
1E
10
1$
0[
0Q
0E
04
02
00
0(
0&
0$
#330000
b110 "
b111 "
b1111 "
b1011 "
b1001 #
1;
1:
1?
0A
15
0)
1Y
1X
1<
0R
1K
1E
1Z
1@
10
1$
1[
14
1(
#340000
b1101 #
b1010 "
b10 "
b110 "
0:
1A
05
1B
1)
0X
0W
0<
1N
1D
1O
1C
0E
0@
1P
00
0$
1E
10
1$
1Q
12
1&
#350000
b1001 #
b10 "
0A
0B
0)
0N
0D
0O
0C
0P
0E
00
0$
0Q
02
0&
#360000
b1 #
b0 #
b11 "
b1011 "
b100 #
b1111 "
1:
1A
15
0;
1B
08
1)
1N
0Y
1O
1C
0G
09
1E
0Z
1P
1D
0I
0H
10
1$
0E
00
0$
0[
1Q
1E
0J
04
12
10
01
0(
1&
1$
0%
#370000
b101 #
b1110 "
b110 "
0:
05
1;
0)
1Y
0E
1Z
00
0$
1[
14
1(
#380000
b1101 #
b1001 #
b10 "
b11 "
b1011 "
1:
0A
15
0B
18
1)
1X
1W
1<
0N
0D
0O
0C
1G
19
1E
1@
0P
1I
1H
10
1$
0Q
1J
02
11
0&
1%
#390000
b1000 #
b1100 #
b1111 "
b1110 "
0:
1A
0;
1B
0)
0X
0<
1N
1D
0Y
1O
1C
0@
0Z
1P
1Q
0[
12
04
1&
0(
#400000
b1100 "
b100 #
b101 #
b1 #
b1000 "
b1001 "
1;
0B
08
1:
0?
0A
1)
1Y
1X
1<
0O
0N
0C
0G
09
1R
0D
1Z
0P
0I
0H
0E
00
0$
1[
0Q
0J
14
02
01
1(
0&
0%
#410000
b11 #
b10 #
b110 #
b1101 "
b1100 "
0:
1A
0;
1=
1B
0)
0X
0<
1N
0Y
1T
0R
1>
1O
1C
0Z
1U
1P
1D
0[
1V
1Q
1E
04
13
12
10
0(
1'
1&
1$
#420000
b100 "
b110 "
b100 #
b0 #
b111 "
0=
0B
1:
1?
05
1)
0T
0>
0O
0N
0K
0C
0W
1@
0E
0U
0@
0P
00
0$
0D
0V
0Q
03
02
0'
0&
#430000
b101 "
0?
0)
1R
#440000
b1 "
b10 #
b110 #
b0 "
b10 "
1=
1B
0:
1?
0A
1)
1T
1S
1>
1O
1C
1W
1U
1@
1P
1D
1V
1Q
13
12
1'
1&
#450000
b111 #
b110 "
b100 "
0?
1A
1;
0)
0S
0R
0@
1N
1K
1Y
0W
1Z
1[
14
1(
#460000
b1100 "
b11 #
b10 #
b1110 "
0;
0B
1?
15
1)
0Y
1W
0O
0N
0K
0C
1S
1R
1@
1E
0Z
0P
10
1$
0[
0Q
04
02
0(
0&
#470000
b1010 #
b1111 "
b111 "
b1110 #
1:
05
1B
18
0)
0W
1O
1N
1K
1C
1G
19
0E
1P
1I
1H
00
0$
1E
10
1$
1Q
1J
12
11
1&
1%
#480000
b1111 #
b111 #
b110 "
0:
1;
08
1)
1Y
0G
09
1Z
0I
0H
0E
00
0$
1[
0J
14
01
1(
0%
#490000
b101 #
b10 "
b0 "
b1000 "
0?
0A
15
0=
0)
0S
0@
0N
0K
0T
0>
1E
0D
0U
10
1$
0E
0V
00
03
0$
0'
#500000
b1 #
b1001 "
b11 #
b1101 "
1:
1A
1=
0B
1)
1X
1W
1<
1D
1T
0R
1>
0O
0C
1@
1U
0P
0D
1E
1D
10
1$
0Q
1V
0E
02
13
00
0&
1'
0$
1E
10
1$
#510000
b111 #
b1100 "
b1000 "
0:
0A
1B
0)
0X
0W
0<
0D
1O
1C
0@
1P
1D
0E
0D
00
0$
1Q
1E
12
10
1&
1$
0E
00
0$
#520000
b110 #
b100 #
b1001 "
b1101 "
1:
1A
0;
0=
1)
1N
1K
1D
0Y
0T
1R
0>
0Z
0U
1E
10
1$
0[
0V
04
03
0(
0'
#530000
b1100 #
b1111 "
b111 "
b1101 #
b1111 #
b110 "
b10 "
0:
1?
0A
05
1;
1=
18
0)
1S
0N
0K
0D
1Y
1T
1>
1G
19
0E
1Z
1U
1@
1I
1H
00
0$
1D
1[
1V
1J
14
13
11
1(
1'
1%
1E
10
1$
#540000
b1011 #
b11 #
b1010 "
b1 #
15
0=
0B
08
1)
0T
0S
0R
0>
0O
1K
0C
0G
09
0U
0@
0P
0D
0I
0H
0V
0Q
0E
0J
03
02
00
01
0'
0&
0$
0%
#550000
b1011 "
b101 #
b1101 #
b1111 #
1=
1B
18
1:
0)
1T
1S
1R
1>
1O
0K
1C
1G
19
1X
1W
1<
1U
1@
1P
1I
1H
1E
1D
10
1$
1V
1Q
1J
13
12
11
1'
1&
1%
#560000
b111 #
08
1)
0G
09
0I
0H
0J
01
0%
#570000
b11 "
b10 "
b11 #
b1011 #
0B
18
0:
05
0)
0O
1K
0C
1G
19
0X
0W
0<
0E
0P
0D
1I
1H
00
0$
1E
10
1$
0Q
0E
1J
02
00
11
0&
0$
1%
#580000
b110 "
b1001 #
b1110 "
b1111 "
0=
1:
1A
15
1)
0T
0S
0R
0>
1X
1W
1<
0K
1D
1E
0U
10
1$
0V
03
0'
#590000
b1110 "
0:
0)
0X
0W
0<
0@
0D
#600000
b1100 "
b1101 #
b100 "
1B
0?
05
1)
1O
1N
1K
1C
1R
0E
1P
1D
00
0$
1Q
1E
12
10
1&
1$
#610000
b1100 #
b1110 #
b101 "
b111 "
b1111 "
1:
1?
15
0;
1=
0)
1S
0Y
1T
1>
0Z
1U
1@
0[
1V
04
13
0(
1'
#620000
b110 #
b1011 "
b10 #
b1001 "
0?
0A
0B
08
1)
0S
0R
0@
0N
0O
0C
0G
09
0D
0P
0I
0H
0E
0Q
0J
00
02
01
0$
0&
0%
#630000
b0 #
b1000 "
b0 "
0:
05
0=
0)
1W
0T
1R
0>
0U
0V
03
0'
#640000
b1000 #
b1100 #
b1 "
1:
1B
18
1)
0W
1O
0K
1C
1G
19
1P
1I
1H
1Q
1J
12
11
1&
1%
#650000
b101 "
b111 "
b1110 #
b1111 "
b1110 "
1=
0:
1?
1A
15
0)
1T
1S
1>
1W
1N
1K
1D
1E
1U
1@
10
1$
1V
13
1'
#660000
b1111 #
b1011 #
b1010 "
b1000 "
0?
0A
1;
0B
1)
0S
0R
0@
0N
1Y
0W
0O
0C
0D
1Z
0P
1[
0Q
14
02
1(
0&
#670000
b1001 #
b1000 #
0;
0=
0)
0Y
1W
0T
1R
0>
0Z
0U
0[
0V
04
03
0(
0'
#680000
b1100 #
b1100 "
b1101 #
1A
1;
1B
1)
1N
1Y
0W
1O
1C
1Z
1P
1D
1[
1Q
14
12
1(
1&
#690000
b101 #
b1101 "
b100 #
1:
0;
08
0)
0Y
0G
09
0Z
0I
0H
0[
0J
04
01
0(
0%
#700000
b110 #
b1001 "
b1110 #
b1000 "
b1111 #
0:
0A
1;
1=
18
1)
0N
0K
0D
1Y
1T
0R
1>
1G
19
1Z
1U
1I
1H
1[
1V
1J
14
13
11
1(
1'
1%
#710000
b0 "
b1011 #
b100 "
b11 #
b101 "
0B
08
1:
1A
05
0)
0O
0C
0G
09
1X
1W
1<
1D
0E
0P
0D
0I
0H
1@
00
0$
1D
0Q
0J
02
01
0&
0%
#720000
b1101 "
b1001 "
b1011 #
18
0A
15
1)
1G
19
1K
0D
1E
1I
1H
10
1$
1J
11
1%
#730000
b1011 "
b1010 #
b1110 #
b11 "
b111 "
0;
1B
1?
1A
05
0)
0Y
0X
0W
0<
1O
1N
1C
1S
1R
1D
0E
0Z
1P
00
0$
1E
10
1$
0[
1Q
04
12
0(
1&
#740000
b1100 #
b110 "
b100 "
b1101 #
b0 "
0:
0?
0A
1;
0=
1)
0S
0@
0N
0K
1Y
0T
0>
0D
1Z
0U
0E
1[
0V
00
14
03
0$
1(
0'
#750000
b1111 #
b1 "
1:
1=
0)
1X
1W
1<
1T
0R
1>
1@
1U
1D
1V
13
1'
1E
10
1$
#760000
b111 #
b110 #
b101 "
b100 "
0:
1A
0;
08
1)
0X
0<
1N
1K
0Y
0G
09
0@
0Z
0I
0H
0E
00
0$
0[
0J
04
01
0(
0%
#770000
b1100 "
b1110 "
b1111 "
1:
1?
15
0)
0W
1S
1R
1@
1E
10
1$
#780000
b1011 "
b11 "
b1 "
b0 "
0:
0?
0A
05
1)
1W
0S
0R
0@
0N
0K
0E
0D
00
0$
#790000
b10 #
b0 #
b1 #
b100 "
b1100 "
b1110 "
b1111 "
1:
1?
1A
15
1;
0=
0B
0)
1X
1<
1@
1D
1Y
0T
0>
0O
0C
1Z
0U
0P
1E
10
1$
1[
0V
0Q
14
03
02
1(
0'
0&
#800000
b1001 #
b1101 #
b1100 #
b1101 "
0?
0;
1B
18
1)
1R
0@
0Y
0X
0W
0<
1O
1N
1K
1C
1G
19
0Z
1P
1I
1H
0[
1Q
1J
04
12
11
0(
1&
1%
#810000
b1001 "
b100 #
b101 #
1;
08
0A
0)
1Y
1X
1W
1<
0G
09
0N
0K
0D
1Z
0I
0H
0E
00
0$
1[
0J
14
01
1(
0%
#820000
b1101 #
18
1)
1G
19
1I
1H
1E
10
1$
1J
11
1%
#830000
b1111 #
b1011 "
b1110 #
b110 #
1?
0;
1=
08
0)
1S
1@
0Y
0X
0W
0<
1T
1>
0G
09
1D
0Z
1U
0I
0H
0E
00
0$
1E
0[
1V
0J
10
04
13
01
1$
0(
1'
0%
#840000
b11 "
b111 "
b100 #
b101 "
0=
0?
1A
05
1)
0T
0S
0>
0@
1N
1K
0E
0U
00
0$
0V
03
0'
#850000
b0 #
b1000 #
b1010 #
b111 "
1?
1=
0B
18
0)
1S
1T
1>
0O
0N
0K
0C
1G
19
1U
1@
0P
0D
1I
1H
1E
1D
10
1$
1V
0Q
0E
1J
13
02
00
11
1'
0&
0$
1%
1E
10
1$
#860000
b110 "
b10 "
0:
0A
1)
1W
1K
0D
0E
00
0$
#870000
b10 #
b0 "
b100 "
0?
1A
08
0)
0S
0R
0@
0K
1D
0G
09
0D
0I
0H
0J
01
0%
#880000
b11 #
b1100 "
b1101 "
b1011 #
b1111 "
b1011 "
1:
1?
0A
15
1;
18
1)
1X
1<
1S
1R
1@
1K
1Y
1G
19
1Z
1I
1H
1E
10
1$
1[
1J
14
11
1(
1%
#890000
b1010 #
b11 "
b10 "
b110 "
0:
1A
05
0;
0)
0X
0<
0K
1D
0Y
0E
0Z
00
0$
1E
10
1$
0[
04
0(
#900000
b1000 #
b100 "
b1001 #
b101 "
1:
0?
1;
0=
1)
1X
1<
0S
0@
1Y
0T
0>
0D
1Z
0U
0E
1[
0V
00
14
03
0$
1(
0'
#910000
b1 "
b1011 #
b11 "
b10 "
1=
0:
1?
0A
0)
1T
1S
1>
0X
0W
0<
1@
1K
1U
1V
13
1'
#920000
b11 #
b1010 "
b1 #
b1011 "
1:
15
0=
08
1)
1X
1W
1<
0T
0S
0R
0>
0G
09
1E
0U
0I
0H
10
1$
0E
00
0$
0V
0J
03
01
0'
0%
#930000
b0 #
b1000 #
0;
18
0)
0Y
0X
0W
0<
1G
19
0Z
0@
1I
1H
1E
10
1$
0[
1J
04
11
0(
1%
#940000
b1111 "
b1001 #
1;
1A
1)
1Y
1X
1W
1<
0K
1Z
1@
1D
1[
14
1(
#950000
b1101 #
b1110 "
b101 #
0:
1B
08
0)
0X
0W
0<
1O
1N
1K
1C
0G
09
0@
1P
0I
0H
1Q
0J
12
01
1&
0%
#960000
b1100 "
b111 #
b110 #
b10 #
b1101 "
b1010 #
0;
1=
0B
18
1:
0?
1)
0Y
1T
1>
0O
0N
0K
0C
1G
19
0Z
1U
0P
0D
1I
1H
0[
1V
0Q
1J
04
13
02
11
0(
1'
0&
1%
#970000
b1001 "
b1011 #
1;
0A
0)
1Y
1X
1W
1<
1K
1Z
1@
1[
14
1(
#980000
b1 "
b11 "
b1001 #
b1101 #
b10 "
b1100 #
0;
0=
1B
0:
1?
05
1)
0Y
0X
0<
0T
0>
1O
0K
1C
0E
0Z
0@
0U
1P
1D
00
0$
0D
0[
1Q
0V
1E
04
12
03
10
0(
1&
0'
1$
0E
00
0$
#990000
b110 "
b1110 "
b1100 "
b1101 "
b1101 #
1;
1:
0?
1A
15
0)
1Y
1X
1<
1R
1N
1K
1D
1E
1Z
10
1$
1[
14
1(
