prova/simulation/qsim/mbr_prova.msim.vcd
$comment
	File created using the following command:
		vcd file mbr_prova.msim.vcd -direction
$end
$date
	Wed Nov 29 22:31:36 2023
$end
$version
	ModelSim Version 10.1d
$end
$timescale
	1ps
$end
$scope module mbr_prova_vlg_vec_tst $end
$var reg 3 ! c [2:0] $end
$var reg 4 " x [3:0] $end
$var reg 4 # y [3:0] $end
$var wire 1 $ cout $end
$var wire 1 % s [3] $end
$var wire 1 & s [2] $end
$var wire 1 ' s [1] $end
$var wire 1 ( s [0] $end
$var wire 1 ) sampler $end
$scope module i1 $end
$var wire 1 * gnd $end
$var wire 1 + vcc $end
$var wire 1 , unknown $end
$var tri1 1 - devclrn $end
$var tri1 1 . devpor $end
$var tri1 1 / devoe $end
$var wire 1 0 cout~output_o $end
$var wire 1 1 s[3]~output_o $end
$var wire 1 2 s[2]~output_o $end
$var wire 1 3 s[1]~output_o $end
$var wire 1 4 s[0]~output_o $end
$var wire 1 5 x[3]~input_o $end
$var wire 1 6 c[0]~input_o $end
$var wire 1 7 c[2]~input_o $end
$var wire 1 8 y[3]~input_o $end
$var wire 1 9 inst13|inst3|inst1|inst5~0_combout $end
$var wire 1 : x[0]~input_o $end
$var wire 1 ; y[0]~input_o $end
$var wire 1 < inst|inst3|inst1|inst5~0_combout $end
$var wire 1 = y[1]~input_o $end
$var wire 1 > inst11|inst5~0_combout $end
$var wire 1 ? x[1]~input_o $end
$var wire 1 @ inst11|inst3|inst1|inst5~0_combout $end
$var wire 1 A x[2]~input_o $end
$var wire 1 B y[2]~input_o $end
$var wire 1 C inst12|inst5~0_combout $end
$var wire 1 D inst12|inst3|inst1|inst5~0_combout $end
$var wire 1 E inst13|inst3|inst1|inst5~1_combout $end
$var wire 1 F c[1]~input_o $end
$var wire 1 G inst13|inst|inst2|inst3~0_combout $end
$var wire 1 H inst13|inst|inst2|inst3~1_combout $end
$var wire 1 I inst13|inst|inst2|inst3~2_combout $end
$var wire 1 J inst13|inst|inst2|inst3~3_combout $end
$var wire 1 K inst12|inst3|inst|1~0_combout $end
$var wire 1 L inst|inst|inst2|inst3~1_combout $end
$var wire 1 M inst|inst|inst2|inst3~0_combout $end
$var wire 1 N inst12|inst|inst|inst3|inst3~0_combout $end
$var wire 1 O inst12|inst|inst2|inst3~0_combout $end
$var wire 1 P inst12|inst|inst2|inst3~1_combout $end
$var wire 1 Q inst12|inst|inst2|inst3~2_combout $end
$var wire 1 R inst11|inst3|inst|1~0_combout $end
$var wire 1 S inst11|inst|inst|inst3|inst3~0_combout $end
$var wire 1 T inst11|inst|inst2|inst3~0_combout $end
$var wire 1 U inst11|inst|inst2|inst3~1_combout $end
$var wire 1 V inst11|inst|inst2|inst3~2_combout $end
$var wire 1 W inst|inst3|inst|1~combout $end
$var wire 1 X inst|inst|inst|inst3|inst3~0_combout $end
$var wire 1 Y inst|inst|inst2|inst3~2_combout $end
$var wire 1 Z inst|inst|inst2|inst3~3_combout $end
$var wire 1 [ inst|inst|inst2|inst3~4_combout $end
$upscope $end
$upscope $end
$enddefinitions $end
#0
$dumpvars
b100 !
b1001 "
b1101 #
1$
0(
1'
1&
0%
x)
0*
1+
x,
1-
1.
1/
10
01
12
13
04
15
06
17
18
19
1:
1;
1<
0=
0>
0?
0@
0A
1B
1C
0D
1E
0F
1G
1H
0I
0J
0K
1L
0M
0N
1O
1P
1Q
1R
0S
0T
0U
1V
1W
1X
1Y
1Z
0[
$end
#10000
b1101 "
b1100 "
b101 #
b1 #
b11 #
b10 #
0;
1=
0B
08
0:
1A
0)
0Y
0X
0<
1T
0R
1>
0O
0C
0G
09
1D
0Z
1U
0P
0D
1I
1G
0G
0I
0E
1J
1I
00
11
0$
1%
0J
01
0%
1J
11
1%
#20000
b1110 "
b0 #
b1 #
1;
0=
1?
1)
1Y
0W
0T
0>
1@
1Z
0U
0@
1D
1[
0Q
0D
1G
14
02
1(
0&
1Q
1E
0G
0I
12
10
1&
1$
0E
1I
00
0$
0J
01
0%
1J
11
1%
#30000
b1001 #
b1101 #
b1100 "
0?
1B
18
0)
1R
1O
1N
1K
1C
1G
19
1P
1D
0I
0V
0Q
1E
0G
03
02
10
0'
0&
1$
0J
1I
01
0%
1J
11
1%
#40000
b1101 "
b101 #
b1111 "
08
1:
1?
1)
1G
09
1X
1W
1<
0R
0I
1@
0[
04
0(
0J
1Q
01
12
0%
1&
#50000
b1011 "
b1 #
b1001 "
0B
0?
0A
0)
0O
0N
0C
1R
0@
0P
0D
1V
0Q
0G
13
02
1'
0&
0E
1I
00
0$
1J
11
1%
#60000
b1 "
b11 #
b10 #
b0 "
b100 "
0;
1=
0:
1A
05
1)
0Y
0X
0<
1T
0R
1>
0K
0I
0Z
1U
1Q
0J
12
01
1&
0%
#70000
b1010 #
b1110 #
b1100 "
b1000 "
0A
15
1B
18
0)
1I
1O
1C
1G
19
1P
0I
1J
1E
11
10
1%
1$
0J
01
0%
#80000
b1100 #
b100 #
b0 "
b100 "
1A
05
0=
08
1)
1N
1K
1D
1I
0T
1R
0>
0G
09
0E
1G
0U
0I
00
0$
0Q
1J
0V
1I
02
11
03
0&
1%
0'
0J
01
0%
1J
11
1%
#90000
b110 "
b101 #
b1 #
b1001 #
1;
0B
18
1?
0)
1Y
0W
0O
0N
0K
0C
0G
19
0R
1Z
0P
0D
0I
1[
1Q
1E
1V
1G
14
12
10
13
1(
1&
1$
1'
0E
0J
1I
00
01
0$
0%
1J
11
1%
#100000
b1110 "
15
1)
0I
1E
10
1$
0J
01
0%
#110000
b1011 #
b1010 "
b1010 #
0A
0;
1=
0)
1K
0Y
1W
1T
1S
1R
1>
0Z
1U
1@
0Q
0[
0V
02
04
03
0&
0(
0'
1Q
12
1&
#120000
b1011 "
b10 #
08
1:
1)
0G
09
0W
1I
0E
1[
00
14
0$
1(
1J
11
1%
#130000
b1001 "
b1101 "
b1100 "
0:
0?
1A
0)
1W
0S
0R
0@
0K
1D
0D
1G
0[
1V
1E
0G
0I
04
13
10
0(
1'
1$
0E
1I
00
0$
0J
01
0%
1J
11
1%
#140000
b110 #
b100 "
b100 #
b1100 #
b110 "
1?
05
0=
1B
18
1)
1@
0I
0T
0>
1O
1N
1K
1C
1G
19
1D
0U
0@
1P
1I
0J
0G
01
0%
1E
0Q
1J
0I
10
02
11
1$
0&
1%
0J
01
0%
#150000
b1101 #
b1001 #
b1110 "
b1011 #
b1100 "
0?
15
1;
1=
0B
0)
1I
1Y
0W
1T
1>
0O
0N
0K
0C
1Z
1U
0P
0D
1J
1[
1Q
1G
11
14
12
1%
1(
1&
0I
0J
01
0%
#160000
b1000 "
b1010 #
b1110 #
b0 "
b1100 #
b10 "
0;
0=
1B
1?
0A
05
1)
0Y
1W
0T
0>
1O
1C
1@
1I
0E
0Z
0U
0@
1P
1D
00
0$
0[
0Q
1J
0D
0G
04
02
11
0(
0&
1%
1Q
1E
1G
0I
12
10
1&
1$
0E
1I
00
0$
0J
01
0%
1J
11
1%
#170000
b100 #
b101 #
b1 #
b11 #
1;
1=
0B
08
0)
1Y
0W
1T
1S
1R
1>
0O
1K
0C
0G
09
1Z
1U
1@
0P
0I
1[
0V
0Q
14
03
02
1(
0'
0&
1Q
0J
12
01
1&
0%
#180000
b11 "
b1 "
b1011 #
b1001 #
0=
18
1:
0?
1)
0T
0S
0>
1G
19
1X
1W
1<
0@
0U
1I
0[
1V
0Q
04
13
02
0(
1'
0&
1J
11
1%
#190000
b101 "
b1101 "
b1000 #
b1010 #
0;
1=
1A
15
0)
0Y
0X
0W
0<
1T
0R
1>
0K
0I
1E
0Z
1U
10
1$
1[
1Q
0J
14
12
01
1(
1&
0%
#200000
b1111 "
b10 #
08
1?
1)
0G
09
1S
1R
1@
1I
1D
0E
0V
0Q
1G
00
03
02
0$
0'
0&
1J
1E
0I
11
10
1%
1$
0J
01
0%
#210000
b111 "
b11 #
b1 #
b101 "
1;
0=
0?
05
0)
1Y
1X
1W
1<
0T
0S
0>
0@
1I
0E
1Z
0U
0D
00
0$
0[
1V
1Q
1J
0G
04
13
12
11
0(
1'
1&
1%
0I
0J
01
0%
#220000
b101 #
b100 #
0;
1B
1)
0Y
0X
0W
0<
1O
1N
1K
1C
0Z
1P
1D
1[
0V
0Q
1G
14
03
02
1(
0'
0&
1I
1J
11
1%
#240000
b1 "
b110 #
1=
0A
0)
1T
0R
1>
0N
0K
0D
1U
0G
1V
1Q
0I
13
12
1'
1&
0J
01
0%
#250000
b1110 #
b11 "
b1111 #
b111 "
b1101 #
1?
1A
1;
0=
18
1)
1@
1N
1K
1D
1Y
1X
1W
1<
0T
0>
1G
19
0G
1Z
0U
1I
1E
0[
0V
0I
10
04
03
1$
0(
0'
1J
11
1%
0J
01
0%
#260000
b1001 #
b101 "
b1000 #
b1010 #
0?
0;
1=
0B
0)
0@
0Y
0X
0W
0<
1T
1>
0O
0N
0K
0C
0D
0Z
1U
0P
1[
1V
1G
14
13
1(
1'
0E
1I
00
0$
1J
11
1%
#270000
b1011 #
b1001 #
1;
0=
1)
1Y
1X
1W
1<
0T
1R
0>
1Z
0U
0[
04
0(
#280000
b100 "
b1 #
b110 "
08
0:
1?
0)
0G
09
0X
0W
0<
0R
1@
0I
0@
1D
1[
0Q
0D
1G
14
02
1(
0&
0J
1Q
0G
1I
01
12
0%
1&
0I
1J
11
1%
0J
01
0%
#290000
b10 "
b0 #
b10 #
b11 "
b1 "
0;
1=
1:
0?
0A
1)
0Y
1T
1>
1K
0Z
1U
0Q
02
0&
#300000
b1001 "
15
0)
1I
1J
11
1%
#310000
b110 #
b1101 "
b100 #
b1100 "
0:
1A
0=
1B
1)
1W
1N
0T
1R
0>
1O
1C
0U
1P
1D
0[
0V
1G
04
03
0(
0'
1E
0I
10
1$
0J
01
0%
#320000
b1100 #
b100 "
b1000 #
05
0B
18
0)
1I
0O
0N
0K
0C
0G
19
0E
0P
0D
0I
00
0$
1J
1Q
1E
1G
11
12
10
1%
1&
1$
0E
0J
1I
00
01
0$
0%
1J
11
1%
#330000
b0 "
b1 "
1:
0A
1)
0W
1K
1[
0Q
14
02
1(
0&
#340000
b1001 "
b1100 #
1B
15
0)
1O
0K
1C
0I
1E
1P
10
1$
1Q
0J
12
01
1&
0%
#350000
b1101 #
b1111 #
b111 #
b1000 "
b0 "
b11 #
0:
05
1;
1=
0B
08
1)
1I
1Y
1T
0R
1>
0O
1K
0C
0G
09
0E
1Z
1U
0P
0I
00
0$
1J
1V
0Q
11
13
02
1%
1'
0&
0J
01
0%
#360000
b1 #
b1000 "
15
0=
0)
1I
0T
1R
0>
0U
1J
0V
11
03
1%
0'
#370000
b1001 "
1:
1)
1X
1W
1<
0[
1V
04
13
0(
1'
#380000
b0 #
b1000 #
b1100 #
b1 "
b0 "
0:
05
0;
1B
18
0)
0X
0<
0I
0Y
1O
0K
1C
1G
19
0Z
1P
1I
0V
0J
1Q
03
01
12
0'
0%
1&
1J
11
1%
#390000
b10 "
b100 #
b1010 "
08
1?
15
1)
0G
09
0R
0I
1E
1I
10
1$
0E
1V
0J
00
13
01
0$
1'
0%
1J
11
1%
#400000
b1110 "
b0 #
b1100 "
b1000 #
0B
18
0?
1A
0)
0O
0C
1G
19
1R
1D
0P
0D
0I
0G
1E
0V
1G
1I
10
03
1$
0'
0J
0I
01
0%
1J
11
1%
0J
01
0%
#410000
b1010 #
b1011 #
b100 "
b0 "
b10 "
b11 #
1?
0A
05
1;
1=
08
1)
1S
1K
1I
1Y
0W
1T
1>
0G
09
0E
1Z
1U
1@
0I
00
0$
0Q
1J
1[
02
11
14
0&
1%
1(
1Q
0J
12
01
1&
0%
#420000
b10 #
b0 "
0?
0;
0)
0S
0R
0@
0Y
1W
0Z
1V
0Q
0[
13
02
04
1'
0&
0(
#430000
b110 #
b100 #
b100 "
b1100 #
b110 "
1?
1A
0=
1B
18
1)
1@
1N
0T
0>
1O
1C
1G
19
1D
0U
0@
1P
1I
1Q
0G
12
1&
1E
0Q
1J
0I
10
02
11
1$
0&
1%
0J
01
0%
#440000
b1110 #
b10 "
b110 #
b0 "
0?
0A
1=
08
0)
0N
0K
0D
1T
1>
1G
09
0G
1U
1I
1Q
0E
0I
12
00
1&
0$
1J
11
1%
0J
01
0%
#450000
b1 "
b1001 "
b111 #
b101 #
1;
0=
1:
15
1)
1Y
1X
1<
0T
1R
0>
1I
1Z
0U
1J
11
1%
#460000
b1101 "
b1101 #
b1111 "
b1110 "
b1100 #
b1110 #
0;
1=
18
0:
1?
1A
0)
0Y
0X
0<
1T
1S
1>
1G
19
1@
1N
1K
1D
0Z
1U
0I
0G
0V
1E
1I
03
10
0'
1$
0J
01
0%
1J
11
1%
#470000
b1010 #
b1010 "
b1000 "
b1011 #
0?
0A
1;
0B
1)
0S
0R
0@
0N
1Y
0W
0O
0C
0D
1Z
0P
1V
0Q
1[
1G
13
02
14
1'
0&
1(
0I
0J
01
0%
#480000
b11 #
b1 #
b101 #
b100 #
0;
0=
1B
08
0)
0Y
1W
0T
1R
0>
1O
0K
1C
0G
09
0Z
0U
1P
1I
0[
0V
1Q
0E
04
03
12
00
0(
0'
1&
0$
1J
11
1%
#490000
b0 "
b1 "
b11 "
b1100 #
b1110 #
b1010 #
1=
0B
18
1:
1?
05
1)
1T
1S
1>
0O
1K
0C
1G
19
0W
0I
1U
1@
0P
1I
0Q
1[
0J
02
14
01
0&
1(
0%
1Q
1J
12
11
1&
1%
#500000
b111 "
b1011 #
b101 "
b1001 #
b1101 #
1;
0=
1B
0?
1A
0)
1Y
1X
1W
1<
0T
0S
0>
1O
1N
1C
0@
1D
1Z
0U
1P
0G
0[
1V
0Q
1E
0I
04
13
02
10
0(
1'
0&
1$
0J
01
0%
#510000
b100 "
b101 #
b110 "
b111 #
1=
08
0:
1?
1)
1T
1S
1>
1G
09
0X
0W
0<
1@
1U
1I
0E
1[
0V
1Q
00
14
03
12
0$
1(
0'
1&
1J
11
1%
#520000
b10 "
b110 #
b10 #
b0 "
b0 #
0;
0=
0B
0?
0A
0)
0Y
1W
0T
0S
0>
0O
0N
0C
0@
0Z
0U
0P
0D
0[
0Q
0G
04
02
0(
0&
0I
0J
01
0%
#530000
b1 "
b100 #
b110 #
1=
1B
1:
1)
1T
0R
1>
1O
0K
1C
0W
1U
1P
1V
1Q
1[
13
12
14
1'
1&
1(
#540000
b1001 "
b1110 #
b1111 #
b1011 "
b1011 #
b1001 #
1;
0=
0B
18
1?
15
0)
1Y
1X
1W
1<
0T
0>
0O
1K
0C
1G
19
1@
1I
1Z
0U
0P
0I
0[
0V
1E
1J
04
03
10
11
0(
0'
1$
1%
0J
01
0%
#550000
b1010 "
b1101 #
1B
0:
1)
1O
0K
1C
0X
0W
0<
1P
1D
0@
0Q
1[
1V
0G
0D
02
14
13
0&
1(
1'
1Q
1I
1G
12
1&
0I
1J
11
1%
0J
01
0%
#560000
b101 #
b1000 "
b111 #
b1001 "
b11 #
1:
0?
1=
0B
08
0)
1X
1W
1<
1T
1>
0O
1K
0C
0G
09
1@
1U
0P
1I
0[
0V
0Q
0E
04
03
02
00
0(
0'
0&
0$
1Q
1J
12
11
1&
1%
#570000
b10 #
b1010 #
b1011 "
b1000 #
b1010 "
0:
1?
0;
0=
18
1)
0X
0<
0Y
0T
0>
1G
19
0@
0Z
0U
0I
1V
1E
13
10
1'
1$
0Q
0J
02
01
0&
0%
#580000
b1110 "
b1100 #
b1101 #
b101 #
b1100 "
b1101 "
1;
1B
08
1:
0?
1A
0)
1Y
1X
1<
1O
1N
1C
0G
09
1R
1Z
1P
1D
1I
0E
1G
00
0$
1E
1J
0I
10
11
1$
1%
0J
01
0%
#590000
b101 "
b111 #
b11 #
b111 "
b110 "
1=
0B
0:
1?
05
1)
1T
1S
1>
0O
0N
0K
0C
0X
0W
0<
1@
1I
0E
1U
0P
00
0$
1[
0V
1J
14
03
11
1(
0'
1%
#600000
b10 #
b100 "
b101 "
1:
0?
0;
0)
0S
0R
0@
0Y
0D
0Z
1V
1Q
0G
13
12
1'
1&
0I
0J
01
0%
#610000
b1010 #
b1000 #
b1100 #
b1101 #
b111 "
1?
1;
0=
1B
18
1)
1@
1Y
1X
1W
1<
0T
0>
1O
1N
1K
1C
1G
19
1D
1Z
0U
1P
1I
0[
0V
0G
04
03
0(
0'
1E
1J
0I
10
11
1$
1%
0J
01
0%
#620000
b11 "
b1100 #
0;
0A
0)
0Y
0X
0W
0<
0N
0K
0Z
0@
1[
1V
0Q
0D
14
13
02
1(
1'
0&
1Q
1G
12
1&
0E
1I
00
0$
1J
11
1%
#630000
b1011 "
b1010 "
b1000 #
b1000 "
b1100 "
0B
0:
0?
1A
15
1)
0O
0C
1W
1R
1D
0I
1E
0P
0D
0G
10
1$
0[
0V
0J
1G
1I
04
03
01
0(
0'
0%
0I
1J
11
1%
0J
01
0%
#640000
b1010 #
b1101 "
b1001 "
1:
0A
1=
0)
0W
1K
1T
0R
1>
1U
1[
0Q
1V
14
02
13
1(
0&
1'
#650000
b10 #
b11 #
b1 "
b111 #
b11 "
1?
05
1;
1B
08
1)
1S
1R
1@
1I
1Y
1X
1W
1<
1O
0K
1C
0G
09
0E
1D
1Z
1P
0I
00
0$
1J
0[
1G
11
04
1%
0(
0J
1I
01
0%
1J
11
1%
#660000
b1111 #
18
0)
0G
19
0I
1E
10
1$
0J
01
0%
#670000
b1011 "
b1011 #
b1001 "
b11 #
0B
08
0?
15
1)
0O
1K
0C
1G
09
0S
0R
1I
0P
0D
0I
1Q
0V
1J
0G
12
03
11
1&
0'
1%
0E
0J
1I
00
01
0$
0%
1J
11
1%
#680000
b1 #
b0 #
b1 "
b11 "
1?
05
0;
0=
0)
0I
0Y
0X
0W
0<
0T
0>
0Z
0@
0U
0J
1[
1V
01
14
13
0%
1(
1'
0Q
02
0&
#690000
b111 "
b100 #
b1100 #
b1110 #
b1111 #
b101 "
1;
1=
1B
18
0?
1A
1)
1Y
1X
1W
1<
1T
1>
1O
1N
1C
1G
19
1Z
1@
1U
1P
1D
1I
0[
0V
0G
04
03
0(
0'
1Q
1E
1J
0I
12
10
11
1&
1$
1%
0J
01
0%
#710000
b1101 "
b1001 "
b1011 #
b1001 #
b1011 "
0=
0B
1?
0A
15
0)
0T
0>
0O
0N
0C
1I
0U
0P
0D
1J
1G
11
1%
0I
0J
01
0%
#720000
b1101 #
b1111 #
b1001 "
0?
1=
1B
1)
0@
1T
1>
1O
0K
1C
1U
1@
1P
1D
0Q
0G
02
0&
1I
1J
11
1%
#730000
b1 "
b101 "
b111 "
1?
1A
05
0)
1S
1R
1N
1K
0I
1V
1Q
0J
13
12
01
1'
1&
0%
#740000
b110 "
b1110 "
b1100 "
0:
0?
15
1)
0X
0W
0<
0S
0R
1I
0@
1[
1J
14
11
1(
1%
0Q
02
0&
#750000
b1011 #
b1101 "
b1111 "
1:
1?
0B
0)
1X
1W
1<
1S
1R
1@
0O
0N
0K
0C
0P
0[
04
0(
#770000
b1010 #
b1000 #
b1100 #
b1110 "
b1100 "
0:
0?
0;
0=
1B
1)
0X
0<
0S
0Y
0T
0>
1O
1N
1K
1C
0@
0Z
0U
1P
0V
1Q
03
12
0'
1&
0Q
02
0&
#780000
b100 #
b100 "
b101 #
b1 #
05
1;
0B
08
0)
0I
1Y
0W
0O
0N
0K
0C
1G
09
1Z
0P
0D
1I
0J
1[
1Q
0E
0G
01
14
12
00
0%
1(
1&
0$
1J
0I
11
1%
0J
01
0%
#790000
b11 #
b110 "
b1011 #
1?
1=
18
1)
1S
1T
1>
1G
19
1U
1@
1I
1D
0Q
1J
0G
02
11
0&
1%
1E
0I
10
1$
0J
01
0%
#800000
b10 "
b1111 #
b1101 #
b0 "
b101 #
0=
1B
08
0?
0A
0)
0T
0S
0>
1O
1C
1G
09
0@
0D
0U
1P
1I
0G
0E
1Q
0I
00
12
0$
1&
1J
11
1%
0J
01
0%
#810000
b100 "
b1 #
b11 #
b1011 #
1=
0B
18
1A
1)
1T
0R
1>
0O
0C
1G
19
1D
1U
0P
0D
1I
0G
1V
1E
1G
0I
13
10
1'
1$
0E
1J
1I
00
11
0$
1%
0J
01
0%
1J
11
1%
#820000
b101 "
b1111 #
b1101 #
0=
1B
1:
0)
0T
1R
0>
1O
1N
1K
1C
1X
1W
1<
0U
1P
1D
0Q
0[
0G
02
04
0&
0(
1E
0I
10
1$
0J
01
0%
#830000
b1101 "
b1100 #
b1111 "
b100 #
b1110 "
0;
08
0:
1?
15
1)
0Y
0X
0<
1G
09
0R
1@
1I
0Z
0@
0I
1Q
1J
12
11
1&
1%
0Q
0J
02
01
0&
0%
#840000
b110 "
b100 "
0?
05
0)
1R
1I
0E
00
0$
0V
1J
03
11
0'
1%
#850000
b101 "
1:
1)
0W
1[
14
1(
#860000
b1 "
b0 #
b1000 #
b0 "
0B
18
0:
0A
0)
0O
0N
0C
0G
19
1W
0D
0P
0I
1G
0[
1I
04
0(
0J
01
0%
1J
11
1%
#870000
b1010 #
b1000 "
b1010 "
b1110 "
b1110 #
b110 #
b1111 "
1:
1?
1A
15
1=
1B
08
1)
0W
1S
1N
0I
1T
1>
1O
1C
0G
09
1E
1U
1@
1P
1D
1I
10
1$
1[
0J
0E
1G
14
01
00
1(
0%
0$
1Q
1E
1J
0I
12
10
11
1&
1$
1%
0J
01
0%
#880000
b111 #
b1101 "
b1001 "
b11 #
b1000 "
0:
0?
0A
1;
0B
0)
0S
0R
0@
0N
1Y
0O
0C
0D
1Z
0P
1V
0Q
0G
13
02
1'
0&
0E
1I
00
0$
1J
11
1%
#890000
b0 "
b10 #
b100 "
b110 #
0;
1B
1A
05
1)
0Y
1W
1O
1N
1C
0I
0Z
1P
1D
0[
0J
1G
04
01
0(
0%
1I
1J
11
1%
#900000
b1110 #
b110 "
b1110 "
b1010 "
1?
0A
15
18
0)
1S
1R
1@
0N
0K
0D
0I
0G
19
1E
1D
1G
1I
10
1$
0V
0J
0G
0I
03
01
0'
0%
1J
1I
11
1%
0J
01
0%
1J
11
1%
#910000
b1011 "
b1010 #
0B
1:
1)
0O
1K
0C
0W
0P
0D
1Q
1[
1G
12
14
1&
1(
0I
0J
01
0%
#920000
b1011 #
b11 "
05
1;
0)
1I
1Y
1X
1W
1<
0E
1Z
00
0$
1J
0[
1V
11
04
13
1%
0(
1'
#930000
b11 #
b1 "
b111 #
0?
1B
08
1)
0S
0R
1O
0K
1C
0G
09
1P
1D
0I
0V
0Q
1G
03
02
0'
0&
0J
1I
01
0%
1J
11
1%
#940000
b0 "
b11 #
0B
0:
0)
0O
1K
0C
0X
0W
0<
0P
0D
0@
1Q
1[
1V
0G
12
14
13
1&
1(
1'
0Q
0I
02
0&
0J
01
0%
#950000
b1 #
b100 "
b1100 "
b1110 "
b101 #
1?
1A
15
0=
1B
1)
1@
1N
1I
0T
0>
1O
1C
1D
0U
0@
1P
1Q
1J
1G
12
11
1&
1%
1E
0Q
0I
10
02
1$
0&
0J
01
0%
#960000
b100 #
b1111 "
b110 #
b10 #
1:
0;
1=
0B
0)
0Y
1T
1S
1R
1>
0O
0N
0K
0C
0Z
1U
1@
0P
0D
0V
1Q
1D
0G
03
12
0'
1&
0Q
0E
1G
1I
02
00
0&
0$
1E
0I
10
1$
1J
11
1%
0J
01
0%
#970000
b1011 "
b11 "
b1 "
b11 #
b111 #
1;
1B
0?
0A
05
1)
1Y
1X
1W
1<
1O
1C
0S
0R
0@
0D
1I
0E
1Z
1@
1P
0G
00
0$
0[
1Q
1J
1D
0I
04
12
11
0(
1&
1%
0Q
1G
02
0&
0J
1I
01
0%
1J
11
1%
#980000
b0 "
b110 #
b10 #
0;
0B
0:
0)
0Y
0X
0<
0O
1K
0C
0Z
0@
0P
0D
1V
1Q
0G
13
12
1'
1&
0Q
0I
02
0&
0J
01
0%
#990000
b1010 #
b10 "
1?
18
1)
1S
1R
1@
1G
19
1I
0V
1Q
03
12
0'
1&
1J
11
1%
