prova/simulation/qsim/teste_mux8x1.msim.vcd
$comment
	File created using the following command:
		vcd file teste_mux8x1.msim.vcd -direction
$end
$date
	Wed Nov 29 12:17:36 2023
$end
$version
	ModelSim Version 10.1d
$end
$timescale
	1ps
$end
$scope module teste_mux8x1_vlg_vec_tst $end
$var reg 3 ! c [2:0] $end
$var reg 8 " e [7:0] $end
$var wire 1 # pin_name1 $end
$var wire 1 $ sampler $end
$scope module i1 $end
$var wire 1 % gnd $end
$var wire 1 & vcc $end
$var wire 1 ' unknown $end
$var tri1 1 ( devclrn $end
$var tri1 1 ) devpor $end
$var tri1 1 * devoe $end
$var wire 1 + pin_name1~output_o $end
$var wire 1 , c[1]~input_o $end
$var wire 1 - e[3]~input_o $end
$var wire 1 . e[2]~input_o $end
$var wire 1 / e[0]~input_o $end
$var wire 1 0 e[1]~input_o $end
$var wire 1 1 c[0]~input_o $end
$var wire 1 2 inst|inst|inst5|inst3~2_combout $end
$var wire 1 3 inst|inst|inst5|inst3~3_combout $end
$var wire 1 4 e[5]~input_o $end
$var wire 1 5 e[7]~input_o $end
$var wire 1 6 e[6]~input_o $end
$var wire 1 7 e[4]~input_o $end
$var wire 1 8 inst|inst|inst5|inst3~0_combout $end
$var wire 1 9 inst|inst|inst5|inst3~1_combout $end
$var wire 1 : c[2]~input_o $end
$var wire 1 ; inst|inst|inst5|inst3~4_combout $end
$upscope $end
$upscope $end
$enddefinitions $end
#0
$dumpvars
b101 !
b111 "
0#
x$
0%
1&
x'
1(
1)
1*
0+
0,
0-
1.
1/
10
11
12
13
04
05
06
07
08
09
1:
0;
$end
#5000
b100 !
b1000111 "
b1001111 "
b1001101 "
00
1-
16
01
0$
#10000
b0 !
b1101101 "
b1101100 "
b101100 "
b100100 "
b100110 "
0/
10
0-
14
06
0:
1$
02
1;
03
1+
1#
0;
0+
0#
#15000
b10 !
b110110 "
b110 !
b10110 "
b10111 "
b11111 "
1/
1-
17
04
1,
1:
0$
13
#20000
b11011 "
b1011011 "
b1011001 "
b1001001 "
00
0.
07
16
1$
03
18
19
1;
1+
1#
#25000
b100 !
b0 !
b1101001 "
b1101000 "
b1100000 "
b100000 "
0/
0-
14
06
0,
0:
0$
08
0;
09
0+
0#
#30000
b100100 "
b100 !
b100 "
1:
1.
04
1$
#35000
b10000100 "
b10001100 "
b10101100 "
1-
14
15
0$
#40000
b101 !
b10101101 "
b1 !
b101101 "
b100101 "
1/
0-
05
11
0:
1$
19
#45000
b100111 "
b11 !
b1100111 "
b1101111 "
1,
10
1-
16
0$
18
13
12
09
1;
1+
1#
#50000
b10 !
b110 !
b11101111 "
b11101101 "
b100 !
b10101101 "
00
06
15
01
0,
1:
1$
08
19
0;
09
0+
0#
1;
1+
1#
0;
0+
0#
#55000
b10101001 "
b10101000 "
b10100000 "
b0 !
b100000 "
b10 !
1,
0:
0/
0.
0-
05
0$
03
02
1;
1+
1#
0;
0+
0#
#60000
b11 !
b100010 "
b101010 "
b111 !
b10101010 "
10
1-
15
11
1:
1$
12
19
18
13
1;
1+
1#
#65000
b11101010 "
b11101011 "
b11 !
0:
1/
16
0$
#70000
b11111011 "
b11011011 "
b11011111 "
b1 !
b1011111 "
0,
1.
17
04
05
1$
08
09
#75000
b0 !
b1011101 "
b11101 "
b11100 "
b100 !
b1100 "
b1000 "
b110 !
0/
00
0.
07
06
01
1,
1:
0$
02
0;
03
0+
0#
#80000
b0 "
b100000 "
b111 !
b1100000 "
b1100001 "
b1110001 "
11
1/
0-
17
14
16
1$
19
18
12
09
1;
1+
1#
0;
0+
0#
#85000
b1110011 "
b11 !
b1 !
b1010011 "
b0 !
b10011 "
01
0,
0:
10
04
06
0$
19
13
1;
1+
1#
#90000
b10111 "
b11111 "
b11110 "
b1110 "
b1100 "
b100 !
b110 !
b101100 "
b1101100 "
1,
1:
0/
00
1.
1-
07
14
16
1$
02
#95000
b111 !
b1101000 "
b1100000 "
b1110000 "
b110000 "
0.
0-
17
06
11
0$
03
09
12
0;
0+
0#
#100000
b110001 "
b11 !
b1 !
b10001 "
b0 !
b1 "
b1000001 "
01
0,
0:
1/
07
04
16
1$
19
08
13
09
1;
1+
1#
#105000
b11000001 "
b11000011 "
b10 !
1,
10
15
0$
18
03
02
19
0;
0+
0#
#110000
b11000111 "
b110 !
b11100111 "
b11110111 "
b10110111 "
b10110101 "
1:
00
1.
17
14
06
1$
13
08
1;
09
1+
1#
0;
0+
0#
#115000
b10111101 "
b10111100 "
b111 !
b111100 "
b101 !
b111000 "
b1 !
b1111000 "
11
0,
0:
0/
0.
1-
16
05
0$
19
03
1;
1+
1#
0;
0+
0#
#120000
b1011000 "
b1011010 "
b0 !
b1011110 "
b100 !
01
1:
10
1.
04
1$
09
18
1;
19
1+
1#
0;
0+
0#
1;
1+
1#
#125000
b1010110 "
b1010111 "
b1010101 "
b1010001 "
b0 !
0:
1/
00
0.
0-
0$
12
0;
13
0+
0#
1;
1+
1#
#130000
b1000001 "
b1001001 "
b1001011 "
b1001111 "
10
1.
1-
07
1$
08
09
#135000
b11001111 "
b10001111 "
b10101111 "
b1 !
b10111111 "
b10110111 "
11
0-
17
14
06
15
0$
19
#140000
b10110110 "
b0 !
01
0/
1$
09
18
02
19
03
0;
0+
0#
#145000
b10 !
b110 !
b10110100 "
b10110000 "
b11110000 "
b11111000 "
b11111001 "
b111 !
1/
00
0.
1-
16
11
1,
1:
0$
12
1;
13
1+
1#
#150000
b1111001 "
b1101001 "
b101 !
b1101101 "
b101101 "
b101100 "
b100 !
01
0,
0/
1.
07
06
05
1$
08
02
09
03
0;
0+
0#
#155000
b10101100 "
b10111100 "
b110 !
b11111100 "
b111 !
11
1,
17
16
15
0$
19
18
12
13
1;
1+
1#
#160000
b11011100 "
b11 !
b11010100 "
b11010101 "
b1010101 "
b1 !
b10101 "
0,
0:
1/
0-
04
06
05
1$
08
02
09
03
0;
0+
0#
#165000
b10001 "
b0 !
b11001 "
b10011001 "
b10 !
b11011001 "
01
1,
0.
1-
16
15
0$
18
19
#170000
b11001001 "
b11101001 "
b110 !
b11101101 "
b111 !
b10101101 "
11
1:
1.
07
14
06
1$
12
13
1;
1+
1#
#175000
b10101111 "
b101 !
b10111111 "
b1 !
b0 !
01
0,
0:
10
17
0$
#180000
b10111110 "
b10110110 "
b110110 "
b10110 "
b10100 "
b100 !
b101 !
11
1:
0/
00
0-
04
05
1$
09
08
02
03
0;
0+
0#
#185000
b111 !
b100 "
b110 !
07
01
1,
0$
13
#190000
b0 "
b1000000 "
b1000001 "
b1001001 "
b10 !
b1011001 "
0:
1/
0.
1-
17
16
1$
03
18
1;
19
1+
1#
0;
0+
0#
#195000
b1111001 "
b1111011 "
b1111111 "
b1101111 "
10
1.
07
14
0$
13
1;
1+
1#
#200000
b11101111 "
b0 !
b1 !
b10101111 "
b10100111 "
b101 !
b10100011 "
11
0,
1:
0.
0-
06
15
1$
08
12
03
13
#205000
b10100010 "
b10000010 "
b10000000 "
b0 "
b111 !
b110 !
b1000000 "
b1000100 "
01
1,
0/
00
1.
04
16
05
0$
09
18
02
03
19
13
0;
0+
0#
1;
1+
1#
#210000
b1010100 "
b1011100 "
b10 !
b1111100 "
b11 !
b111100 "
b111000 "
11
0:
0.
1-
17
14
06
1$
09
12
03
13
0;
0+
0#
1;
1+
1#
#215000
b111001 "
b101001 "
b1101001 "
1/
07
16
0$
#220000
b1101011 "
b1 !
b101 !
b1001011 "
b100 !
b1011011 "
b11011 "
01
0,
1:
10
17
04
06
1$
19
0;
0+
0#
1;
1+
1#
#225000
b10011 "
b10010 "
b10000 "
b110000 "
b100000 "
b1100000 "
0/
00
0-
07
14
16
0$
02
08
03
09
0;
0+
0#
#230000
b0 !
b1 !
b1101000 "
b1101010 "
b1111010 "
b111010 "
10
1-
17
06
11
0:
1$
12
19
13
1;
1+
1#
#235000
b111110 "
b11 !
b111111 "
b111 !
b110 !
b111101 "
01
1,
1:
1/
00
1.
0$
09
02
0;
0+
0#
#240000
b10111101 "
b10011101 "
b10010101 "
b10000101 "
b10000001 "
b100 !
b0 !
0,
0:
0.
0-
07
04
15
1$
03
12
1;
13
1+
1#
0;
0+
0#
1;
1+
1#
#245000
b1 !
b10000011 "
b11 "
b100011 "
b101011 "
b111011 "
b101 !
10
1-
17
14
05
11
1:
0$
19
0;
0+
0#
1;
1+
1#
#250000
b111111 "
b100 !
b111101 "
b10111101 "
01
00
1.
15
1$
09
18
19
0;
0+
0#
1;
1+
1#
#255000
b10111100 "
b110 !
b10110100 "
b10100100 "
b10 !
b11 !
b10100110 "
b100110 "
11
1,
0:
0/
10
0-
07
05
0$
09
03
0;
0+
0#
#260000
b1100110 "
b1000110 "
b1 !
b1001110 "
0,
1-
04
16
1$
08
13
1;
1+
1#
#265000
b1001010 "
b1001011 "
b1011011 "
b11011 "
b111011 "
b11 !
1,
1/
0.
17
14
06
0$
18
19
09
#270000
b10 !
b111001 "
b111101 "
00
1.
01
1$
02
19
08
09
#275000
b110101 "
b100101 "
b0 !
b100001 "
0,
0.
0-
07
0$
03
12
13
0;
0+
0#
1;
1+
1#
#280000
b100 !
b100000 "
b1100000 "
b1100010 "
b1110010 "
b1110110 "
0/
10
1.
17
16
1:
1$
02
18
0;
03
19
0+
0#
1;
1+
1#
#285000
b11110110 "
b11111110 "
b0 !
b11111111 "
b10111111 "
b10101111 "
0:
1/
1-
07
06
15
0$
12
08
0;
13
09
0+
0#
1;
1+
1#
#290000
b10101011 "
b101011 "
b100011 "
b100 !
b1100011 "
b1110011 "
1:
0.
0-
17
16
05
1$
18
0;
19
0+
0#
1;
1+
1#
#295000
b1010011 "
b101 !
b10011 "
11
04
06
0$
09
08
0;
0+
0#
#300000
b10001 "
b10000 "
b10100 "
b11100 "
b1 !
b1100 "
0:
0/
00
1.
1-
07
1$
02
1;
03
1+
1#
0;
0+
0#
#305000
b11 !
b10001100 "
b11001100 "
b111 !
b11011100 "
17
16
15
1,
1:
0$
18
13
12
19
1;
1+
1#
#310000
b110 !
b11011110 "
b11011010 "
b11010010 "
b10 !
b11000010 "
10
0.
0-
07
01
0:
1$
02
03
0;
0+
0#
#315000
b11100010 "
b11100011 "
b1100011 "
b11 !
b1101011 "
b111 !
b1111011 "
11
1:
1/
1-
17
14
05
0$
09
12
1;
13
1+
1#
0;
0+
0#
#320000
b111011 "
b10111011 "
b110 !
b10110011 "
b10 !
01
0:
0-
06
15
1$
19
08
02
03
1;
09
1+
1#
0;
0+
0#
#325000
b10110001 "
b10110101 "
b10110100 "
b10100100 "
b11100100 "
b11 !
b11101100 "
b111 !
11
1:
0/
00
1.
1-
07
16
0$
19
18
12
13
1;
1+
1#
#330000
b101 !
b11001100 "
b1001100 "
b1001000 "
b1011000 "
b100 !
b0 !
0.
17
04
05
01
0,
0:
1$
02
03
0;
0+
0#
#335000
b1010000 "
b10 !
b1010100 "
b110 !
1,
1:
1.
0-
0$
13
1;
1+
1#
#340000
b1110100 "
b111 !
b1111100 "
11
1-
14
1$
09
12
0;
0+
0#
#345000
b111100 "
b10111100 "
b101 !
b10111000 "
0,
0.
06
15
0$
08
02
19
03
1;
1+
1#
#350000
b10011000 "
b100 !
b10010000 "
b11010000 "
b1010000 "
b110 !
01
1,
0-
04
16
05
1$
09
18
19
0;
0+
0#
1;
1+
1#
#355000
b1010001 "
b1000001 "
b10 !
b11000001 "
b0 !
0,
0:
1/
07
15
0$
08
12
0;
09
13
0+
0#
1;
1+
1#
#360000
b11000101 "
b11100101 "
b1 !
b11101101 "
b11111101 "
b1111101 "
11
1.
1-
17
14
05
1$
19
02
03
0;
0+
0#
#365000
b1111100 "
b101 !
b111 !
b1111000 "
b1110000 "
b1100000 "
1,
1:
0/
0.
0-
07
0$
18
12
1;
09
1+
1#
0;
0+
0#
#370000
b1100010 "
b100010 "
b101 !
b100110 "
b110110 "
0,
10
1.
17
06
1$
08
13
19
1;
1+
1#
#375000
b110111 "
b111111 "
b111101 "
1/
00
1-
0$
02
03
#380000
b11101 "
b10011101 "
b10011001 "
b10001001 "
b10001011 "
10
0.
07
04
15
1$
12
09
13
0;
0+
0#
#385000
b100 !
b11001011 "
b110 !
b11001010 "
b11000010 "
b11000110 "
b11010110 "
0/
1.
0-
17
16
01
1,
0$
02
03
18
13
19
1;
1+
1#
#390000
b1010110 "
b1011110 "
b1001110 "
1-
07
05
1$
#395000
b10 !
b1101110 "
b11 !
b1 !
b1101111 "
b1101011 "
b1111011 "
1/
0.
17
14
11
0,
0:
0$
12
03
08
09
13
19
0;
0+
0#
1;
1+
1#
#400000
b101 !
b1111010 "
0/
1:
1$
#405000
b1111000 "
b111000 "
b11000 "
b100 !
b11100 "
b1100 "
b0 !
01
0:
00
1.
07
04
06
0$
09
02
03
0;
0+
0#
#410000
b1101 "
b1001101 "
b1001001 "
b1011001 "
1/
0.
17
16
1$
12
18
13
19
1;
1+
1#
#415000
b11011001 "
b11010001 "
b10 !
b11010011 "
b11 !
b111 !
b11000011 "
11
1,
1:
10
0-
07
15
0$
03
#420000
b11100011 "
b11100010 "
b11100110 "
b1100110 "
b101 !
b100 !
b1110110 "
01
0,
0/
1.
17
14
05
1$
02
13
03
#425000
b1111110 "
b1011110 "
b1011010 "
b11011010 "
b110 !
b11001010 "
1,
0.
1-
07
04
15
0$
#430000
b11001000 "
b10 !
b11 !
b11101000 "
b1101000 "
11
0:
00
14
05
1$
09
12
0;
13
0+
0#
1;
1+
1#
#435000
b101000 "
b101001 "
b100001 "
b100011 "
b10 !
b11 "
01
1/
10
0-
04
06
0$
19
08
02
03
09
0;
0+
0#
#440000
b0 !
b10011 "
b10010011 "
b11010011 "
b11011011 "
b1 !
b11111011 "
1-
17
14
16
15
11
0,
1$
19
12
13
1;
1+
1#
#445000
b11111111 "
b11111110 "
b11111100 "
b0 !
01
0/
00
1.
0$
09
18
02
19
03
0;
0+
0#
#450000
b100 !
b11110100 "
b11010100 "
b11010110 "
10
0-
04
1:
1$
1;
1+
1#
#455000
b110 !
b10010110 "
b10010010 "
b10010011 "
b10010001 "
1/
00
0.
06
1,
0$
08
09
0;
0+
0#
#460000
b10001 "
b10101 "
b10111 "
10
1.
05
1$
13
#465000
b111 "
b10 !
b0 !
b1000111 "
b1000011 "
b1000001 "
0,
0:
00
0.
07
16
0$
03
12
1;
13
1+
1#
0;
0+
0#
1;
1+
1#
#470000
b1 !
b1001001 "
b1101001 "
b11101001 "
b11 !
b10101001 "
b10101101 "
b10101111 "
10
1.
1-
14
06
15
11
1,
1$
19
18
#475000
b10 !
b0 !
b10101011 "
0.
01
0,
0$
08
09
#480000
b10100011 "
b10000011 "
b10000001 "
b10 !
b10000101 "
1,
00
1.
0-
04
1$
03
02
13
0;
0+
0#
1;
1+
1#
#485000
b10010101 "
b110 !
b10101 "
b110101 "
b100 !
b110001 "
0,
1:
0.
17
14
05
0$
18
03
12
0;
19
13
0+
0#
1;
1+
1#
#490000
b110000 "
b1110000 "
b1100000 "
b0 !
b10 !
1,
0:
0/
07
16
1$
03
02
0;
0+
0#
#495000
b11 !
b1100010 "
b11100010 "
b11000010 "
b11000110 "
b11000111 "
b10000111 "
b10010111 "
b1 !
1/
10
1.
17
04
06
15
11
0,
0$
12
08
13
09
1;
1+
1#
#500000
b10011111 "
b0 !
b10011101 "
b11101 "
b11001 "
b11000 "
b1000 "
01
0/
00
0.
1-
07
05
1$
02
03
0;
0+
0#
#505000
b100 !
b101000 "
b1101000 "
b110 !
b11101000 "
b11101100 "
b11101101 "
b11111101 "
1/
1.
17
14
16
15
1,
1:
0$
13
18
19
1;
1+
1#
#510000
b11110101 "
b111 !
b11110111 "
b11110011 "
11
10
0.
0-
1$
12
03
#515000
b11 !
b11010011 "
b1010011 "
b1010010 "
b1000010 "
b1001010 "
b10 !
b1001000 "
0/
00
1-
07
04
05
01
0:
0$
02
13
0;
03
0+
0#
1;
1+
1#
0;
0+
0#
#520000
b1000 "
b1100 "
b110 !
b10001100 "
b10011100 "
b10011110 "
1:
10
1.
17
06
15
1$
13
08
1;
09
1+
1#
0;
0+
0#
#525000
b100 !
b10010110 "
b0 !
b10110 "
b110 "
b100 "
00
0-
07
05
0,
0:
0$
03
1;
1+
1#
0;
0+
0#
#530000
b101 "
b1000101 "
b1000001 "
b10 !
b1001001 "
b1011001 "
b1011011 "
1,
1/
10
0.
1-
17
16
1$
18
19
#535000
b1111011 "
b1111010 "
b111010 "
b110010 "
b100010 "
0/
0-
07
14
06
0$
08
09
#540000
b10100010 "
b0 !
b10000010 "
b11000010 "
b11001010 "
b11011010 "
0,
1-
17
04
16
15
1$
18
19
#545000
b100 !
b11011000 "
b11011001 "
b1011001 "
b110 !
b1111001 "
b1110001 "
1/
00
0-
14
05
1,
1:
0$
1;
1+
1#
#550000
b110001 "
b10 !
b10110001 "
b0 !
b10010001 "
0,
0:
04
06
15
1$
12
0;
13
0+
0#
1;
1+
1#
#555000
b10000001 "
b10000011 "
b10000010 "
b10001010 "
b11001010 "
0/
10
1-
07
16
0$
02
08
03
09
0;
0+
0#
#560000
b11001110 "
b100 !
b11101110 "
1:
1.
14
1$
#565000
b1101110 "
b110 !
b101110 "
b10 !
1,
0:
06
05
0$
13
1;
1+
1#
#570000
b11 !
b101100 "
b101101 "
b100101 "
b100001 "
b1 "
b1 !
b1000001 "
1/
00
0.
0-
04
16
11
0,
1$
03
0;
0+
0#
#575000
b1010001 "
b11010001 "
b11011001 "
b11011101 "
b11111101 "
b11 !
1,
1.
1-
17
14
15
0$
18
13
12
19
1;
1+
1#
#580000
b11111111 "
b1111111 "
b1110111 "
b1110011 "
b1010011 "
b1 !
0,
10
0.
0-
04
05
1$
08
09
#585000
b1010010 "
b1010000 "
b1011000 "
b1011100 "
0/
00
1.
1-
0$
02
03
0;
0+
0#
#590000
b101 !
b11100 "
b111 !
b11101 "
1/
06
1,
1:
1$
12
18
13
#595000
b110 !
b111101 "
b110101 "
b110001 "
b10 !
b1110001 "
0.
0-
14
16
01
0:
0$
03
19
02
1;
1+
1#
0;
0+
0#
#600000
b11110001 "
b11110011 "
b0 !
b1 !
b10110011 "
11
0,
10
06
15
1$
08
12
13
1;
1+
1#
#605000
b10110010 "
b10010010 "
b11 !
1,
0/
04
0$
18
03
09
19
0;
0+
0#
#610000
b10010110 "
b111 !
b10110 "
b10111 "
1:
1/
1.
05
1$
09
1;
1+
1#
0;
0+
0#
#615000
b111 "
b1111 "
b1101 "
b110 !
b1001101 "
b100 !
01
0,
00
1-
07
16
0$
19
08
13
09
1;
1+
1#
0;
0+
0#
#620000
b1101101 "
b1101001 "
b0 !
b11101001 "
b10 !
1,
0:
0.
14
15
1$
18
02
1;
19
03
1+
1#
0;
0+
0#
#625000
b11101000 "
b11100000 "
b11100010 "
b11 !
b10100010 "
b10000010 "
b10000110 "
b111 !
b110 "
b101 !
11
0,
1:
0/
10
1.
0-
04
06
05
0$
09
08
12
1;
13
1+
1#
0;
0+
0#
#630000
b10110 "
b10111 "
b11111 "
b100 !
b111111 "
b0 !
b10111111 "
b10 !
01
1,
0:
1/
1-
17
14
15
1$
02
1;
1+
1#
#635000
b11111111 "
b11101111 "
b11001111 "
b110 !
1:
07
04
16
0$
18
0;
19
0+
0#
1;
1+
1#
#640000
b11001101 "
b11001001 "
b11001000 "
b11000000 "
b111 !
b1000000 "
b101 !
b1100000 "
b1 !
11
0,
0:
0/
00
0.
0-
14
05
1$
09
08
03
19
0;
0+
0#
#645000
b100000 "
b110000 "
b110010 "
b0 !
b10110010 "
b10 !
b10010010 "
b110 !
01
1,
1:
10
17
04
06
15
0$
09
1;
1+
1#
0;
0+
0#
#650000
b10010011 "
b10011011 "
b11011 "
b111011 "
1/
1-
14
05
1$
#655000
b111111 "
b1111111 "
b1101111 "
b111 !
b1100111 "
11
1.
0-
07
16
0$
19
18
12
13
09
03
1;
1+
1#
0;
0+
0#
#660000
b1100101 "
b1000101 "
b1000001 "
b1010001 "
00
0.
17
04
1$
#665000
b11 !
b1010000 "
b10 !
b1011000 "
b1011010 "
b1111010 "
0/
10
1-
14
01
0:
0$
02
13
19
03
1;
1+
1#
0;
0+
0#
#670000
b111010 "
b111110 "
b110 !
b111111 "
b110111 "
b10111 "
1:
1/
1.
0-
04
06
1$
13
08
1;
09
1+
1#
0;
0+
0#
#675000
b100 !
b10010111 "
b10000111 "
b10000101 "
b0 !
00
07
15
0,
0:
0$
12
03
1;
13
1+
1#
0;
0+
0#
1;
1+
1#
#680000
b1 !
b11000101 "
b11100101 "
b11 !
b1100101 "
b1110101 "
b1110111 "
b111 !
10
17
14
16
05
11
1,
1:
1$
18
19
03
0;
09
0+
0#
1;
1+
1#
0;
0+
0#
#685000
b110111 "
b10110111 "
b10110101 "
b11 !
0:
00
06
15
0$
19
#690000
b10110001 "
b10110000 "
b1 !
b110000 "
0,
0/
0.
05
1$
08
13
02
09
19
03
1;
1+
1#
0;
0+
0#
#695000
b111000 "
b0 !
b101000 "
b1101000 "
b1101010 "
b100 !
b1101011 "
b110 !
01
1,
1:
1/
10
1-
07
16
0$
09
18
1;
19
1+
1#
0;
0+
0#
1;
1+
1#
#700000
b1100011 "
b1100010 "
b100 !
0,
0/
0-
1$
08
09
0;
0+
0#
#705000
b1000010 "
b1000110 "
b101 !
b110 "
b100 "
b1100 "
b111 !
11
1,
00
1.
1-
04
06
0$
18
12
13
#710000
b11 !
b1000 "
b1010 "
10
0.
0:
1$
1;
1+
1#
#715000
b10001010 "
b10001011 "
b111 !
b10001001 "
1:
1/
00
15
0$
19
0;
0+
0#
1;
1+
1#
#720000
b10011001 "
b10111001 "
b110 !
b11111001 "
b11110001 "
b100 !
b11110101 "
b1110101 "
b1110100 "
b0 !
b1110110 "
01
0,
0:
0/
10
1.
0-
17
14
16
05
1$
02
03
0;
0+
0#
#725000
b1100110 "
b1 !
b100110 "
b101110 "
b11 !
b10101110 "
b10101111 "
b111 !
b10101101 "
11
1,
1:
1/
00
1-
07
06
15
0$
12
13
1;
1+
1#
#730000
b10101001 "
b11101001 "
b1101001 "
b1101000 "
b11 !
b1101010 "
0:
0/
10
0.
16
05
1$
09
#735000
b10 !
b1101110 "
b101110 "
b10101110 "
b10101111 "
b110 !
1/
1.
06
15
01
1:
0$
02
08
19
0;
09
0+
0#
1;
1+
1#
0;
0+
0#
#740000
b10001111 "
b10011111 "
b100 !
b10011011 "
b11011011 "
b1011011 "
b1011010 "
b0 !
0,
0:
0/
0.
17
04
16
05
1$
18
03
1;
19
1+
1#
0;
0+
0#
#745000
b1011000 "
b1 !
b1001000 "
b11 !
b1001100 "
b11001100 "
b111 !
11
1,
1:
00
1.
07
15
0$
12
13
1;
1+
1#
#750000
b11000100 "
b10000100 "
b10000101 "
b10000111 "
b10010111 "
b10111 "
1/
10
0-
17
06
05
1$
03
09
0;
0+
0#
#755000
b110111 "
b110 !
b100 !
b110011 "
b0 !
b1110011 "
b1110010 "
01
0,
0:
0/
0.
14
16
0$
19
02
13
03
1;
1+
1#
0;
0+
0#
#760000
b1111010 "
b1111000 "
b1101000 "
b1 !
b1101100 "
b1101101 "
11
1/
00
1.
1-
07
1$
09
08
19
#765000
b11101101 "
b11001101 "
b11 !
b111 !
b11000101 "
b11010101 "
b110 !
b11010001 "
01
1,
1:
0.
0-
17
04
15
0$
09
18
1;
19
1+
1#
0;
0+
0#
1;
1+
1#
#770000
b11010011 "
b11010010 "
b1010010 "
b10 !
b1011010 "
b1001010 "
b11 !
b1001110 "
11
0:
0/
10
1.
1-
07
05
1$
09
12
13
0;
0+
0#
1;
1+
1#
#775000
b1101110 "
b1 !
b1101100 "
b1101101 "
b11101101 "
b101 !
b11100101 "
b11110101 "
b100 !
b11110001 "
01
0,
1:
1/
00
0.
0-
17
14
15
0$
19
0;
0+
0#
1;
1+
1#
#780000
b110 !
b11110011 "
b11110010 "
b11111010 "
0/
10
1-
1,
1$
02
03
#785000
b10111010 "
b10011010 "
b111 !
11
04
06
0$
12
13
#790000
b10001010 "
b10001110 "
b10001100 "
b10001101 "
b10000101 "
b110 !
01
1/
00
1.
0-
07
1$
08
02
03
09
13
0;
0+
0#
#795000
b101 "
b10 !
b1000101 "
b1010101 "
b11 !
11
0:
17
16
05
0$
18
12
1;
03
1+
1#
0;
0+
0#
#800000
b1 !
b1110101 "
b1110111 "
b1111111 "
b1101111 "
10
1-
07
14
0,
1$
13
08
19
1;
1+
1#
#805000
b101 !
b101111 "
b100 !
b110 !
b100111 "
0-
06
01
1,
1:
0$
03
09
02
13
0;
0+
0#
#810000
b100110 "
b10100110 "
b10110110 "
b111 !
b10111110 "
11
0/
1-
17
15
1$
19
18
12
1;
1+
1#
#815000
b10011110 "
b11 !
b11011110 "
b11011111 "
b1011111 "
0:
1/
04
16
05
0$
09
#820000
b1 !
b1001111 "
b1000111 "
b1100111 "
b100111 "
0-
07
14
06
0,
1$
08
19
#825000
b100011 "
b0 !
b100 !
b10100011 "
b10110011 "
b10111011 "
b10011011 "
01
1:
0.
1-
17
04
15
0$
09
18
19
0;
0+
0#
1;
1+
1#
#830000
b11011011 "
b101 !
b1 !
11
0:
16
1$
08
09
#835000
b11011001 "
b11 !
b11011101 "
b11111101 "
b10 !
b110 !
01
1,
1:
00
1.
14
0$
18
02
0;
19
0+
0#
1;
1+
1#
#840000
b11111100 "
b11110100 "
b11110110 "
b100 !
b11010110 "
b0 !
0,
0:
0/
10
0-
04
1$
03
0;
0+
0#
#845000
b10010110 "
b10010010 "
b1 !
b10010011 "
b10010001 "
b10110001 "
11
1/
00
0.
14
06
0$
08
#850000
b10100001 "
b11 !
b11100001 "
b11100000 "
b11100010 "
b11000010 "
1,
0/
10
07
04
16
1$
18
12
09
19
#855000
b11001010 "
b11011010 "
b10011010 "
b10011011 "
b10011001 "
b10111001 "
1/
00
1-
17
14
06
0$
13
1;
1+
1#
#860000
b111 !
b101 !
b10110001 "
b11110001 "
b11110011 "
10
0-
16
0,
1:
1$
08
#865000
b1110011 "
b1110111 "
b100 !
b1110110 "
b1111110 "
b111110 "
b111100 "
01
0/
00
1.
1-
06
05
0$
09
18
02
19
03
0;
0+
0#
1;
1+
1#
#870000
b101100 "
b1100 "
b101 !
b1101 "
b1001101 "
b1001111 "
11
1/
10
07
04
16
1$
09
08
12
13
0;
0+
0#
#875000
b111 !
b1000111 "
b1010111 "
b1110111 "
b110 !
b1110110 "
b110110 "
0/
0-
17
14
06
01
1,
0$
02
03
13
#880000
b10 !
b10110110 "
b10110010 "
b0 !
b1 !
b11110010 "
0.
16
15
11
0,
0:
1$
03
19
12
1;
13
1+
1#
0;
0+
0#
1;
1+
1#
#885000
b11111010 "
b11011010 "
b11011110 "
b11 !
b10 !
01
1,
1.
1-
04
0$
09
18
02
19
#890000
b11011100 "
b11001100 "
b11001101 "
b110 !
b10001101 "
1:
1/
00
07
06
1$
08
09
0;
0+
0#
#895000
b100 !
b10001111 "
b10011111 "
b10011110 "
b0 !
b11011110 "
0/
10
17
16
0,
0:
0$
18
03
1;
19
1+
1#
0;
0+
0#
#900000
b1011110 "
b1111110 "
b1111010 "
b1 !
b1111000 "
b101 !
11
1:
00
0.
14
05
1$
09
08
1;
19
1+
1#
0;
0+
0#
1;
1+
1#
#905000
b111 !
b11111000 "
b11011000 "
b110 !
b11011010 "
10
04
15
01
1,
0$
09
18
19
0;
0+
0#
1;
1+
1#
#910000
b11001010 "
b10 !
b0 !
b1001010 "
b1001000 "
0,
0:
00
07
05
1$
08
0;
09
0+
0#
#915000
b1000 "
b1100 "
b1 !
b11 !
b10001100 "
b10001110 "
11
1,
10
1.
06
15
0$
18
12
13
19
1;
1+
1#
#920000
b10000110 "
b10000111 "
b10010111 "
b111 !
b101 !
b10111 "
b10101 "
0,
1:
1/
00
0-
17
05
1$
08
02
09
03
0;
0+
0#
#925000
b1010101 "
b1010001 "
b100 !
b1010000 "
b1000000 "
b0 !
b11000000 "
b11000010 "
01
0:
0/
10
0.
07
16
15
0$
#930000
b11100010 "
b10 !
b11100110 "
b11110110 "
b1110110 "
b1110100 "
1,
00
1.
17
14
05
1$
18
13
19
1;
1+
1#
#935000
b1111100 "
b111100 "
b11 !
b111101 "
b111 !
b101 !
b101101 "
b101111 "
11
0,
1:
1/
10
1-
07
06
0$
09
08
12
03
19
13
0;
0+
0#
1;
1+
1#
#940000
b1111 "
b1011 "
b10001011 "
b10000011 "
b11000011 "
b1 !
b11000001 "
0:
00
0.
0-
04
16
15
1$
02
09
03
0;
0+
0#
#945000
b0 !
b11000000 "
b1000000 "
0/
05
01
0$
#950000
b1100000 "
b1101000 "
b1101010 "
b1 !
b1101011 "
11
1/
10
1-
14
1$
19
12
13
1;
1+
1#
#955000
b11 !
b11101011 "
b11101010 "
0/
15
1,
0$
18
#960000
b10101010 "
b10100010 "
b1 !
0,
0-
06
1$
08
#965000
b10110010 "
b10110110 "
b101 !
b10110111 "
1:
1/
1.
17
0$
#970000
b110111 "
b111111 "
b111 !
b101111 "
1,
1-
07
05
1$
18
09
0;
0+
0#
#975000
b1111 "
b1001111 "
b1001011 "
b101 !
b1011011 "
0,
0.
17
04
16
0$
08
#980000
b100 !
b1011010 "
b11010 "
0/
06
01
1$
02
18
03
19
1;
1+
1#
#985000
b11000 "
b10011000 "
b10010000 "
b110 !
b10000000 "
b111 !
b11000000 "
11
1,
00
0-
07
16
15
0$
12
#990000
b11100000 "
b11100010 "
b1100010 "
b1101010 "
10
1-
14
05
1$
13
09
0;
0+
0#
#995000
b110 !
b101010 "
b1010 "
b10001010 "
04
06
15
01
0$
19
08
02
09
03
1;
1+
1#
0;
0+
0#
